﻿  HelloTriangle.cpp
  Ex3TwoTriangles.vcxproj -> H:\OpenGL\Projects\Ex3TwoTriangles\Debug\Ex3TwoTriangles.exe
  Ex3TwoTriangles.vcxproj -> H:\OpenGL\Projects\Ex3TwoTriangles\Debug\Ex3TwoTriangles.pdb (Partial PDB)
