^H:\OPENGL\CODE_REPOSITORY\OPENGL_REPOSITORY\PROJECTS\HELLOTRIANGLEPASSCOLORVALUES\HELLOTRIANGLEPASSCOLORVALUES\GLAD.C
H:\OPENGL\CODE_REPOSITORY\OPENGL_REPOSITORY\PROJECTS\HELLOTRIANGLEPASSCOLORVALUES\HELLOTRIANGLEPASSCOLORVALUES\DEBUG\VC140.PDB
H:\OPENGL\CODE_REPOSITORY\OPENGL_REPOSITORY\PROJECTS\HELLOTRIANGLEPASSCOLORVALUES\HELLOTRIANGLEPASSCOLORVALUES\DEBUG\VC140.IDB
H:\OPENGL\CODE_REPOSITORY\OPENGL_REPOSITORY\PROJECTS\HELLOTRIANGLEPASSCOLORVALUES\HELLOTRIANGLEPASSCOLORVALUES\DEBUG\GLAD.OBJ
^H:\OPENGL\CODE_REPOSITORY\OPENGL_REPOSITORY\PROJECTS\HELLOTRIANGLEPASSCOLORVALUES\HELLOTRIANGLEPASSCOLORVALUES\HELLOTRIANGLE.CPP
H:\OPENGL\CODE_REPOSITORY\OPENGL_REPOSITORY\PROJECTS\HELLOTRIANGLEPASSCOLORVALUES\HELLOTRIANGLEPASSCOLORVALUES\DEBUG\VC140.PDB
H:\OPENGL\CODE_REPOSITORY\OPENGL_REPOSITORY\PROJECTS\HELLOTRIANGLEPASSCOLORVALUES\HELLOTRIANGLEPASSCOLORVALUES\DEBUG\VC140.IDB
H:\OPENGL\CODE_REPOSITORY\OPENGL_REPOSITORY\PROJECTS\HELLOTRIANGLEPASSCOLORVALUES\HELLOTRIANGLEPASSCOLORVALUES\DEBUG\HELLOTRIANGLE.OBJ
