^H:\OPENGL\CODE_REPOSITORY\OPENGL_REPOSITORY\PROJECTS\HELLOTRIANGLEPASSCOLORVALUES\HELLOTRIANGLEPASSCOLORVALUES\DEBUG\GLAD.OBJ|H:\OPENGL\CODE_REPOSITORY\OPENGL_REPOSITORY\PROJECTS\HELLOTRIANGLEPASSCOLORVALUES\HELLOTRIANGLEPASSCOLORVALUES\DEBUG\HELLOTRIANGLE.OBJ
H:\OPENGL\CODE_REPOSITORY\OPENGL_REPOSITORY\PROJECTS\HELLOTRIANGLEPASSCOLORVALUES\DEBUG\HELLOTRIANGLEPASSCOLORVALUES.ILK
H:\OPENGL\CODE_REPOSITORY\OPENGL_REPOSITORY\PROJECTS\HELLOTRIANGLEPASSCOLORVALUES\DEBUG\HELLOTRIANGLEPASSCOLORVALUES.EXE
H:\OPENGL\CODE_REPOSITORY\OPENGL_REPOSITORY\PROJECTS\HELLOTRIANGLEPASSCOLORVALUES\DEBUG\HELLOTRIANGLEPASSCOLORVALUES.PDB
