^H:\OPENGL\PROJECTS\HELLOTRIANGLE\HELLOTRIANGLE\GLAD.C
H:\OPENGL\PROJECTS\HELLOTRIANGLE\HELLOTRIANGLE\DEBUG\VC140.PDB
H:\OPENGL\PROJECTS\HELLOTRIANGLE\HELLOTRIANGLE\DEBUG\VC140.IDB
H:\OPENGL\PROJECTS\HELLOTRIANGLE\HELLOTRIANGLE\DEBUG\GLAD.OBJ
^H:\OPENGL\PROJECTS\HELLOTRIANGLE\HELLOTRIANGLE\HELLOTRIANGLE.CPP
H:\OPENGL\PROJECTS\HELLOTRIANGLE\HELLOTRIANGLE\DEBUG\VC140.PDB
H:\OPENGL\PROJECTS\HELLOTRIANGLE\HELLOTRIANGLE\DEBUG\VC140.IDB
H:\OPENGL\PROJECTS\HELLOTRIANGLE\HELLOTRIANGLE\DEBUG\HELLOTRIANGLE.OBJ
