^H:\OPENGL\PROJECTS\HELLOTRIANGLE\HELLOTRIANGLE\DEBUG\GLAD.OBJ|H:\OPENGL\PROJECTS\HELLOTRIANGLE\HELLOTRIANGLE\DEBUG\HELLOTRIANGLE.OBJ
H:\OPENGL\PROJECTS\HELLOTRIANGLE\DEBUG\HELLOTRIANGLE.ILK
H:\OPENGL\PROJECTS\HELLOTRIANGLE\DEBUG\HELLOTRIANGLE.EXE
H:\OPENGL\PROJECTS\HELLOTRIANGLE\DEBUG\HELLOTRIANGLE.PDB
