^H:\OPENGL\CODE_REPOSITORY\OPENGL_REPOSITORY\PROJECTS\EX1SHADER\EX1SHADER\DEBUG\BASE.OBJ|H:\OPENGL\CODE_REPOSITORY\OPENGL_REPOSITORY\PROJECTS\EX1SHADER\EX1SHADER\DEBUG\GLAD.OBJ|H:\OPENGL\CODE_REPOSITORY\OPENGL_REPOSITORY\PROJECTS\EX1SHADER\EX1SHADER\DEBUG\HELLOTRIANGLE.OBJ|H:\OPENGL\CODE_REPOSITORY\OPENGL_REPOSITORY\PROJECTS\EX1SHADER\EX1SHADER\DEBUG\SHADER.OBJ
H:\OPENGL\CODE_REPOSITORY\OPENGL_REPOSITORY\PROJECTS\EX1SHADER\DEBUG\EX1SHADER.ILK
H:\OPENGL\CODE_REPOSITORY\OPENGL_REPOSITORY\PROJECTS\EX1SHADER\DEBUG\EX1SHADER.EXE
H:\OPENGL\CODE_REPOSITORY\OPENGL_REPOSITORY\PROJECTS\EX1SHADER\DEBUG\EX1SHADER.PDB
