^H:\OPENGL\PROJECTS\EX2TWOTRIABGLES\EX2TWOTRIABGLES\GLAD.C
H:\OPENGL\PROJECTS\EX2TWOTRIABGLES\EX2TWOTRIABGLES\DEBUG\VC140.PDB
H:\OPENGL\PROJECTS\EX2TWOTRIABGLES\EX2TWOTRIABGLES\DEBUG\VC140.IDB
H:\OPENGL\PROJECTS\EX2TWOTRIABGLES\EX2TWOTRIABGLES\DEBUG\GLAD.OBJ
^H:\OPENGL\PROJECTS\EX2TWOTRIABGLES\EX2TWOTRIABGLES\HELLOTRIANGLE.CPP
H:\OPENGL\PROJECTS\EX2TWOTRIABGLES\EX2TWOTRIABGLES\DEBUG\VC140.PDB
H:\OPENGL\PROJECTS\EX2TWOTRIABGLES\EX2TWOTRIABGLES\DEBUG\VC140.IDB
H:\OPENGL\PROJECTS\EX2TWOTRIABGLES\EX2TWOTRIABGLES\DEBUG\HELLOTRIANGLE.OBJ
