^H:\OPENGL\CODE_REPOSITORY\OPENGL_REPOSITORY\PROJECTS\ADVANCEDOPENGL1\ADVANCEDOPENGL1\BASE.CPP|H:\OPENGL\CODE_REPOSITORY\OPENGL_REPOSITORY\PROJECTS\ADVANCEDOPENGL1\ADVANCEDOPENGL1\CAMERA.CPP|H:\OPENGL\CODE_REPOSITORY\OPENGL_REPOSITORY\PROJECTS\ADVANCEDOPENGL1\ADVANCEDOPENGL1\CARTSRENDERER.CPP|H:\OPENGL\CODE_REPOSITORY\OPENGL_REPOSITORY\PROJECTS\ADVANCEDOPENGL1\ADVANCEDOPENGL1\CUBEMAPRENDERER.CPP|H:\OPENGL\CODE_REPOSITORY\OPENGL_REPOSITORY\PROJECTS\ADVANCEDOPENGL1\ADVANCEDOPENGL1\GEOMETRYRENDERER.CPP|H:\OPENGL\CODE_REPOSITORY\OPENGL_REPOSITORY\PROJECTS\ADVANCEDOPENGL1\ADVANCEDOPENGL1\MAIN.CPP|H:\OPENGL\CODE_REPOSITORY\OPENGL_REPOSITORY\PROJECTS\ADVANCEDOPENGL1\ADVANCEDOPENGL1\MESH.CPP|H:\OPENGL\CODE_REPOSITORY\OPENGL_REPOSITORY\PROJECTS\ADVANCEDOPENGL1\ADVANCEDOPENGL1\MODEL.CPP|H:\OPENGL\CODE_REPOSITORY\OPENGL_REPOSITORY\PROJECTS\ADVANCEDOPENGL1\ADVANCEDOPENGL1\MODELRENDERER.CPP|H:\OPENGL\CODE_REPOSITORY\OPENGL_REPOSITORY\PROJECTS\ADVANCEDOPENGL1\ADVANCEDOPENGL1\RENDERMASTER.CPP|H:\OPENGL\CODE_REPOSITORY\OPENGL_REPOSITORY\PROJECTS\ADVANCEDOPENGL1\ADVANCEDOPENGL1\SHADER.CPP|H:\OPENGL\CODE_REPOSITORY\OPENGL_REPOSITORY\PROJECTS\ADVANCEDOPENGL1\ADVANCEDOPENGL1\UTILS.CPP|H:\OPENGL\CODE_REPOSITORY\OPENGL_REPOSITORY\PROJECTS\ADVANCEDOPENGL1\ADVANCEDOPENGL1\WORLDRENDERER.CPP
H:\OPENGL\CODE_REPOSITORY\OPENGL_REPOSITORY\PROJECTS\ADVANCEDOPENGL1\ADVANCEDOPENGL1\DEBUG\VC140.PDB
H:\OPENGL\CODE_REPOSITORY\OPENGL_REPOSITORY\PROJECTS\ADVANCEDOPENGL1\ADVANCEDOPENGL1\DEBUG\VC140.IDB
H:\OPENGL\CODE_REPOSITORY\OPENGL_REPOSITORY\PROJECTS\ADVANCEDOPENGL1\ADVANCEDOPENGL1\DEBUG\BASE.OBJ
H:\OPENGL\CODE_REPOSITORY\OPENGL_REPOSITORY\PROJECTS\ADVANCEDOPENGL1\ADVANCEDOPENGL1\DEBUG\CAMERA.OBJ
H:\OPENGL\CODE_REPOSITORY\OPENGL_REPOSITORY\PROJECTS\ADVANCEDOPENGL1\ADVANCEDOPENGL1\DEBUG\CARTSRENDERER.OBJ
H:\OPENGL\CODE_REPOSITORY\OPENGL_REPOSITORY\PROJECTS\ADVANCEDOPENGL1\ADVANCEDOPENGL1\DEBUG\CUBEMAPRENDERER.OBJ
H:\OPENGL\CODE_REPOSITORY\OPENGL_REPOSITORY\PROJECTS\ADVANCEDOPENGL1\ADVANCEDOPENGL1\DEBUG\GEOMETRYRENDERER.OBJ
H:\OPENGL\CODE_REPOSITORY\OPENGL_REPOSITORY\PROJECTS\ADVANCEDOPENGL1\ADVANCEDOPENGL1\DEBUG\MAIN.OBJ
H:\OPENGL\CODE_REPOSITORY\OPENGL_REPOSITORY\PROJECTS\ADVANCEDOPENGL1\ADVANCEDOPENGL1\DEBUG\MESH.OBJ
H:\OPENGL\CODE_REPOSITORY\OPENGL_REPOSITORY\PROJECTS\ADVANCEDOPENGL1\ADVANCEDOPENGL1\DEBUG\MODEL.OBJ
H:\OPENGL\CODE_REPOSITORY\OPENGL_REPOSITORY\PROJECTS\ADVANCEDOPENGL1\ADVANCEDOPENGL1\DEBUG\MODELRENDERER.OBJ
H:\OPENGL\CODE_REPOSITORY\OPENGL_REPOSITORY\PROJECTS\ADVANCEDOPENGL1\ADVANCEDOPENGL1\DEBUG\RENDERMASTER.OBJ
H:\OPENGL\CODE_REPOSITORY\OPENGL_REPOSITORY\PROJECTS\ADVANCEDOPENGL1\ADVANCEDOPENGL1\DEBUG\SHADER.OBJ
H:\OPENGL\CODE_REPOSITORY\OPENGL_REPOSITORY\PROJECTS\ADVANCEDOPENGL1\ADVANCEDOPENGL1\DEBUG\UTILS.OBJ
H:\OPENGL\CODE_REPOSITORY\OPENGL_REPOSITORY\PROJECTS\ADVANCEDOPENGL1\ADVANCEDOPENGL1\DEBUG\WORLDRENDERER.OBJ
^H:\OPENGL\CODE_REPOSITORY\OPENGL_REPOSITORY\PROJECTS\ADVANCEDOPENGL1\ADVANCEDOPENGL1\BASE.CPP
H:\OPENGL\CODE_REPOSITORY\OPENGL_REPOSITORY\PROJECTS\ADVANCEDOPENGL1\ADVANCEDOPENGL1\DEBUG\VC140.PDB
^H:\OPENGL\CODE_REPOSITORY\OPENGL_REPOSITORY\PROJECTS\ADVANCEDOPENGL1\ADVANCEDOPENGL1\CAMERA.CPP
H:\OPENGL\CODE_REPOSITORY\OPENGL_REPOSITORY\PROJECTS\ADVANCEDOPENGL1\ADVANCEDOPENGL1\DEBUG\VC140.PDB
^H:\OPENGL\CODE_REPOSITORY\OPENGL_REPOSITORY\PROJECTS\ADVANCEDOPENGL1\ADVANCEDOPENGL1\CARTSRENDERER.CPP
H:\OPENGL\CODE_REPOSITORY\OPENGL_REPOSITORY\PROJECTS\ADVANCEDOPENGL1\ADVANCEDOPENGL1\DEBUG\VC140.PDB
H:\OPENGL\CODE_REPOSITORY\OPENGL_REPOSITORY\PROJECTS\ADVANCEDOPENGL1\ADVANCEDOPENGL1\DEBUG\VC140.IDB
H:\OPENGL\CODE_REPOSITORY\OPENGL_REPOSITORY\PROJECTS\ADVANCEDOPENGL1\ADVANCEDOPENGL1\DEBUG\CARTSRENDERER.OBJ
^H:\OPENGL\CODE_REPOSITORY\OPENGL_REPOSITORY\PROJECTS\ADVANCEDOPENGL1\ADVANCEDOPENGL1\CUBEMAPRENDERER.CPP
H:\OPENGL\CODE_REPOSITORY\OPENGL_REPOSITORY\PROJECTS\ADVANCEDOPENGL1\ADVANCEDOPENGL1\DEBUG\VC140.PDB
^H:\OPENGL\CODE_REPOSITORY\OPENGL_REPOSITORY\PROJECTS\ADVANCEDOPENGL1\ADVANCEDOPENGL1\GEOMETRYRENDERER.CPP
H:\OPENGL\CODE_REPOSITORY\OPENGL_REPOSITORY\PROJECTS\ADVANCEDOPENGL1\ADVANCEDOPENGL1\DEBUG\VC140.PDB
H:\OPENGL\CODE_REPOSITORY\OPENGL_REPOSITORY\PROJECTS\ADVANCEDOPENGL1\ADVANCEDOPENGL1\DEBUG\VC140.IDB
H:\OPENGL\CODE_REPOSITORY\OPENGL_REPOSITORY\PROJECTS\ADVANCEDOPENGL1\ADVANCEDOPENGL1\DEBUG\GEOMETRYRENDERER.OBJ
^H:\OPENGL\CODE_REPOSITORY\OPENGL_REPOSITORY\PROJECTS\ADVANCEDOPENGL1\ADVANCEDOPENGL1\MAIN.CPP
H:\OPENGL\CODE_REPOSITORY\OPENGL_REPOSITORY\PROJECTS\ADVANCEDOPENGL1\ADVANCEDOPENGL1\DEBUG\VC140.PDB
^H:\OPENGL\CODE_REPOSITORY\OPENGL_REPOSITORY\PROJECTS\ADVANCEDOPENGL1\ADVANCEDOPENGL1\MESH.CPP
H:\OPENGL\CODE_REPOSITORY\OPENGL_REPOSITORY\PROJECTS\ADVANCEDOPENGL1\ADVANCEDOPENGL1\DEBUG\VC140.PDB
^H:\OPENGL\CODE_REPOSITORY\OPENGL_REPOSITORY\PROJECTS\ADVANCEDOPENGL1\ADVANCEDOPENGL1\MODEL.CPP
H:\OPENGL\CODE_REPOSITORY\OPENGL_REPOSITORY\PROJECTS\ADVANCEDOPENGL1\ADVANCEDOPENGL1\DEBUG\VC140.PDB
^H:\OPENGL\CODE_REPOSITORY\OPENGL_REPOSITORY\PROJECTS\ADVANCEDOPENGL1\ADVANCEDOPENGL1\MODELRENDERER.CPP
H:\OPENGL\CODE_REPOSITORY\OPENGL_REPOSITORY\PROJECTS\ADVANCEDOPENGL1\ADVANCEDOPENGL1\DEBUG\VC140.PDB
^H:\OPENGL\CODE_REPOSITORY\OPENGL_REPOSITORY\PROJECTS\ADVANCEDOPENGL1\ADVANCEDOPENGL1\RENDERMASTER.CPP
H:\OPENGL\CODE_REPOSITORY\OPENGL_REPOSITORY\PROJECTS\ADVANCEDOPENGL1\ADVANCEDOPENGL1\DEBUG\VC140.PDB
H:\OPENGL\CODE_REPOSITORY\OPENGL_REPOSITORY\PROJECTS\ADVANCEDOPENGL1\ADVANCEDOPENGL1\DEBUG\VC140.IDB
H:\OPENGL\CODE_REPOSITORY\OPENGL_REPOSITORY\PROJECTS\ADVANCEDOPENGL1\ADVANCEDOPENGL1\DEBUG\RENDERMASTER.OBJ
^H:\OPENGL\CODE_REPOSITORY\OPENGL_REPOSITORY\PROJECTS\ADVANCEDOPENGL1\ADVANCEDOPENGL1\SHADER.CPP
H:\OPENGL\CODE_REPOSITORY\OPENGL_REPOSITORY\PROJECTS\ADVANCEDOPENGL1\ADVANCEDOPENGL1\DEBUG\VC140.PDB
^H:\OPENGL\CODE_REPOSITORY\OPENGL_REPOSITORY\PROJECTS\ADVANCEDOPENGL1\ADVANCEDOPENGL1\UTILS.CPP
H:\OPENGL\CODE_REPOSITORY\OPENGL_REPOSITORY\PROJECTS\ADVANCEDOPENGL1\ADVANCEDOPENGL1\DEBUG\VC140.PDB
H:\OPENGL\CODE_REPOSITORY\OPENGL_REPOSITORY\PROJECTS\ADVANCEDOPENGL1\ADVANCEDOPENGL1\DEBUG\VC140.IDB
H:\OPENGL\CODE_REPOSITORY\OPENGL_REPOSITORY\PROJECTS\ADVANCEDOPENGL1\ADVANCEDOPENGL1\DEBUG\UTILS.OBJ
^H:\OPENGL\CODE_REPOSITORY\OPENGL_REPOSITORY\PROJECTS\ADVANCEDOPENGL1\ADVANCEDOPENGL1\WORLDRENDERER.CPP
H:\OPENGL\CODE_REPOSITORY\OPENGL_REPOSITORY\PROJECTS\ADVANCEDOPENGL1\ADVANCEDOPENGL1\DEBUG\VC140.PDB
H:\OPENGL\CODE_REPOSITORY\OPENGL_REPOSITORY\PROJECTS\ADVANCEDOPENGL1\ADVANCEDOPENGL1\DEBUG\VC140.IDB
H:\OPENGL\CODE_REPOSITORY\OPENGL_REPOSITORY\PROJECTS\ADVANCEDOPENGL1\ADVANCEDOPENGL1\DEBUG\WORLDRENDERER.OBJ
^H:\OPENGL\CODE_REPOSITORY\OPENGL_REPOSITORY\PROJECTS\ADVANCEDOPENGL1\ADVANCEDOPENGL1\GLAD.C
H:\OPENGL\CODE_REPOSITORY\OPENGL_REPOSITORY\PROJECTS\ADVANCEDOPENGL1\ADVANCEDOPENGL1\DEBUG\VC140.PDB
H:\OPENGL\CODE_REPOSITORY\OPENGL_REPOSITORY\PROJECTS\ADVANCEDOPENGL1\ADVANCEDOPENGL1\DEBUG\VC140.IDB
H:\OPENGL\CODE_REPOSITORY\OPENGL_REPOSITORY\PROJECTS\ADVANCEDOPENGL1\ADVANCEDOPENGL1\DEBUG\GLAD.OBJ
^H:\OPENGL\CODE_REPOSITORY\OPENGL_REPOSITORY\PROJECTS\ADVANCEDOPENGL1\ADVANCEDOPENGL1\MESH.CPP|H:\OPENGL\CODE_REPOSITORY\OPENGL_REPOSITORY\PROJECTS\ADVANCEDOPENGL1\ADVANCEDOPENGL1\WORLDRENDERER.CPP
H:\OPENGL\CODE_REPOSITORY\OPENGL_REPOSITORY\PROJECTS\ADVANCEDOPENGL1\ADVANCEDOPENGL1\DEBUG\VC140.PDB
H:\OPENGL\CODE_REPOSITORY\OPENGL_REPOSITORY\PROJECTS\ADVANCEDOPENGL1\ADVANCEDOPENGL1\DEBUG\VC140.IDB
H:\OPENGL\CODE_REPOSITORY\OPENGL_REPOSITORY\PROJECTS\ADVANCEDOPENGL1\ADVANCEDOPENGL1\DEBUG\MESH.OBJ
H:\OPENGL\CODE_REPOSITORY\OPENGL_REPOSITORY\PROJECTS\ADVANCEDOPENGL1\ADVANCEDOPENGL1\DEBUG\WORLDRENDERER.OBJ
^H:\OPENGL\CODE_REPOSITORY\OPENGL_REPOSITORY\PROJECTS\ADVANCEDOPENGL1\ADVANCEDOPENGL1\MAIN.CPP|H:\OPENGL\CODE_REPOSITORY\OPENGL_REPOSITORY\PROJECTS\ADVANCEDOPENGL1\ADVANCEDOPENGL1\RENDERMASTER.CPP|H:\OPENGL\CODE_REPOSITORY\OPENGL_REPOSITORY\PROJECTS\ADVANCEDOPENGL1\ADVANCEDOPENGL1\WORLDRENDERER.CPP
H:\OPENGL\CODE_REPOSITORY\OPENGL_REPOSITORY\PROJECTS\ADVANCEDOPENGL1\ADVANCEDOPENGL1\DEBUG\VC140.PDB
H:\OPENGL\CODE_REPOSITORY\OPENGL_REPOSITORY\PROJECTS\ADVANCEDOPENGL1\ADVANCEDOPENGL1\DEBUG\VC140.IDB
H:\OPENGL\CODE_REPOSITORY\OPENGL_REPOSITORY\PROJECTS\ADVANCEDOPENGL1\ADVANCEDOPENGL1\DEBUG\WORLDRENDERER.OBJ
H:\OPENGL\CODE_REPOSITORY\OPENGL_REPOSITORY\PROJECTS\ADVANCEDOPENGL1\ADVANCEDOPENGL1\DEBUG\RENDERMASTER.OBJ
H:\OPENGL\CODE_REPOSITORY\OPENGL_REPOSITORY\PROJECTS\ADVANCEDOPENGL1\ADVANCEDOPENGL1\DEBUG\MAIN.OBJ
^H:\OPENGL\CODE_REPOSITORY\OPENGL_REPOSITORY\PROJECTS\ADVANCEDOPENGL1\ADVANCEDOPENGL1\GEOMETRYRENDERER.CPP|H:\OPENGL\CODE_REPOSITORY\OPENGL_REPOSITORY\PROJECTS\ADVANCEDOPENGL1\ADVANCEDOPENGL1\MAIN.CPP|H:\OPENGL\CODE_REPOSITORY\OPENGL_REPOSITORY\PROJECTS\ADVANCEDOPENGL1\ADVANCEDOPENGL1\MESH.CPP|H:\OPENGL\CODE_REPOSITORY\OPENGL_REPOSITORY\PROJECTS\ADVANCEDOPENGL1\ADVANCEDOPENGL1\RENDERMASTER.CPP|H:\OPENGL\CODE_REPOSITORY\OPENGL_REPOSITORY\PROJECTS\ADVANCEDOPENGL1\ADVANCEDOPENGL1\WORLDRENDERER.CPP
H:\OPENGL\CODE_REPOSITORY\OPENGL_REPOSITORY\PROJECTS\ADVANCEDOPENGL1\ADVANCEDOPENGL1\DEBUG\VC140.PDB
H:\OPENGL\CODE_REPOSITORY\OPENGL_REPOSITORY\PROJECTS\ADVANCEDOPENGL1\ADVANCEDOPENGL1\DEBUG\VC140.IDB
H:\OPENGL\CODE_REPOSITORY\OPENGL_REPOSITORY\PROJECTS\ADVANCEDOPENGL1\ADVANCEDOPENGL1\DEBUG\GEOMETRYRENDERER.OBJ
H:\OPENGL\CODE_REPOSITORY\OPENGL_REPOSITORY\PROJECTS\ADVANCEDOPENGL1\ADVANCEDOPENGL1\DEBUG\MESH.OBJ
H:\OPENGL\CODE_REPOSITORY\OPENGL_REPOSITORY\PROJECTS\ADVANCEDOPENGL1\ADVANCEDOPENGL1\DEBUG\WORLDRENDERER.OBJ
H:\OPENGL\CODE_REPOSITORY\OPENGL_REPOSITORY\PROJECTS\ADVANCEDOPENGL1\ADVANCEDOPENGL1\DEBUG\RENDERMASTER.OBJ
^H:\OPENGL\CODE_REPOSITORY\OPENGL_REPOSITORY\PROJECTS\ADVANCEDOPENGL1\ADVANCEDOPENGL1\GEOMETRYRENDERER.CPP|H:\OPENGL\CODE_REPOSITORY\OPENGL_REPOSITORY\PROJECTS\ADVANCEDOPENGL1\ADVANCEDOPENGL1\MAIN.CPP|H:\OPENGL\CODE_REPOSITORY\OPENGL_REPOSITORY\PROJECTS\ADVANCEDOPENGL1\ADVANCEDOPENGL1\RENDERMASTER.CPP|H:\OPENGL\CODE_REPOSITORY\OPENGL_REPOSITORY\PROJECTS\ADVANCEDOPENGL1\ADVANCEDOPENGL1\WORLDRENDERER.CPP
H:\OPENGL\CODE_REPOSITORY\OPENGL_REPOSITORY\PROJECTS\ADVANCEDOPENGL1\ADVANCEDOPENGL1\DEBUG\VC140.PDB
H:\OPENGL\CODE_REPOSITORY\OPENGL_REPOSITORY\PROJECTS\ADVANCEDOPENGL1\ADVANCEDOPENGL1\DEBUG\VC140.IDB
H:\OPENGL\CODE_REPOSITORY\OPENGL_REPOSITORY\PROJECTS\ADVANCEDOPENGL1\ADVANCEDOPENGL1\DEBUG\GEOMETRYRENDERER.OBJ
H:\OPENGL\CODE_REPOSITORY\OPENGL_REPOSITORY\PROJECTS\ADVANCEDOPENGL1\ADVANCEDOPENGL1\DEBUG\WORLDRENDERER.OBJ
^H:\OPENGL\CODE_REPOSITORY\OPENGL_REPOSITORY\PROJECTS\ADVANCEDOPENGL1\ADVANCEDOPENGL1\CARTSRENDERER.CPP|H:\OPENGL\CODE_REPOSITORY\OPENGL_REPOSITORY\PROJECTS\ADVANCEDOPENGL1\ADVANCEDOPENGL1\CUBEMAPRENDERER.CPP|H:\OPENGL\CODE_REPOSITORY\OPENGL_REPOSITORY\PROJECTS\ADVANCEDOPENGL1\ADVANCEDOPENGL1\GEOMETRYRENDERER.CPP|H:\OPENGL\CODE_REPOSITORY\OPENGL_REPOSITORY\PROJECTS\ADVANCEDOPENGL1\ADVANCEDOPENGL1\MAIN.CPP|H:\OPENGL\CODE_REPOSITORY\OPENGL_REPOSITORY\PROJECTS\ADVANCEDOPENGL1\ADVANCEDOPENGL1\MESH.CPP|H:\OPENGL\CODE_REPOSITORY\OPENGL_REPOSITORY\PROJECTS\ADVANCEDOPENGL1\ADVANCEDOPENGL1\MODEL.CPP|H:\OPENGL\CODE_REPOSITORY\OPENGL_REPOSITORY\PROJECTS\ADVANCEDOPENGL1\ADVANCEDOPENGL1\MODELRENDERER.CPP|H:\OPENGL\CODE_REPOSITORY\OPENGL_REPOSITORY\PROJECTS\ADVANCEDOPENGL1\ADVANCEDOPENGL1\RENDERMASTER.CPP|H:\OPENGL\CODE_REPOSITORY\OPENGL_REPOSITORY\PROJECTS\ADVANCEDOPENGL1\ADVANCEDOPENGL1\UTILS.CPP|H:\OPENGL\CODE_REPOSITORY\OPENGL_REPOSITORY\PROJECTS\ADVANCEDOPENGL1\ADVANCEDOPENGL1\WORLDRENDERER.CPP
H:\OPENGL\CODE_REPOSITORY\OPENGL_REPOSITORY\PROJECTS\ADVANCEDOPENGL1\ADVANCEDOPENGL1\DEBUG\VC140.PDB
H:\OPENGL\CODE_REPOSITORY\OPENGL_REPOSITORY\PROJECTS\ADVANCEDOPENGL1\ADVANCEDOPENGL1\DEBUG\VC140.IDB
H:\OPENGL\CODE_REPOSITORY\OPENGL_REPOSITORY\PROJECTS\ADVANCEDOPENGL1\ADVANCEDOPENGL1\DEBUG\GEOMETRYRENDERER.OBJ
H:\OPENGL\CODE_REPOSITORY\OPENGL_REPOSITORY\PROJECTS\ADVANCEDOPENGL1\ADVANCEDOPENGL1\DEBUG\UTILS.OBJ
H:\OPENGL\CODE_REPOSITORY\OPENGL_REPOSITORY\PROJECTS\ADVANCEDOPENGL1\ADVANCEDOPENGL1\DEBUG\WORLDRENDERER.OBJ
H:\OPENGL\CODE_REPOSITORY\OPENGL_REPOSITORY\PROJECTS\ADVANCEDOPENGL1\ADVANCEDOPENGL1\DEBUG\CARTSRENDERER.OBJ
H:\OPENGL\CODE_REPOSITORY\OPENGL_REPOSITORY\PROJECTS\ADVANCEDOPENGL1\ADVANCEDOPENGL1\DEBUG\CUBEMAPRENDERER.OBJ
H:\OPENGL\CODE_REPOSITORY\OPENGL_REPOSITORY\PROJECTS\ADVANCEDOPENGL1\ADVANCEDOPENGL1\DEBUG\MAIN.OBJ
H:\OPENGL\CODE_REPOSITORY\OPENGL_REPOSITORY\PROJECTS\ADVANCEDOPENGL1\ADVANCEDOPENGL1\DEBUG\MESH.OBJ
H:\OPENGL\CODE_REPOSITORY\OPENGL_REPOSITORY\PROJECTS\ADVANCEDOPENGL1\ADVANCEDOPENGL1\DEBUG\MODEL.OBJ
H:\OPENGL\CODE_REPOSITORY\OPENGL_REPOSITORY\PROJECTS\ADVANCEDOPENGL1\ADVANCEDOPENGL1\DEBUG\MODELRENDERER.OBJ
H:\OPENGL\CODE_REPOSITORY\OPENGL_REPOSITORY\PROJECTS\ADVANCEDOPENGL1\ADVANCEDOPENGL1\DEBUG\RENDERMASTER.OBJ
^H:\OPENGL\CODE_REPOSITORY\OPENGL_REPOSITORY\PROJECTS\ADVANCEDOPENGL1\ADVANCEDOPENGL1\RENDERMASTER.CPP|H:\OPENGL\CODE_REPOSITORY\OPENGL_REPOSITORY\PROJECTS\ADVANCEDOPENGL1\ADVANCEDOPENGL1\WORLDRENDERER.CPP
H:\OPENGL\CODE_REPOSITORY\OPENGL_REPOSITORY\PROJECTS\ADVANCEDOPENGL1\ADVANCEDOPENGL1\DEBUG\VC140.PDB
H:\OPENGL\CODE_REPOSITORY\OPENGL_REPOSITORY\PROJECTS\ADVANCEDOPENGL1\ADVANCEDOPENGL1\DEBUG\VC140.IDB
H:\OPENGL\CODE_REPOSITORY\OPENGL_REPOSITORY\PROJECTS\ADVANCEDOPENGL1\ADVANCEDOPENGL1\DEBUG\RENDERMASTER.OBJ
H:\OPENGL\CODE_REPOSITORY\OPENGL_REPOSITORY\PROJECTS\ADVANCEDOPENGL1\ADVANCEDOPENGL1\DEBUG\WORLDRENDERER.OBJ
^H:\OPENGL\CODE_REPOSITORY\OPENGL_REPOSITORY\PROJECTS\ADVANCEDOPENGL1\ADVANCEDOPENGL1\MAIN.CPP|H:\OPENGL\CODE_REPOSITORY\OPENGL_REPOSITORY\PROJECTS\ADVANCEDOPENGL1\ADVANCEDOPENGL1\RENDERMASTER.CPP
H:\OPENGL\CODE_REPOSITORY\OPENGL_REPOSITORY\PROJECTS\ADVANCEDOPENGL1\ADVANCEDOPENGL1\DEBUG\VC140.PDB
H:\OPENGL\CODE_REPOSITORY\OPENGL_REPOSITORY\PROJECTS\ADVANCEDOPENGL1\ADVANCEDOPENGL1\DEBUG\VC140.IDB
H:\OPENGL\CODE_REPOSITORY\OPENGL_REPOSITORY\PROJECTS\ADVANCEDOPENGL1\ADVANCEDOPENGL1\DEBUG\RENDERMASTER.OBJ
H:\OPENGL\CODE_REPOSITORY\OPENGL_REPOSITORY\PROJECTS\ADVANCEDOPENGL1\ADVANCEDOPENGL1\DEBUG\MAIN.OBJ
^H:\OPENGL\CODE_REPOSITORY\OPENGL_REPOSITORY\PROJECTS\ADVANCEDOPENGL1\ADVANCEDOPENGL1\CARTSRENDERER.CPP|H:\OPENGL\CODE_REPOSITORY\OPENGL_REPOSITORY\PROJECTS\ADVANCEDOPENGL1\ADVANCEDOPENGL1\GEOMETRYRENDERER.CPP|H:\OPENGL\CODE_REPOSITORY\OPENGL_REPOSITORY\PROJECTS\ADVANCEDOPENGL1\ADVANCEDOPENGL1\MAIN.CPP|H:\OPENGL\CODE_REPOSITORY\OPENGL_REPOSITORY\PROJECTS\ADVANCEDOPENGL1\ADVANCEDOPENGL1\RENDERMASTER.CPP|H:\OPENGL\CODE_REPOSITORY\OPENGL_REPOSITORY\PROJECTS\ADVANCEDOPENGL1\ADVANCEDOPENGL1\WORLDRENDERER.CPP
H:\OPENGL\CODE_REPOSITORY\OPENGL_REPOSITORY\PROJECTS\ADVANCEDOPENGL1\ADVANCEDOPENGL1\DEBUG\VC140.PDB
H:\OPENGL\CODE_REPOSITORY\OPENGL_REPOSITORY\PROJECTS\ADVANCEDOPENGL1\ADVANCEDOPENGL1\DEBUG\VC140.IDB
H:\OPENGL\CODE_REPOSITORY\OPENGL_REPOSITORY\PROJECTS\ADVANCEDOPENGL1\ADVANCEDOPENGL1\DEBUG\GEOMETRYRENDERER.OBJ
H:\OPENGL\CODE_REPOSITORY\OPENGL_REPOSITORY\PROJECTS\ADVANCEDOPENGL1\ADVANCEDOPENGL1\DEBUG\WORLDRENDERER.OBJ
^H:\OPENGL\CODE_REPOSITORY\OPENGL_REPOSITORY\PROJECTS\ADVANCEDOPENGL1\ADVANCEDOPENGL1\CARTSRENDERER.CPP|H:\OPENGL\CODE_REPOSITORY\OPENGL_REPOSITORY\PROJECTS\ADVANCEDOPENGL1\ADVANCEDOPENGL1\MAIN.CPP|H:\OPENGL\CODE_REPOSITORY\OPENGL_REPOSITORY\PROJECTS\ADVANCEDOPENGL1\ADVANCEDOPENGL1\RENDERMASTER.CPP|H:\OPENGL\CODE_REPOSITORY\OPENGL_REPOSITORY\PROJECTS\ADVANCEDOPENGL1\ADVANCEDOPENGL1\WORLDRENDERER.CPP
H:\OPENGL\CODE_REPOSITORY\OPENGL_REPOSITORY\PROJECTS\ADVANCEDOPENGL1\ADVANCEDOPENGL1\DEBUG\VC140.PDB
H:\OPENGL\CODE_REPOSITORY\OPENGL_REPOSITORY\PROJECTS\ADVANCEDOPENGL1\ADVANCEDOPENGL1\DEBUG\VC140.IDB
H:\OPENGL\CODE_REPOSITORY\OPENGL_REPOSITORY\PROJECTS\ADVANCEDOPENGL1\ADVANCEDOPENGL1\DEBUG\MAIN.OBJ
H:\OPENGL\CODE_REPOSITORY\OPENGL_REPOSITORY\PROJECTS\ADVANCEDOPENGL1\ADVANCEDOPENGL1\DEBUG\CARTSRENDERER.OBJ
H:\OPENGL\CODE_REPOSITORY\OPENGL_REPOSITORY\PROJECTS\ADVANCEDOPENGL1\ADVANCEDOPENGL1\DEBUG\RENDERMASTER.OBJ
H:\OPENGL\CODE_REPOSITORY\OPENGL_REPOSITORY\PROJECTS\ADVANCEDOPENGL1\ADVANCEDOPENGL1\DEBUG\WORLDRENDERER.OBJ
^H:\OPENGL\CODE_REPOSITORY\OPENGL_REPOSITORY\PROJECTS\ADVANCEDOPENGL1\ADVANCEDOPENGL1\CARTSRENDERER.CPP|H:\OPENGL\CODE_REPOSITORY\OPENGL_REPOSITORY\PROJECTS\ADVANCEDOPENGL1\ADVANCEDOPENGL1\GEOMETRYRENDERER.CPP
H:\OPENGL\CODE_REPOSITORY\OPENGL_REPOSITORY\PROJECTS\ADVANCEDOPENGL1\ADVANCEDOPENGL1\DEBUG\VC140.PDB
H:\OPENGL\CODE_REPOSITORY\OPENGL_REPOSITORY\PROJECTS\ADVANCEDOPENGL1\ADVANCEDOPENGL1\DEBUG\VC140.IDB
H:\OPENGL\CODE_REPOSITORY\OPENGL_REPOSITORY\PROJECTS\ADVANCEDOPENGL1\ADVANCEDOPENGL1\DEBUG\CARTSRENDERER.OBJ
H:\OPENGL\CODE_REPOSITORY\OPENGL_REPOSITORY\PROJECTS\ADVANCEDOPENGL1\ADVANCEDOPENGL1\DEBUG\GEOMETRYRENDERER.OBJ
^H:\OPENGL\CODE_REPOSITORY\OPENGL_REPOSITORY\PROJECTS\ADVANCEDOPENGL1\ADVANCEDOPENGL1\CARTSRENDERER.CPP|H:\OPENGL\CODE_REPOSITORY\OPENGL_REPOSITORY\PROJECTS\ADVANCEDOPENGL1\ADVANCEDOPENGL1\RENDERMASTER.CPP
H:\OPENGL\CODE_REPOSITORY\OPENGL_REPOSITORY\PROJECTS\ADVANCEDOPENGL1\ADVANCEDOPENGL1\DEBUG\VC140.PDB
H:\OPENGL\CODE_REPOSITORY\OPENGL_REPOSITORY\PROJECTS\ADVANCEDOPENGL1\ADVANCEDOPENGL1\DEBUG\VC140.IDB
H:\OPENGL\CODE_REPOSITORY\OPENGL_REPOSITORY\PROJECTS\ADVANCEDOPENGL1\ADVANCEDOPENGL1\DEBUG\CARTSRENDERER.OBJ
H:\OPENGL\CODE_REPOSITORY\OPENGL_REPOSITORY\PROJECTS\ADVANCEDOPENGL1\ADVANCEDOPENGL1\DEBUG\RENDERMASTER.OBJ
^H:\OPENGL\CODE_REPOSITORY\OPENGL_REPOSITORY\PROJECTS\ADVANCEDOPENGL1\ADVANCEDOPENGL1\CARTSRENDERER.CPP|H:\OPENGL\CODE_REPOSITORY\OPENGL_REPOSITORY\PROJECTS\ADVANCEDOPENGL1\ADVANCEDOPENGL1\UTILS.CPP
H:\OPENGL\CODE_REPOSITORY\OPENGL_REPOSITORY\PROJECTS\ADVANCEDOPENGL1\ADVANCEDOPENGL1\DEBUG\VC140.PDB
H:\OPENGL\CODE_REPOSITORY\OPENGL_REPOSITORY\PROJECTS\ADVANCEDOPENGL1\ADVANCEDOPENGL1\DEBUG\VC140.IDB
H:\OPENGL\CODE_REPOSITORY\OPENGL_REPOSITORY\PROJECTS\ADVANCEDOPENGL1\ADVANCEDOPENGL1\DEBUG\CARTSRENDERER.OBJ
H:\OPENGL\CODE_REPOSITORY\OPENGL_REPOSITORY\PROJECTS\ADVANCEDOPENGL1\ADVANCEDOPENGL1\DEBUG\UTILS.OBJ
