^H:\OPENGL\CODE_REPOSITORY\OPENGL_REPOSITORY\PROJECTS\EX1SHADER\EX1SHADER\BASE.CPP|H:\OPENGL\CODE_REPOSITORY\OPENGL_REPOSITORY\PROJECTS\EX1SHADER\EX1SHADER\HELLOTRIANGLE.CPP|H:\OPENGL\CODE_REPOSITORY\OPENGL_REPOSITORY\PROJECTS\EX1SHADER\EX1SHADER\SHADER.CPP
H:\OPENGL\CODE_REPOSITORY\OPENGL_REPOSITORY\PROJECTS\EX1SHADER\EX1SHADER\DEBUG\VC140.PDB
H:\OPENGL\CODE_REPOSITORY\OPENGL_REPOSITORY\PROJECTS\EX1SHADER\EX1SHADER\DEBUG\VC140.IDB
H:\OPENGL\CODE_REPOSITORY\OPENGL_REPOSITORY\PROJECTS\EX1SHADER\EX1SHADER\DEBUG\HELLOTRIANGLE.OBJ
H:\OPENGL\CODE_REPOSITORY\OPENGL_REPOSITORY\PROJECTS\EX1SHADER\EX1SHADER\DEBUG\BASE.OBJ
H:\OPENGL\CODE_REPOSITORY\OPENGL_REPOSITORY\PROJECTS\EX1SHADER\EX1SHADER\DEBUG\SHADER.OBJ
^H:\OPENGL\CODE_REPOSITORY\OPENGL_REPOSITORY\PROJECTS\EX1SHADER\EX1SHADER\BASE.CPP
H:\OPENGL\CODE_REPOSITORY\OPENGL_REPOSITORY\PROJECTS\EX1SHADER\EX1SHADER\DEBUG\VC140.PDB
^H:\OPENGL\CODE_REPOSITORY\OPENGL_REPOSITORY\PROJECTS\EX1SHADER\EX1SHADER\HELLOTRIANGLE.CPP
H:\OPENGL\CODE_REPOSITORY\OPENGL_REPOSITORY\PROJECTS\EX1SHADER\EX1SHADER\DEBUG\VC140.PDB
^H:\OPENGL\CODE_REPOSITORY\OPENGL_REPOSITORY\PROJECTS\EX1SHADER\EX1SHADER\SHADER.CPP
H:\OPENGL\CODE_REPOSITORY\OPENGL_REPOSITORY\PROJECTS\EX1SHADER\EX1SHADER\DEBUG\VC140.PDB
^H:\OPENGL\CODE_REPOSITORY\OPENGL_REPOSITORY\PROJECTS\EX1SHADER\EX1SHADER\GLAD.C
H:\OPENGL\CODE_REPOSITORY\OPENGL_REPOSITORY\PROJECTS\EX1SHADER\EX1SHADER\DEBUG\VC140.PDB
H:\OPENGL\CODE_REPOSITORY\OPENGL_REPOSITORY\PROJECTS\EX1SHADER\EX1SHADER\DEBUG\VC140.IDB
H:\OPENGL\CODE_REPOSITORY\OPENGL_REPOSITORY\PROJECTS\EX1SHADER\EX1SHADER\DEBUG\GLAD.OBJ
