^H:\OPENGL\PROJECTS\HELLOWORLD\HELLOWORLD\GLAD.C
H:\OPENGL\PROJECTS\HELLOWORLD\HELLOWORLD\DEBUG\VC140.PDB
H:\OPENGL\PROJECTS\HELLOWORLD\HELLOWORLD\DEBUG\VC140.IDB
H:\OPENGL\PROJECTS\HELLOWORLD\HELLOWORLD\DEBUG\GLAD.OBJ
^H:\OPENGL\PROJECTS\HELLOWORLD\HELLOWORLD\HELLOWORLD.CPP
H:\OPENGL\PROJECTS\HELLOWORLD\HELLOWORLD\DEBUG\VC140.PDB
H:\OPENGL\PROJECTS\HELLOWORLD\HELLOWORLD\DEBUG\VC140.IDB
H:\OPENGL\PROJECTS\HELLOWORLD\HELLOWORLD\DEBUG\HELLOWORLD.OBJ
