^H:\OPENGL\PROJECTS\HELLOWORLD\HELLOWORLD\DEBUG\GLAD.OBJ|H:\OPENGL\PROJECTS\HELLOWORLD\HELLOWORLD\DEBUG\HELLOWORLD.OBJ
H:\OPENGL\PROJECTS\HELLOWORLD\DEBUG\HELLOWORLD.ILK
H:\OPENGL\PROJECTS\HELLOWORLD\DEBUG\HELLOWORLD.EXE
H:\OPENGL\PROJECTS\HELLOWORLD\DEBUG\HELLOWORLD.PDB
