^H:\OPENGL\CODE_REPOSITORY\OPENGL_REPOSITORY\PROJECTS\LIGHTCASTERS\LIGHTCASTERS\DEBUG\BASE.OBJ|H:\OPENGL\CODE_REPOSITORY\OPENGL_REPOSITORY\PROJECTS\LIGHTCASTERS\LIGHTCASTERS\DEBUG\CAMERA.OBJ|H:\OPENGL\CODE_REPOSITORY\OPENGL_REPOSITORY\PROJECTS\LIGHTCASTERS\LIGHTCASTERS\DEBUG\GLAD.OBJ|H:\OPENGL\CODE_REPOSITORY\OPENGL_REPOSITORY\PROJECTS\LIGHTCASTERS\LIGHTCASTERS\DEBUG\MAIN.OBJ|H:\OPENGL\CODE_REPOSITORY\OPENGL_REPOSITORY\PROJECTS\LIGHTCASTERS\LIGHTCASTERS\DEBUG\SHADER.OBJ
H:\OPENGL\CODE_REPOSITORY\OPENGL_REPOSITORY\PROJECTS\LIGHTCASTERS\DEBUG\LIGHTCASTERS.ILK
H:\OPENGL\CODE_REPOSITORY\OPENGL_REPOSITORY\PROJECTS\LIGHTCASTERS\DEBUG\LIGHTCASTERS.EXE
H:\OPENGL\CODE_REPOSITORY\OPENGL_REPOSITORY\PROJECTS\LIGHTCASTERS\DEBUG\LIGHTCASTERS.PDB
