^H:\OPENGL\PROJECTS\EXTWOTRIANGLES\EXTWOTRIANGLES\GLAD.C
H:\OPENGL\PROJECTS\EXTWOTRIANGLES\EXTWOTRIANGLES\DEBUG\VC140.PDB
H:\OPENGL\PROJECTS\EXTWOTRIANGLES\EXTWOTRIANGLES\DEBUG\VC140.IDB
H:\OPENGL\PROJECTS\EXTWOTRIANGLES\EXTWOTRIANGLES\DEBUG\GLAD.OBJ
^H:\OPENGL\PROJECTS\EXTWOTRIANGLES\EXTWOTRIANGLES\HELLOTRIANGLE.CPP
H:\OPENGL\PROJECTS\EXTWOTRIANGLES\EXTWOTRIANGLES\DEBUG\VC140.PDB
H:\OPENGL\PROJECTS\EXTWOTRIANGLES\EXTWOTRIANGLES\DEBUG\VC140.IDB
H:\OPENGL\PROJECTS\EXTWOTRIANGLES\EXTWOTRIANGLES\DEBUG\HELLOTRIANGLE.OBJ
