^H:\OPENGL\CODE_REPOSITORY\OPENGL_REPOSITORY\PROJECTS\MULTIPLELIGHTS\MULTIPLELIGHTS\BASE.CPP
/c /ZI /nologo /W3 /WX- /sdl /Od /Oy- /D _MBCS /Gm /EHsc /RTC1 /MDd /GS /fp:precise /Zc:wchar_t /Zc:forScope /Zc:inline /Fo"DEBUG\\" /Fd"DEBUG\VC140.PDB" /Gd /TP /analyze- H:\OPENGL\CODE_REPOSITORY\OPENGL_REPOSITORY\PROJECTS\MULTIPLELIGHTS\MULTIPLELIGHTS\BASE.CPP
^H:\OPENGL\CODE_REPOSITORY\OPENGL_REPOSITORY\PROJECTS\MULTIPLELIGHTS\MULTIPLELIGHTS\CAMERA.CPP
/c /ZI /nologo /W3 /WX- /sdl /Od /Oy- /D _MBCS /Gm /EHsc /RTC1 /MDd /GS /fp:precise /Zc:wchar_t /Zc:forScope /Zc:inline /Fo"DEBUG\\" /Fd"DEBUG\VC140.PDB" /Gd /TP /analyze- H:\OPENGL\CODE_REPOSITORY\OPENGL_REPOSITORY\PROJECTS\MULTIPLELIGHTS\MULTIPLELIGHTS\CAMERA.CPP
^H:\OPENGL\CODE_REPOSITORY\OPENGL_REPOSITORY\PROJECTS\MULTIPLELIGHTS\MULTIPLELIGHTS\MAIN.CPP
/c /ZI /nologo /W3 /WX- /sdl /Od /Oy- /D _MBCS /Gm /EHsc /RTC1 /MDd /GS /fp:precise /Zc:wchar_t /Zc:forScope /Zc:inline /Fo"DEBUG\\" /Fd"DEBUG\VC140.PDB" /Gd /TP /analyze- H:\OPENGL\CODE_REPOSITORY\OPENGL_REPOSITORY\PROJECTS\MULTIPLELIGHTS\MULTIPLELIGHTS\MAIN.CPP
^H:\OPENGL\CODE_REPOSITORY\OPENGL_REPOSITORY\PROJECTS\MULTIPLELIGHTS\MULTIPLELIGHTS\SHADER.CPP
/c /ZI /nologo /W3 /WX- /sdl /Od /Oy- /D _MBCS /Gm /EHsc /RTC1 /MDd /GS /fp:precise /Zc:wchar_t /Zc:forScope /Zc:inline /Fo"DEBUG\\" /Fd"DEBUG\VC140.PDB" /Gd /TP /analyze- H:\OPENGL\CODE_REPOSITORY\OPENGL_REPOSITORY\PROJECTS\MULTIPLELIGHTS\MULTIPLELIGHTS\SHADER.CPP
^H:\OPENGL\CODE_REPOSITORY\OPENGL_REPOSITORY\PROJECTS\MULTIPLELIGHTS\MULTIPLELIGHTS\GLAD.C
/c /ZI /nologo /W3 /WX- /sdl /Od /Oy- /D _MBCS /Gm /EHsc /RTC1 /MDd /GS /fp:precise /Zc:wchar_t /Zc:forScope /Zc:inline /Fo"DEBUG\\" /Fd"DEBUG\VC140.PDB" /Gd /TC /analyze- H:\OPENGL\CODE_REPOSITORY\OPENGL_REPOSITORY\PROJECTS\MULTIPLELIGHTS\MULTIPLELIGHTS\GLAD.C
