^H:\OPENGL\CODE_REPOSITORY\OPENGL_REPOSITORY\PROJECTS\TRANSFORMATIONS\TRANSFORMATIONS\BASE.CPP
/c /ZI /nologo /W3 /WX- /sdl /Od /Oy- /D _MBCS /Gm /EHsc /RTC1 /MDd /GS /fp:precise /Zc:wchar_t /Zc:forScope /Zc:inline /Fo"DEBUG\\" /Fd"DEBUG\VC140.PDB" /Gd /TP /analyze- H:\OPENGL\CODE_REPOSITORY\OPENGL_REPOSITORY\PROJECTS\TRANSFORMATIONS\TRANSFORMATIONS\BASE.CPP
^H:\OPENGL\CODE_REPOSITORY\OPENGL_REPOSITORY\PROJECTS\TRANSFORMATIONS\TRANSFORMATIONS\HELLOTRIANGLE.CPP
/c /ZI /nologo /W3 /WX- /sdl /Od /Oy- /D _MBCS /Gm /EHsc /RTC1 /MDd /GS /fp:precise /Zc:wchar_t /Zc:forScope /Zc:inline /Fo"DEBUG\\" /Fd"DEBUG\VC140.PDB" /Gd /TP /analyze- H:\OPENGL\CODE_REPOSITORY\OPENGL_REPOSITORY\PROJECTS\TRANSFORMATIONS\TRANSFORMATIONS\HELLOTRIANGLE.CPP
^H:\OPENGL\CODE_REPOSITORY\OPENGL_REPOSITORY\PROJECTS\TRANSFORMATIONS\TRANSFORMATIONS\SHADER.CPP
/c /ZI /nologo /W3 /WX- /sdl /Od /Oy- /D _MBCS /Gm /EHsc /RTC1 /MDd /GS /fp:precise /Zc:wchar_t /Zc:forScope /Zc:inline /Fo"DEBUG\\" /Fd"DEBUG\VC140.PDB" /Gd /TP /analyze- H:\OPENGL\CODE_REPOSITORY\OPENGL_REPOSITORY\PROJECTS\TRANSFORMATIONS\TRANSFORMATIONS\SHADER.CPP
^H:\OPENGL\CODE_REPOSITORY\OPENGL_REPOSITORY\PROJECTS\TRANSFORMATIONS\TRANSFORMATIONS\GLAD.C
/c /ZI /nologo /W3 /WX- /sdl /Od /Oy- /D _MBCS /Gm /EHsc /RTC1 /MDd /GS /fp:precise /Zc:wchar_t /Zc:forScope /Zc:inline /Fo"DEBUG\\" /Fd"DEBUG\VC140.PDB" /Gd /TC /analyze- H:\OPENGL\CODE_REPOSITORY\OPENGL_REPOSITORY\PROJECTS\TRANSFORMATIONS\TRANSFORMATIONS\GLAD.C
