^H:\OPENGL\CODE_REPOSITORY\OPENGL_REPOSITORY\PROJECTS\TRANSFORMATIONS\TRANSFORMATIONS\SHADER.CPP
H:\OPENGL\CODE_REPOSITORY\OPENGL_REPOSITORY\PROJECTS\TRANSFORMATIONS\TRANSFORMATIONS\SHADER.H
H:\OPENGL\CODE_REPOSITORY\OPENGL_REPOSITORY\PROJECTS\TRANSFORMATIONS\TRANSFORMATIONS\BASE.H
H:\OPENGL\CODE_REPOSITORY\OPENGL_REPOSITORY\PROJECTLIBRARIES\INCLUDE\GLAD\GLAD.H
H:\OPENGL\CODE_REPOSITORY\OPENGL_REPOSITORY\PROJECTLIBRARIES\INCLUDE\KHR\KHRPLATFORM.H
H:\OPENGL\CODE_REPOSITORY\OPENGL_REPOSITORY\PROJECTLIBRARIES\INCLUDE\GLFW\GLFW3.H
C:\PROGRAM FILES (X86)\WINDOWS KITS\10\INCLUDE\10.0.10240.0\UCRT\STDDEF.H
C:\PROGRAM FILES (X86)\WINDOWS KITS\10\INCLUDE\10.0.10240.0\UCRT\CORECRT.H
C:\PROGRAM FILES (X86)\MICROSOFT VISUAL STUDIO 14.0\VC\INCLUDE\VCRUNTIME.H
C:\PROGRAM FILES (X86)\MICROSOFT VISUAL STUDIO 14.0\VC\INCLUDE\SAL.H
C:\PROGRAM FILES (X86)\MICROSOFT VISUAL STUDIO 14.0\VC\INCLUDE\CONCURRENCYSAL.H
C:\PROGRAM FILES (X86)\MICROSOFT VISUAL STUDIO 14.0\VC\INCLUDE\VADEFS.H
C:\PROGRAM FILES (X86)\MICROSOFT VISUAL STUDIO 14.0\VC\INCLUDE\STDINT.H
C:\PROGRAM FILES (X86)\WINDOWS KITS\8.1\INCLUDE\UM\GL\GL.H
C:\PROGRAM FILES (X86)\MICROSOFT VISUAL STUDIO 14.0\VC\INCLUDE\IOSTREAM
C:\PROGRAM FILES (X86)\MICROSOFT VISUAL STUDIO 14.0\VC\INCLUDE\ISTREAM
C:\PROGRAM FILES (X86)\MICROSOFT VISUAL STUDIO 14.0\VC\INCLUDE\OSTREAM
C:\PROGRAM FILES (X86)\MICROSOFT VISUAL STUDIO 14.0\VC\INCLUDE\IOS
C:\PROGRAM FILES (X86)\MICROSOFT VISUAL STUDIO 14.0\VC\INCLUDE\XLOCNUM
C:\PROGRAM FILES (X86)\MICROSOFT VISUAL STUDIO 14.0\VC\INCLUDE\CLIMITS
C:\PROGRAM FILES (X86)\MICROSOFT VISUAL STUDIO 14.0\VC\INCLUDE\YVALS.H
C:\PROGRAM FILES (X86)\MICROSOFT VISUAL STUDIO 14.0\VC\INCLUDE\XKEYCHECK.H
C:\PROGRAM FILES (X86)\MICROSOFT VISUAL STUDIO 14.0\VC\INCLUDE\CRTDEFS.H
C:\PROGRAM FILES (X86)\MICROSOFT VISUAL STUDIO 14.0\VC\INCLUDE\USE_ANSI.H
C:\PROGRAM FILES (X86)\MICROSOFT VISUAL STUDIO 14.0\VC\INCLUDE\LIMITS.H
C:\PROGRAM FILES (X86)\MICROSOFT VISUAL STUDIO 14.0\VC\INCLUDE\CMATH
C:\PROGRAM FILES (X86)\WINDOWS KITS\10\INCLUDE\10.0.10240.0\UCRT\MATH.H
C:\PROGRAM FILES (X86)\MICROSOFT VISUAL STUDIO 14.0\VC\INCLUDE\XTGMATH.H
C:\PROGRAM FILES (X86)\MICROSOFT VISUAL STUDIO 14.0\VC\INCLUDE\XTR1COMMON
C:\PROGRAM FILES (X86)\MICROSOFT VISUAL STUDIO 14.0\VC\INCLUDE\CSTDLIB
C:\PROGRAM FILES (X86)\WINDOWS KITS\10\INCLUDE\10.0.10240.0\UCRT\STDLIB.H
C:\PROGRAM FILES (X86)\WINDOWS KITS\10\INCLUDE\10.0.10240.0\UCRT\CORECRT_MALLOC.H
C:\PROGRAM FILES (X86)\WINDOWS KITS\10\INCLUDE\10.0.10240.0\UCRT\CORECRT_SEARCH.H
C:\PROGRAM FILES (X86)\WINDOWS KITS\10\INCLUDE\10.0.10240.0\UCRT\CORECRT_WSTDLIB.H
C:\PROGRAM FILES (X86)\MICROSOFT VISUAL STUDIO 14.0\VC\INCLUDE\CSTDIO
C:\PROGRAM FILES (X86)\WINDOWS KITS\10\INCLUDE\10.0.10240.0\UCRT\STDIO.H
C:\PROGRAM FILES (X86)\WINDOWS KITS\10\INCLUDE\10.0.10240.0\UCRT\CORECRT_WSTDIO.H
C:\PROGRAM FILES (X86)\WINDOWS KITS\10\INCLUDE\10.0.10240.0\UCRT\CORECRT_STDIO_CONFIG.H
C:\PROGRAM FILES (X86)\MICROSOFT VISUAL STUDIO 14.0\VC\INCLUDE\STREAMBUF
C:\PROGRAM FILES (X86)\MICROSOFT VISUAL STUDIO 14.0\VC\INCLUDE\XIOSBASE
C:\PROGRAM FILES (X86)\MICROSOFT VISUAL STUDIO 14.0\VC\INCLUDE\XLOCALE
C:\PROGRAM FILES (X86)\MICROSOFT VISUAL STUDIO 14.0\VC\INCLUDE\CSTRING
C:\PROGRAM FILES (X86)\WINDOWS KITS\10\INCLUDE\10.0.10240.0\UCRT\STRING.H
C:\PROGRAM FILES (X86)\WINDOWS KITS\10\INCLUDE\10.0.10240.0\UCRT\CORECRT_MEMORY.H
C:\PROGRAM FILES (X86)\WINDOWS KITS\10\INCLUDE\10.0.10240.0\UCRT\CORECRT_MEMCPY_S.H
C:\PROGRAM FILES (X86)\WINDOWS KITS\10\INCLUDE\10.0.10240.0\UCRT\ERRNO.H
C:\PROGRAM FILES (X86)\MICROSOFT VISUAL STUDIO 14.0\VC\INCLUDE\VCRUNTIME_STRING.H
C:\PROGRAM FILES (X86)\WINDOWS KITS\10\INCLUDE\10.0.10240.0\UCRT\CORECRT_WSTRING.H
C:\PROGRAM FILES (X86)\MICROSOFT VISUAL STUDIO 14.0\VC\INCLUDE\STDEXCEPT
C:\PROGRAM FILES (X86)\MICROSOFT VISUAL STUDIO 14.0\VC\INCLUDE\EXCEPTION
C:\PROGRAM FILES (X86)\MICROSOFT VISUAL STUDIO 14.0\VC\INCLUDE\TYPE_TRAITS
C:\PROGRAM FILES (X86)\MICROSOFT VISUAL STUDIO 14.0\VC\INCLUDE\XSTDDEF
C:\PROGRAM FILES (X86)\MICROSOFT VISUAL STUDIO 14.0\VC\INCLUDE\CSTDDEF
C:\PROGRAM FILES (X86)\MICROSOFT VISUAL STUDIO 14.0\VC\INCLUDE\INITIALIZER_LIST
C:\PROGRAM FILES (X86)\WINDOWS KITS\10\INCLUDE\10.0.10240.0\UCRT\MALLOC.H
C:\PROGRAM FILES (X86)\MICROSOFT VISUAL STUDIO 14.0\VC\INCLUDE\VCRUNTIME_EXCEPTION.H
C:\PROGRAM FILES (X86)\MICROSOFT VISUAL STUDIO 14.0\VC\INCLUDE\EH.H
C:\PROGRAM FILES (X86)\WINDOWS KITS\10\INCLUDE\10.0.10240.0\UCRT\CORECRT_TERMINATE.H
C:\PROGRAM FILES (X86)\MICROSOFT VISUAL STUDIO 14.0\VC\INCLUDE\XSTRING
C:\PROGRAM FILES (X86)\MICROSOFT VISUAL STUDIO 14.0\VC\INCLUDE\XMEMORY0
C:\PROGRAM FILES (X86)\MICROSOFT VISUAL STUDIO 14.0\VC\INCLUDE\CSTDINT
C:\PROGRAM FILES (X86)\MICROSOFT VISUAL STUDIO 14.0\VC\INCLUDE\LIMITS
C:\PROGRAM FILES (X86)\MICROSOFT VISUAL STUDIO 14.0\VC\INCLUDE\YMATH.H
C:\PROGRAM FILES (X86)\MICROSOFT VISUAL STUDIO 14.0\VC\INCLUDE\CFLOAT
C:\PROGRAM FILES (X86)\WINDOWS KITS\10\INCLUDE\10.0.10240.0\UCRT\FLOAT.H
C:\PROGRAM FILES (X86)\MICROSOFT VISUAL STUDIO 14.0\VC\INCLUDE\CWCHAR
C:\PROGRAM FILES (X86)\WINDOWS KITS\10\INCLUDE\10.0.10240.0\UCRT\WCHAR.H
C:\PROGRAM FILES (X86)\WINDOWS KITS\10\INCLUDE\10.0.10240.0\UCRT\CORECRT_WCONIO.H
C:\PROGRAM FILES (X86)\WINDOWS KITS\10\INCLUDE\10.0.10240.0\UCRT\CORECRT_WCTYPE.H
C:\PROGRAM FILES (X86)\WINDOWS KITS\10\INCLUDE\10.0.10240.0\UCRT\CORECRT_WDIRECT.H
C:\PROGRAM FILES (X86)\WINDOWS KITS\10\INCLUDE\10.0.10240.0\UCRT\CORECRT_WIO.H
C:\PROGRAM FILES (X86)\WINDOWS KITS\10\INCLUDE\10.0.10240.0\UCRT\CORECRT_SHARE.H
C:\PROGRAM FILES (X86)\WINDOWS KITS\10\INCLUDE\10.0.10240.0\UCRT\CORECRT_WPROCESS.H
C:\PROGRAM FILES (X86)\WINDOWS KITS\10\INCLUDE\10.0.10240.0\UCRT\CORECRT_WTIME.H
C:\PROGRAM FILES (X86)\WINDOWS KITS\10\INCLUDE\10.0.10240.0\UCRT\SYS\STAT.H
C:\PROGRAM FILES (X86)\WINDOWS KITS\10\INCLUDE\10.0.10240.0\UCRT\SYS\TYPES.H
C:\PROGRAM FILES (X86)\MICROSOFT VISUAL STUDIO 14.0\VC\INCLUDE\NEW
C:\PROGRAM FILES (X86)\MICROSOFT VISUAL STUDIO 14.0\VC\INCLUDE\VCRUNTIME_NEW.H
C:\PROGRAM FILES (X86)\MICROSOFT VISUAL STUDIO 14.0\VC\INCLUDE\XUTILITY
C:\PROGRAM FILES (X86)\MICROSOFT VISUAL STUDIO 14.0\VC\INCLUDE\UTILITY
C:\PROGRAM FILES (X86)\MICROSOFT VISUAL STUDIO 14.0\VC\INCLUDE\IOSFWD
C:\PROGRAM FILES (X86)\WINDOWS KITS\10\INCLUDE\10.0.10240.0\UCRT\CRTDBG.H
C:\PROGRAM FILES (X86)\MICROSOFT VISUAL STUDIO 14.0\VC\INCLUDE\VCRUNTIME_NEW_DEBUG.H
C:\PROGRAM FILES (X86)\MICROSOFT VISUAL STUDIO 14.0\VC\INCLUDE\XATOMIC0.H
C:\PROGRAM FILES (X86)\MICROSOFT VISUAL STUDIO 14.0\VC\INCLUDE\INTRIN.H
C:\PROGRAM FILES (X86)\MICROSOFT VISUAL STUDIO 14.0\VC\INCLUDE\SETJMP.H
C:\PROGRAM FILES (X86)\MICROSOFT VISUAL STUDIO 14.0\VC\INCLUDE\IMMINTRIN.H
C:\PROGRAM FILES (X86)\MICROSOFT VISUAL STUDIO 14.0\VC\INCLUDE\WMMINTRIN.H
C:\PROGRAM FILES (X86)\MICROSOFT VISUAL STUDIO 14.0\VC\INCLUDE\NMMINTRIN.H
C:\PROGRAM FILES (X86)\MICROSOFT VISUAL STUDIO 14.0\VC\INCLUDE\SMMINTRIN.H
C:\PROGRAM FILES (X86)\MICROSOFT VISUAL STUDIO 14.0\VC\INCLUDE\TMMINTRIN.H
C:\PROGRAM FILES (X86)\MICROSOFT VISUAL STUDIO 14.0\VC\INCLUDE\PMMINTRIN.H
C:\PROGRAM FILES (X86)\MICROSOFT VISUAL STUDIO 14.0\VC\INCLUDE\EMMINTRIN.H
C:\PROGRAM FILES (X86)\MICROSOFT VISUAL STUDIO 14.0\VC\INCLUDE\XMMINTRIN.H
C:\PROGRAM FILES (X86)\MICROSOFT VISUAL STUDIO 14.0\VC\INCLUDE\MMINTRIN.H
C:\PROGRAM FILES (X86)\MICROSOFT VISUAL STUDIO 14.0\VC\INCLUDE\AMMINTRIN.H
C:\PROGRAM FILES (X86)\MICROSOFT VISUAL STUDIO 14.0\VC\INCLUDE\MM3DNOW.H
C:\PROGRAM FILES (X86)\MICROSOFT VISUAL STUDIO 14.0\VC\INCLUDE\TYPEINFO
C:\PROGRAM FILES (X86)\MICROSOFT VISUAL STUDIO 14.0\VC\INCLUDE\VCRUNTIME_TYPEINFO.H
C:\PROGRAM FILES (X86)\MICROSOFT VISUAL STUDIO 14.0\VC\INCLUDE\XLOCINFO
C:\PROGRAM FILES (X86)\MICROSOFT VISUAL STUDIO 14.0\VC\INCLUDE\XLOCINFO.H
C:\PROGRAM FILES (X86)\WINDOWS KITS\10\INCLUDE\10.0.10240.0\UCRT\CTYPE.H
C:\PROGRAM FILES (X86)\WINDOWS KITS\10\INCLUDE\10.0.10240.0\UCRT\LOCALE.H
C:\PROGRAM FILES (X86)\MICROSOFT VISUAL STUDIO 14.0\VC\INCLUDE\XFACET
C:\PROGRAM FILES (X86)\MICROSOFT VISUAL STUDIO 14.0\VC\INCLUDE\SYSTEM_ERROR
C:\PROGRAM FILES (X86)\MICROSOFT VISUAL STUDIO 14.0\VC\INCLUDE\CERRNO
C:\PROGRAM FILES (X86)\WINDOWS KITS\10\INCLUDE\10.0.10240.0\UCRT\SHARE.H
C:\PROGRAM FILES (X86)\MICROSOFT VISUAL STUDIO 14.0\VC\INCLUDE\FSTREAM
C:\PROGRAM FILES (X86)\MICROSOFT VISUAL STUDIO 14.0\VC\INCLUDE\STRING
C:\PROGRAM FILES (X86)\MICROSOFT VISUAL STUDIO 14.0\VC\INCLUDE\SSTREAM
H:\OPENGL\CODE_REPOSITORY\OPENGL_REPOSITORY\PROJECTLIBRARIES\INCLUDE\GLM\GLM.HPP
H:\OPENGL\CODE_REPOSITORY\OPENGL_REPOSITORY\PROJECTLIBRARIES\INCLUDE\GLM\DETAIL\_FIXES.HPP
H:\OPENGL\CODE_REPOSITORY\OPENGL_REPOSITORY\PROJECTLIBRARIES\INCLUDE\GLM\DETAIL\SETUP.HPP
C:\PROGRAM FILES (X86)\MICROSOFT VISUAL STUDIO 14.0\VC\INCLUDE\CASSERT
C:\PROGRAM FILES (X86)\WINDOWS KITS\10\INCLUDE\10.0.10240.0\UCRT\ASSERT.H
H:\OPENGL\CODE_REPOSITORY\OPENGL_REPOSITORY\PROJECTLIBRARIES\INCLUDE\GLM\SIMD\PLATFORM.H
H:\OPENGL\CODE_REPOSITORY\OPENGL_REPOSITORY\PROJECTLIBRARIES\INCLUDE\GLM\FWD.HPP
H:\OPENGL\CODE_REPOSITORY\OPENGL_REPOSITORY\PROJECTLIBRARIES\INCLUDE\GLM\DETAIL\QUALIFIER.HPP
H:\OPENGL\CODE_REPOSITORY\OPENGL_REPOSITORY\PROJECTLIBRARIES\INCLUDE\GLM\VEC2.HPP
H:\OPENGL\CODE_REPOSITORY\OPENGL_REPOSITORY\PROJECTLIBRARIES\INCLUDE\GLM\EXT\VECTOR_BOOL2.HPP
H:\OPENGL\CODE_REPOSITORY\OPENGL_REPOSITORY\PROJECTLIBRARIES\INCLUDE\GLM\DETAIL\TYPE_VEC2.HPP
H:\OPENGL\CODE_REPOSITORY\OPENGL_REPOSITORY\PROJECTLIBRARIES\INCLUDE\GLM\DETAIL\TYPE_VEC2.INL
H:\OPENGL\CODE_REPOSITORY\OPENGL_REPOSITORY\PROJECTLIBRARIES\INCLUDE\GLM\DETAIL\COMPUTE_VECTOR_RELATIONAL.HPP
H:\OPENGL\CODE_REPOSITORY\OPENGL_REPOSITORY\PROJECTLIBRARIES\INCLUDE\GLM\EXT\VECTOR_BOOL2_PRECISION.HPP
H:\OPENGL\CODE_REPOSITORY\OPENGL_REPOSITORY\PROJECTLIBRARIES\INCLUDE\GLM\EXT\VECTOR_FLOAT2.HPP
H:\OPENGL\CODE_REPOSITORY\OPENGL_REPOSITORY\PROJECTLIBRARIES\INCLUDE\GLM\EXT\VECTOR_FLOAT2_PRECISION.HPP
H:\OPENGL\CODE_REPOSITORY\OPENGL_REPOSITORY\PROJECTLIBRARIES\INCLUDE\GLM\EXT\VECTOR_DOUBLE2.HPP
H:\OPENGL\CODE_REPOSITORY\OPENGL_REPOSITORY\PROJECTLIBRARIES\INCLUDE\GLM\EXT\VECTOR_DOUBLE2_PRECISION.HPP
H:\OPENGL\CODE_REPOSITORY\OPENGL_REPOSITORY\PROJECTLIBRARIES\INCLUDE\GLM\EXT\VECTOR_INT2.HPP
H:\OPENGL\CODE_REPOSITORY\OPENGL_REPOSITORY\PROJECTLIBRARIES\INCLUDE\GLM\EXT\VECTOR_INT2_PRECISION.HPP
H:\OPENGL\CODE_REPOSITORY\OPENGL_REPOSITORY\PROJECTLIBRARIES\INCLUDE\GLM\EXT\VECTOR_UINT2.HPP
H:\OPENGL\CODE_REPOSITORY\OPENGL_REPOSITORY\PROJECTLIBRARIES\INCLUDE\GLM\EXT\VECTOR_UINT2_PRECISION.HPP
H:\OPENGL\CODE_REPOSITORY\OPENGL_REPOSITORY\PROJECTLIBRARIES\INCLUDE\GLM\VEC3.HPP
H:\OPENGL\CODE_REPOSITORY\OPENGL_REPOSITORY\PROJECTLIBRARIES\INCLUDE\GLM\EXT\VECTOR_BOOL3.HPP
H:\OPENGL\CODE_REPOSITORY\OPENGL_REPOSITORY\PROJECTLIBRARIES\INCLUDE\GLM\DETAIL\TYPE_VEC3.HPP
H:\OPENGL\CODE_REPOSITORY\OPENGL_REPOSITORY\PROJECTLIBRARIES\INCLUDE\GLM\DETAIL\TYPE_VEC3.INL
H:\OPENGL\CODE_REPOSITORY\OPENGL_REPOSITORY\PROJECTLIBRARIES\INCLUDE\GLM\EXT\VECTOR_BOOL3_PRECISION.HPP
H:\OPENGL\CODE_REPOSITORY\OPENGL_REPOSITORY\PROJECTLIBRARIES\INCLUDE\GLM\EXT\VECTOR_FLOAT3.HPP
H:\OPENGL\CODE_REPOSITORY\OPENGL_REPOSITORY\PROJECTLIBRARIES\INCLUDE\GLM\EXT\VECTOR_FLOAT3_PRECISION.HPP
H:\OPENGL\CODE_REPOSITORY\OPENGL_REPOSITORY\PROJECTLIBRARIES\INCLUDE\GLM\EXT\VECTOR_DOUBLE3.HPP
H:\OPENGL\CODE_REPOSITORY\OPENGL_REPOSITORY\PROJECTLIBRARIES\INCLUDE\GLM\EXT\VECTOR_DOUBLE3_PRECISION.HPP
H:\OPENGL\CODE_REPOSITORY\OPENGL_REPOSITORY\PROJECTLIBRARIES\INCLUDE\GLM\EXT\VECTOR_INT3.HPP
H:\OPENGL\CODE_REPOSITORY\OPENGL_REPOSITORY\PROJECTLIBRARIES\INCLUDE\GLM\EXT\VECTOR_INT3_PRECISION.HPP
H:\OPENGL\CODE_REPOSITORY\OPENGL_REPOSITORY\PROJECTLIBRARIES\INCLUDE\GLM\EXT\VECTOR_UINT3.HPP
H:\OPENGL\CODE_REPOSITORY\OPENGL_REPOSITORY\PROJECTLIBRARIES\INCLUDE\GLM\EXT\VECTOR_UINT3_PRECISION.HPP
H:\OPENGL\CODE_REPOSITORY\OPENGL_REPOSITORY\PROJECTLIBRARIES\INCLUDE\GLM\VEC4.HPP
H:\OPENGL\CODE_REPOSITORY\OPENGL_REPOSITORY\PROJECTLIBRARIES\INCLUDE\GLM\EXT\VECTOR_BOOL4.HPP
H:\OPENGL\CODE_REPOSITORY\OPENGL_REPOSITORY\PROJECTLIBRARIES\INCLUDE\GLM\DETAIL\TYPE_VEC4.HPP
H:\OPENGL\CODE_REPOSITORY\OPENGL_REPOSITORY\PROJECTLIBRARIES\INCLUDE\GLM\DETAIL\TYPE_VEC4.INL
H:\OPENGL\CODE_REPOSITORY\OPENGL_REPOSITORY\PROJECTLIBRARIES\INCLUDE\GLM\EXT\VECTOR_BOOL4_PRECISION.HPP
H:\OPENGL\CODE_REPOSITORY\OPENGL_REPOSITORY\PROJECTLIBRARIES\INCLUDE\GLM\EXT\VECTOR_FLOAT4.HPP
H:\OPENGL\CODE_REPOSITORY\OPENGL_REPOSITORY\PROJECTLIBRARIES\INCLUDE\GLM\EXT\VECTOR_FLOAT4_PRECISION.HPP
H:\OPENGL\CODE_REPOSITORY\OPENGL_REPOSITORY\PROJECTLIBRARIES\INCLUDE\GLM\EXT\VECTOR_DOUBLE4.HPP
H:\OPENGL\CODE_REPOSITORY\OPENGL_REPOSITORY\PROJECTLIBRARIES\INCLUDE\GLM\EXT\VECTOR_DOUBLE4_PRECISION.HPP
H:\OPENGL\CODE_REPOSITORY\OPENGL_REPOSITORY\PROJECTLIBRARIES\INCLUDE\GLM\EXT\VECTOR_INT4.HPP
H:\OPENGL\CODE_REPOSITORY\OPENGL_REPOSITORY\PROJECTLIBRARIES\INCLUDE\GLM\EXT\VECTOR_INT4_PRECISION.HPP
H:\OPENGL\CODE_REPOSITORY\OPENGL_REPOSITORY\PROJECTLIBRARIES\INCLUDE\GLM\EXT\VECTOR_UINT4.HPP
H:\OPENGL\CODE_REPOSITORY\OPENGL_REPOSITORY\PROJECTLIBRARIES\INCLUDE\GLM\EXT\VECTOR_UINT4_PRECISION.HPP
H:\OPENGL\CODE_REPOSITORY\OPENGL_REPOSITORY\PROJECTLIBRARIES\INCLUDE\GLM\MAT2X2.HPP
H:\OPENGL\CODE_REPOSITORY\OPENGL_REPOSITORY\PROJECTLIBRARIES\INCLUDE\GLM\EXT\MATRIX_DOUBLE2X2.HPP
H:\OPENGL\CODE_REPOSITORY\OPENGL_REPOSITORY\PROJECTLIBRARIES\INCLUDE\GLM\DETAIL\TYPE_MAT2X2.HPP
H:\OPENGL\CODE_REPOSITORY\OPENGL_REPOSITORY\PROJECTLIBRARIES\INCLUDE\GLM\DETAIL\TYPE_MAT2X2.INL
H:\OPENGL\CODE_REPOSITORY\OPENGL_REPOSITORY\PROJECTLIBRARIES\INCLUDE\GLM\MATRIX.HPP
H:\OPENGL\CODE_REPOSITORY\OPENGL_REPOSITORY\PROJECTLIBRARIES\INCLUDE\GLM\MAT2X3.HPP
H:\OPENGL\CODE_REPOSITORY\OPENGL_REPOSITORY\PROJECTLIBRARIES\INCLUDE\GLM\EXT\MATRIX_DOUBLE2X3.HPP
H:\OPENGL\CODE_REPOSITORY\OPENGL_REPOSITORY\PROJECTLIBRARIES\INCLUDE\GLM\DETAIL\TYPE_MAT2X3.HPP
H:\OPENGL\CODE_REPOSITORY\OPENGL_REPOSITORY\PROJECTLIBRARIES\INCLUDE\GLM\DETAIL\TYPE_MAT2X3.INL
H:\OPENGL\CODE_REPOSITORY\OPENGL_REPOSITORY\PROJECTLIBRARIES\INCLUDE\GLM\EXT\MATRIX_DOUBLE2X3_PRECISION.HPP
H:\OPENGL\CODE_REPOSITORY\OPENGL_REPOSITORY\PROJECTLIBRARIES\INCLUDE\GLM\EXT\MATRIX_FLOAT2X3.HPP
H:\OPENGL\CODE_REPOSITORY\OPENGL_REPOSITORY\PROJECTLIBRARIES\INCLUDE\GLM\EXT\MATRIX_FLOAT2X3_PRECISION.HPP
H:\OPENGL\CODE_REPOSITORY\OPENGL_REPOSITORY\PROJECTLIBRARIES\INCLUDE\GLM\MAT2X4.HPP
H:\OPENGL\CODE_REPOSITORY\OPENGL_REPOSITORY\PROJECTLIBRARIES\INCLUDE\GLM\EXT\MATRIX_DOUBLE2X4.HPP
H:\OPENGL\CODE_REPOSITORY\OPENGL_REPOSITORY\PROJECTLIBRARIES\INCLUDE\GLM\DETAIL\TYPE_MAT2X4.HPP
H:\OPENGL\CODE_REPOSITORY\OPENGL_REPOSITORY\PROJECTLIBRARIES\INCLUDE\GLM\DETAIL\TYPE_MAT2X4.INL
H:\OPENGL\CODE_REPOSITORY\OPENGL_REPOSITORY\PROJECTLIBRARIES\INCLUDE\GLM\EXT\MATRIX_DOUBLE2X4_PRECISION.HPP
H:\OPENGL\CODE_REPOSITORY\OPENGL_REPOSITORY\PROJECTLIBRARIES\INCLUDE\GLM\EXT\MATRIX_FLOAT2X4.HPP
H:\OPENGL\CODE_REPOSITORY\OPENGL_REPOSITORY\PROJECTLIBRARIES\INCLUDE\GLM\EXT\MATRIX_FLOAT2X4_PRECISION.HPP
H:\OPENGL\CODE_REPOSITORY\OPENGL_REPOSITORY\PROJECTLIBRARIES\INCLUDE\GLM\MAT3X2.HPP
H:\OPENGL\CODE_REPOSITORY\OPENGL_REPOSITORY\PROJECTLIBRARIES\INCLUDE\GLM\EXT\MATRIX_DOUBLE3X2.HPP
H:\OPENGL\CODE_REPOSITORY\OPENGL_REPOSITORY\PROJECTLIBRARIES\INCLUDE\GLM\DETAIL\TYPE_MAT3X2.HPP
H:\OPENGL\CODE_REPOSITORY\OPENGL_REPOSITORY\PROJECTLIBRARIES\INCLUDE\GLM\DETAIL\TYPE_MAT3X2.INL
H:\OPENGL\CODE_REPOSITORY\OPENGL_REPOSITORY\PROJECTLIBRARIES\INCLUDE\GLM\EXT\MATRIX_DOUBLE3X2_PRECISION.HPP
H:\OPENGL\CODE_REPOSITORY\OPENGL_REPOSITORY\PROJECTLIBRARIES\INCLUDE\GLM\EXT\MATRIX_FLOAT3X2.HPP
H:\OPENGL\CODE_REPOSITORY\OPENGL_REPOSITORY\PROJECTLIBRARIES\INCLUDE\GLM\EXT\MATRIX_FLOAT3X2_PRECISION.HPP
H:\OPENGL\CODE_REPOSITORY\OPENGL_REPOSITORY\PROJECTLIBRARIES\INCLUDE\GLM\MAT3X3.HPP
H:\OPENGL\CODE_REPOSITORY\OPENGL_REPOSITORY\PROJECTLIBRARIES\INCLUDE\GLM\EXT\MATRIX_DOUBLE3X3.HPP
H:\OPENGL\CODE_REPOSITORY\OPENGL_REPOSITORY\PROJECTLIBRARIES\INCLUDE\GLM\DETAIL\TYPE_MAT3X3.HPP
H:\OPENGL\CODE_REPOSITORY\OPENGL_REPOSITORY\PROJECTLIBRARIES\INCLUDE\GLM\DETAIL\TYPE_MAT3X3.INL
H:\OPENGL\CODE_REPOSITORY\OPENGL_REPOSITORY\PROJECTLIBRARIES\INCLUDE\GLM\EXT\MATRIX_DOUBLE3X3_PRECISION.HPP
H:\OPENGL\CODE_REPOSITORY\OPENGL_REPOSITORY\PROJECTLIBRARIES\INCLUDE\GLM\EXT\MATRIX_FLOAT3X3.HPP
H:\OPENGL\CODE_REPOSITORY\OPENGL_REPOSITORY\PROJECTLIBRARIES\INCLUDE\GLM\EXT\MATRIX_FLOAT3X3_PRECISION.HPP
H:\OPENGL\CODE_REPOSITORY\OPENGL_REPOSITORY\PROJECTLIBRARIES\INCLUDE\GLM\MAT3X4.HPP
H:\OPENGL\CODE_REPOSITORY\OPENGL_REPOSITORY\PROJECTLIBRARIES\INCLUDE\GLM\EXT\MATRIX_DOUBLE3X4.HPP
H:\OPENGL\CODE_REPOSITORY\OPENGL_REPOSITORY\PROJECTLIBRARIES\INCLUDE\GLM\DETAIL\TYPE_MAT3X4.HPP
H:\OPENGL\CODE_REPOSITORY\OPENGL_REPOSITORY\PROJECTLIBRARIES\INCLUDE\GLM\DETAIL\TYPE_MAT3X4.INL
H:\OPENGL\CODE_REPOSITORY\OPENGL_REPOSITORY\PROJECTLIBRARIES\INCLUDE\GLM\EXT\MATRIX_DOUBLE3X4_PRECISION.HPP
H:\OPENGL\CODE_REPOSITORY\OPENGL_REPOSITORY\PROJECTLIBRARIES\INCLUDE\GLM\EXT\MATRIX_FLOAT3X4.HPP
H:\OPENGL\CODE_REPOSITORY\OPENGL_REPOSITORY\PROJECTLIBRARIES\INCLUDE\GLM\EXT\MATRIX_FLOAT3X4_PRECISION.HPP
H:\OPENGL\CODE_REPOSITORY\OPENGL_REPOSITORY\PROJECTLIBRARIES\INCLUDE\GLM\MAT4X2.HPP
H:\OPENGL\CODE_REPOSITORY\OPENGL_REPOSITORY\PROJECTLIBRARIES\INCLUDE\GLM\EXT\MATRIX_DOUBLE4X2.HPP
H:\OPENGL\CODE_REPOSITORY\OPENGL_REPOSITORY\PROJECTLIBRARIES\INCLUDE\GLM\DETAIL\TYPE_MAT4X2.HPP
H:\OPENGL\CODE_REPOSITORY\OPENGL_REPOSITORY\PROJECTLIBRARIES\INCLUDE\GLM\DETAIL\TYPE_MAT4X2.INL
H:\OPENGL\CODE_REPOSITORY\OPENGL_REPOSITORY\PROJECTLIBRARIES\INCLUDE\GLM\EXT\MATRIX_DOUBLE4X2_PRECISION.HPP
H:\OPENGL\CODE_REPOSITORY\OPENGL_REPOSITORY\PROJECTLIBRARIES\INCLUDE\GLM\EXT\MATRIX_FLOAT4X2.HPP
H:\OPENGL\CODE_REPOSITORY\OPENGL_REPOSITORY\PROJECTLIBRARIES\INCLUDE\GLM\EXT\MATRIX_FLOAT4X2_PRECISION.HPP
H:\OPENGL\CODE_REPOSITORY\OPENGL_REPOSITORY\PROJECTLIBRARIES\INCLUDE\GLM\MAT4X3.HPP
H:\OPENGL\CODE_REPOSITORY\OPENGL_REPOSITORY\PROJECTLIBRARIES\INCLUDE\GLM\EXT\MATRIX_DOUBLE4X3.HPP
H:\OPENGL\CODE_REPOSITORY\OPENGL_REPOSITORY\PROJECTLIBRARIES\INCLUDE\GLM\DETAIL\TYPE_MAT4X3.HPP
H:\OPENGL\CODE_REPOSITORY\OPENGL_REPOSITORY\PROJECTLIBRARIES\INCLUDE\GLM\DETAIL\TYPE_MAT4X3.INL
H:\OPENGL\CODE_REPOSITORY\OPENGL_REPOSITORY\PROJECTLIBRARIES\INCLUDE\GLM\EXT\MATRIX_DOUBLE4X3_PRECISION.HPP
H:\OPENGL\CODE_REPOSITORY\OPENGL_REPOSITORY\PROJECTLIBRARIES\INCLUDE\GLM\EXT\MATRIX_FLOAT4X3.HPP
H:\OPENGL\CODE_REPOSITORY\OPENGL_REPOSITORY\PROJECTLIBRARIES\INCLUDE\GLM\EXT\MATRIX_FLOAT4X3_PRECISION.HPP
H:\OPENGL\CODE_REPOSITORY\OPENGL_REPOSITORY\PROJECTLIBRARIES\INCLUDE\GLM\MAT4X4.HPP
H:\OPENGL\CODE_REPOSITORY\OPENGL_REPOSITORY\PROJECTLIBRARIES\INCLUDE\GLM\EXT\MATRIX_DOUBLE4X4.HPP
H:\OPENGL\CODE_REPOSITORY\OPENGL_REPOSITORY\PROJECTLIBRARIES\INCLUDE\GLM\DETAIL\TYPE_MAT4X4.HPP
H:\OPENGL\CODE_REPOSITORY\OPENGL_REPOSITORY\PROJECTLIBRARIES\INCLUDE\GLM\DETAIL\TYPE_MAT4X4.INL
H:\OPENGL\CODE_REPOSITORY\OPENGL_REPOSITORY\PROJECTLIBRARIES\INCLUDE\GLM\EXT\MATRIX_DOUBLE4X4_PRECISION.HPP
H:\OPENGL\CODE_REPOSITORY\OPENGL_REPOSITORY\PROJECTLIBRARIES\INCLUDE\GLM\EXT\MATRIX_FLOAT4X4.HPP
H:\OPENGL\CODE_REPOSITORY\OPENGL_REPOSITORY\PROJECTLIBRARIES\INCLUDE\GLM\EXT\MATRIX_FLOAT4X4_PRECISION.HPP
H:\OPENGL\CODE_REPOSITORY\OPENGL_REPOSITORY\PROJECTLIBRARIES\INCLUDE\GLM\DETAIL\FUNC_MATRIX.INL
H:\OPENGL\CODE_REPOSITORY\OPENGL_REPOSITORY\PROJECTLIBRARIES\INCLUDE\GLM\GEOMETRIC.HPP
H:\OPENGL\CODE_REPOSITORY\OPENGL_REPOSITORY\PROJECTLIBRARIES\INCLUDE\GLM\DETAIL\FUNC_GEOMETRIC.INL
H:\OPENGL\CODE_REPOSITORY\OPENGL_REPOSITORY\PROJECTLIBRARIES\INCLUDE\GLM\EXPONENTIAL.HPP
H:\OPENGL\CODE_REPOSITORY\OPENGL_REPOSITORY\PROJECTLIBRARIES\INCLUDE\GLM\DETAIL\TYPE_VEC1.HPP
H:\OPENGL\CODE_REPOSITORY\OPENGL_REPOSITORY\PROJECTLIBRARIES\INCLUDE\GLM\DETAIL\TYPE_VEC1.INL
H:\OPENGL\CODE_REPOSITORY\OPENGL_REPOSITORY\PROJECTLIBRARIES\INCLUDE\GLM\DETAIL\FUNC_EXPONENTIAL.INL
H:\OPENGL\CODE_REPOSITORY\OPENGL_REPOSITORY\PROJECTLIBRARIES\INCLUDE\GLM\VECTOR_RELATIONAL.HPP
H:\OPENGL\CODE_REPOSITORY\OPENGL_REPOSITORY\PROJECTLIBRARIES\INCLUDE\GLM\DETAIL\FUNC_VECTOR_RELATIONAL.INL
H:\OPENGL\CODE_REPOSITORY\OPENGL_REPOSITORY\PROJECTLIBRARIES\INCLUDE\GLM\DETAIL\_VECTORIZE.HPP
H:\OPENGL\CODE_REPOSITORY\OPENGL_REPOSITORY\PROJECTLIBRARIES\INCLUDE\GLM\COMMON.HPP
H:\OPENGL\CODE_REPOSITORY\OPENGL_REPOSITORY\PROJECTLIBRARIES\INCLUDE\GLM\DETAIL\FUNC_COMMON.INL
H:\OPENGL\CODE_REPOSITORY\OPENGL_REPOSITORY\PROJECTLIBRARIES\INCLUDE\GLM\DETAIL\COMPUTE_COMMON.HPP
H:\OPENGL\CODE_REPOSITORY\OPENGL_REPOSITORY\PROJECTLIBRARIES\INCLUDE\GLM\EXT\MATRIX_DOUBLE2X2_PRECISION.HPP
H:\OPENGL\CODE_REPOSITORY\OPENGL_REPOSITORY\PROJECTLIBRARIES\INCLUDE\GLM\EXT\MATRIX_FLOAT2X2.HPP
H:\OPENGL\CODE_REPOSITORY\OPENGL_REPOSITORY\PROJECTLIBRARIES\INCLUDE\GLM\EXT\MATRIX_FLOAT2X2_PRECISION.HPP
H:\OPENGL\CODE_REPOSITORY\OPENGL_REPOSITORY\PROJECTLIBRARIES\INCLUDE\GLM\TRIGONOMETRIC.HPP
H:\OPENGL\CODE_REPOSITORY\OPENGL_REPOSITORY\PROJECTLIBRARIES\INCLUDE\GLM\DETAIL\FUNC_TRIGONOMETRIC.INL
H:\OPENGL\CODE_REPOSITORY\OPENGL_REPOSITORY\PROJECTLIBRARIES\INCLUDE\GLM\PACKING.HPP
H:\OPENGL\CODE_REPOSITORY\OPENGL_REPOSITORY\PROJECTLIBRARIES\INCLUDE\GLM\DETAIL\FUNC_PACKING.INL
H:\OPENGL\CODE_REPOSITORY\OPENGL_REPOSITORY\PROJECTLIBRARIES\INCLUDE\GLM\DETAIL\TYPE_HALF.HPP
H:\OPENGL\CODE_REPOSITORY\OPENGL_REPOSITORY\PROJECTLIBRARIES\INCLUDE\GLM\DETAIL\TYPE_HALF.INL
H:\OPENGL\CODE_REPOSITORY\OPENGL_REPOSITORY\PROJECTLIBRARIES\INCLUDE\GLM\INTEGER.HPP
H:\OPENGL\CODE_REPOSITORY\OPENGL_REPOSITORY\PROJECTLIBRARIES\INCLUDE\GLM\DETAIL\FUNC_INTEGER.INL
H:\OPENGL\CODE_REPOSITORY\OPENGL_REPOSITORY\PROJECTLIBRARIES\INCLUDE\GLM\GTC\MATRIX_TRANSFORM.HPP
H:\OPENGL\CODE_REPOSITORY\OPENGL_REPOSITORY\PROJECTLIBRARIES\INCLUDE\GLM\EXT\MATRIX_PROJECTION.HPP
H:\OPENGL\CODE_REPOSITORY\OPENGL_REPOSITORY\PROJECTLIBRARIES\INCLUDE\GLM\GTC\CONSTANTS.HPP
H:\OPENGL\CODE_REPOSITORY\OPENGL_REPOSITORY\PROJECTLIBRARIES\INCLUDE\GLM\EXT\SCALAR_CONSTANTS.HPP
H:\OPENGL\CODE_REPOSITORY\OPENGL_REPOSITORY\PROJECTLIBRARIES\INCLUDE\GLM\EXT\SCALAR_CONSTANTS.INL
H:\OPENGL\CODE_REPOSITORY\OPENGL_REPOSITORY\PROJECTLIBRARIES\INCLUDE\GLM\GTC\CONSTANTS.INL
H:\OPENGL\CODE_REPOSITORY\OPENGL_REPOSITORY\PROJECTLIBRARIES\INCLUDE\GLM\EXT\MATRIX_PROJECTION.INL
H:\OPENGL\CODE_REPOSITORY\OPENGL_REPOSITORY\PROJECTLIBRARIES\INCLUDE\GLM\EXT\MATRIX_CLIP_SPACE.HPP
H:\OPENGL\CODE_REPOSITORY\OPENGL_REPOSITORY\PROJECTLIBRARIES\INCLUDE\GLM\EXT\MATRIX_CLIP_SPACE.INL
H:\OPENGL\CODE_REPOSITORY\OPENGL_REPOSITORY\PROJECTLIBRARIES\INCLUDE\GLM\EXT\MATRIX_TRANSFORM.HPP
H:\OPENGL\CODE_REPOSITORY\OPENGL_REPOSITORY\PROJECTLIBRARIES\INCLUDE\GLM\EXT\MATRIX_TRANSFORM.INL
H:\OPENGL\CODE_REPOSITORY\OPENGL_REPOSITORY\PROJECTLIBRARIES\INCLUDE\GLM\GTC\MATRIX_TRANSFORM.INL
H:\OPENGL\CODE_REPOSITORY\OPENGL_REPOSITORY\PROJECTLIBRARIES\INCLUDE\GLM\GTC\TYPE_PTR.HPP
H:\OPENGL\CODE_REPOSITORY\OPENGL_REPOSITORY\PROJECTLIBRARIES\INCLUDE\GLM\GTC\QUATERNION.HPP
H:\OPENGL\CODE_REPOSITORY\OPENGL_REPOSITORY\PROJECTLIBRARIES\INCLUDE\GLM\EXT\VECTOR_RELATIONAL.HPP
H:\OPENGL\CODE_REPOSITORY\OPENGL_REPOSITORY\PROJECTLIBRARIES\INCLUDE\GLM\EXT\VECTOR_RELATIONAL.INL
H:\OPENGL\CODE_REPOSITORY\OPENGL_REPOSITORY\PROJECTLIBRARIES\INCLUDE\GLM\DETAIL\TYPE_FLOAT.HPP
H:\OPENGL\CODE_REPOSITORY\OPENGL_REPOSITORY\PROJECTLIBRARIES\INCLUDE\GLM\EXT\QUATERNION_COMMON.HPP
H:\OPENGL\CODE_REPOSITORY\OPENGL_REPOSITORY\PROJECTLIBRARIES\INCLUDE\GLM\EXT\QUATERNION_GEOMETRIC.HPP
H:\OPENGL\CODE_REPOSITORY\OPENGL_REPOSITORY\PROJECTLIBRARIES\INCLUDE\GLM\EXT\QUATERNION_GEOMETRIC.INL
H:\OPENGL\CODE_REPOSITORY\OPENGL_REPOSITORY\PROJECTLIBRARIES\INCLUDE\GLM\EXT\QUATERNION_COMMON.INL
H:\OPENGL\CODE_REPOSITORY\OPENGL_REPOSITORY\PROJECTLIBRARIES\INCLUDE\GLM\EXT\QUATERNION_FLOAT.HPP
H:\OPENGL\CODE_REPOSITORY\OPENGL_REPOSITORY\PROJECTLIBRARIES\INCLUDE\GLM\DETAIL\TYPE_QUAT.HPP
H:\OPENGL\CODE_REPOSITORY\OPENGL_REPOSITORY\PROJECTLIBRARIES\INCLUDE\GLM\EXT\QUATERNION_RELATIONAL.HPP
H:\OPENGL\CODE_REPOSITORY\OPENGL_REPOSITORY\PROJECTLIBRARIES\INCLUDE\GLM\EXT\QUATERNION_RELATIONAL.INL
H:\OPENGL\CODE_REPOSITORY\OPENGL_REPOSITORY\PROJECTLIBRARIES\INCLUDE\GLM\DETAIL\TYPE_QUAT.INL
H:\OPENGL\CODE_REPOSITORY\OPENGL_REPOSITORY\PROJECTLIBRARIES\INCLUDE\GLM\EXT\QUATERNION_FLOAT_PRECISION.HPP
H:\OPENGL\CODE_REPOSITORY\OPENGL_REPOSITORY\PROJECTLIBRARIES\INCLUDE\GLM\EXT\QUATERNION_DOUBLE.HPP
H:\OPENGL\CODE_REPOSITORY\OPENGL_REPOSITORY\PROJECTLIBRARIES\INCLUDE\GLM\EXT\QUATERNION_DOUBLE_PRECISION.HPP
H:\OPENGL\CODE_REPOSITORY\OPENGL_REPOSITORY\PROJECTLIBRARIES\INCLUDE\GLM\EXT\QUATERNION_TRIGONOMETRIC.HPP
H:\OPENGL\CODE_REPOSITORY\OPENGL_REPOSITORY\PROJECTLIBRARIES\INCLUDE\GLM\EXT\QUATERNION_TRIGONOMETRIC.INL
H:\OPENGL\CODE_REPOSITORY\OPENGL_REPOSITORY\PROJECTLIBRARIES\INCLUDE\GLM\EXT\QUATERNION_TRANSFORM.HPP
H:\OPENGL\CODE_REPOSITORY\OPENGL_REPOSITORY\PROJECTLIBRARIES\INCLUDE\GLM\EXT\QUATERNION_TRANSFORM.INL
H:\OPENGL\CODE_REPOSITORY\OPENGL_REPOSITORY\PROJECTLIBRARIES\INCLUDE\GLM\GTC\QUATERNION.INL
H:\OPENGL\CODE_REPOSITORY\OPENGL_REPOSITORY\PROJECTLIBRARIES\INCLUDE\GLM\GTC\EPSILON.HPP
H:\OPENGL\CODE_REPOSITORY\OPENGL_REPOSITORY\PROJECTLIBRARIES\INCLUDE\GLM\GTC\EPSILON.INL
H:\OPENGL\CODE_REPOSITORY\OPENGL_REPOSITORY\PROJECTLIBRARIES\INCLUDE\GLM\GTC\VEC1.HPP
H:\OPENGL\CODE_REPOSITORY\OPENGL_REPOSITORY\PROJECTLIBRARIES\INCLUDE\GLM\EXT\VECTOR_BOOL1.HPP
H:\OPENGL\CODE_REPOSITORY\OPENGL_REPOSITORY\PROJECTLIBRARIES\INCLUDE\GLM\EXT\VECTOR_BOOL1_PRECISION.HPP
H:\OPENGL\CODE_REPOSITORY\OPENGL_REPOSITORY\PROJECTLIBRARIES\INCLUDE\GLM\EXT\VECTOR_FLOAT1.HPP
H:\OPENGL\CODE_REPOSITORY\OPENGL_REPOSITORY\PROJECTLIBRARIES\INCLUDE\GLM\EXT\VECTOR_FLOAT1_PRECISION.HPP
H:\OPENGL\CODE_REPOSITORY\OPENGL_REPOSITORY\PROJECTLIBRARIES\INCLUDE\GLM\EXT\VECTOR_DOUBLE1.HPP
H:\OPENGL\CODE_REPOSITORY\OPENGL_REPOSITORY\PROJECTLIBRARIES\INCLUDE\GLM\EXT\VECTOR_DOUBLE1_PRECISION.HPP
H:\OPENGL\CODE_REPOSITORY\OPENGL_REPOSITORY\PROJECTLIBRARIES\INCLUDE\GLM\EXT\VECTOR_INT1.HPP
H:\OPENGL\CODE_REPOSITORY\OPENGL_REPOSITORY\PROJECTLIBRARIES\INCLUDE\GLM\EXT\VECTOR_INT1_PRECISION.HPP
H:\OPENGL\CODE_REPOSITORY\OPENGL_REPOSITORY\PROJECTLIBRARIES\INCLUDE\GLM\EXT\VECTOR_UINT1.HPP
H:\OPENGL\CODE_REPOSITORY\OPENGL_REPOSITORY\PROJECTLIBRARIES\INCLUDE\GLM\EXT\VECTOR_UINT1_PRECISION.HPP
H:\OPENGL\CODE_REPOSITORY\OPENGL_REPOSITORY\PROJECTLIBRARIES\INCLUDE\GLM\GTC\TYPE_PTR.INL
^H:\OPENGL\CODE_REPOSITORY\OPENGL_REPOSITORY\PROJECTS\TRANSFORMATIONS\TRANSFORMATIONS\HELLOTRIANGLE.CPP
H:\OPENGL\CODE_REPOSITORY\OPENGL_REPOSITORY\PROJECTS\TRANSFORMATIONS\TRANSFORMATIONS\SHADER.H
H:\OPENGL\CODE_REPOSITORY\OPENGL_REPOSITORY\PROJECTS\TRANSFORMATIONS\TRANSFORMATIONS\BASE.H
H:\OPENGL\CODE_REPOSITORY\OPENGL_REPOSITORY\PROJECTLIBRARIES\INCLUDE\GLAD\GLAD.H
H:\OPENGL\CODE_REPOSITORY\OPENGL_REPOSITORY\PROJECTLIBRARIES\INCLUDE\KHR\KHRPLATFORM.H
H:\OPENGL\CODE_REPOSITORY\OPENGL_REPOSITORY\PROJECTLIBRARIES\INCLUDE\GLFW\GLFW3.H
C:\PROGRAM FILES (X86)\WINDOWS KITS\10\INCLUDE\10.0.10240.0\UCRT\STDDEF.H
C:\PROGRAM FILES (X86)\WINDOWS KITS\10\INCLUDE\10.0.10240.0\UCRT\CORECRT.H
C:\PROGRAM FILES (X86)\MICROSOFT VISUAL STUDIO 14.0\VC\INCLUDE\VCRUNTIME.H
C:\PROGRAM FILES (X86)\MICROSOFT VISUAL STUDIO 14.0\VC\INCLUDE\SAL.H
C:\PROGRAM FILES (X86)\MICROSOFT VISUAL STUDIO 14.0\VC\INCLUDE\CONCURRENCYSAL.H
C:\PROGRAM FILES (X86)\MICROSOFT VISUAL STUDIO 14.0\VC\INCLUDE\VADEFS.H
C:\PROGRAM FILES (X86)\MICROSOFT VISUAL STUDIO 14.0\VC\INCLUDE\STDINT.H
C:\PROGRAM FILES (X86)\WINDOWS KITS\8.1\INCLUDE\UM\GL\GL.H
C:\PROGRAM FILES (X86)\MICROSOFT VISUAL STUDIO 14.0\VC\INCLUDE\IOSTREAM
C:\PROGRAM FILES (X86)\MICROSOFT VISUAL STUDIO 14.0\VC\INCLUDE\ISTREAM
C:\PROGRAM FILES (X86)\MICROSOFT VISUAL STUDIO 14.0\VC\INCLUDE\OSTREAM
C:\PROGRAM FILES (X86)\MICROSOFT VISUAL STUDIO 14.0\VC\INCLUDE\IOS
C:\PROGRAM FILES (X86)\MICROSOFT VISUAL STUDIO 14.0\VC\INCLUDE\XLOCNUM
C:\PROGRAM FILES (X86)\MICROSOFT VISUAL STUDIO 14.0\VC\INCLUDE\CLIMITS
C:\PROGRAM FILES (X86)\MICROSOFT VISUAL STUDIO 14.0\VC\INCLUDE\YVALS.H
C:\PROGRAM FILES (X86)\MICROSOFT VISUAL STUDIO 14.0\VC\INCLUDE\XKEYCHECK.H
C:\PROGRAM FILES (X86)\MICROSOFT VISUAL STUDIO 14.0\VC\INCLUDE\CRTDEFS.H
C:\PROGRAM FILES (X86)\MICROSOFT VISUAL STUDIO 14.0\VC\INCLUDE\USE_ANSI.H
C:\PROGRAM FILES (X86)\MICROSOFT VISUAL STUDIO 14.0\VC\INCLUDE\LIMITS.H
C:\PROGRAM FILES (X86)\MICROSOFT VISUAL STUDIO 14.0\VC\INCLUDE\CMATH
C:\PROGRAM FILES (X86)\WINDOWS KITS\10\INCLUDE\10.0.10240.0\UCRT\MATH.H
C:\PROGRAM FILES (X86)\MICROSOFT VISUAL STUDIO 14.0\VC\INCLUDE\XTGMATH.H
C:\PROGRAM FILES (X86)\MICROSOFT VISUAL STUDIO 14.0\VC\INCLUDE\XTR1COMMON
C:\PROGRAM FILES (X86)\MICROSOFT VISUAL STUDIO 14.0\VC\INCLUDE\CSTDLIB
C:\PROGRAM FILES (X86)\WINDOWS KITS\10\INCLUDE\10.0.10240.0\UCRT\STDLIB.H
C:\PROGRAM FILES (X86)\WINDOWS KITS\10\INCLUDE\10.0.10240.0\UCRT\CORECRT_MALLOC.H
C:\PROGRAM FILES (X86)\WINDOWS KITS\10\INCLUDE\10.0.10240.0\UCRT\CORECRT_SEARCH.H
C:\PROGRAM FILES (X86)\WINDOWS KITS\10\INCLUDE\10.0.10240.0\UCRT\CORECRT_WSTDLIB.H
C:\PROGRAM FILES (X86)\MICROSOFT VISUAL STUDIO 14.0\VC\INCLUDE\CSTDIO
C:\PROGRAM FILES (X86)\WINDOWS KITS\10\INCLUDE\10.0.10240.0\UCRT\STDIO.H
C:\PROGRAM FILES (X86)\WINDOWS KITS\10\INCLUDE\10.0.10240.0\UCRT\CORECRT_WSTDIO.H
C:\PROGRAM FILES (X86)\WINDOWS KITS\10\INCLUDE\10.0.10240.0\UCRT\CORECRT_STDIO_CONFIG.H
C:\PROGRAM FILES (X86)\MICROSOFT VISUAL STUDIO 14.0\VC\INCLUDE\STREAMBUF
C:\PROGRAM FILES (X86)\MICROSOFT VISUAL STUDIO 14.0\VC\INCLUDE\XIOSBASE
C:\PROGRAM FILES (X86)\MICROSOFT VISUAL STUDIO 14.0\VC\INCLUDE\XLOCALE
C:\PROGRAM FILES (X86)\MICROSOFT VISUAL STUDIO 14.0\VC\INCLUDE\CSTRING
C:\PROGRAM FILES (X86)\WINDOWS KITS\10\INCLUDE\10.0.10240.0\UCRT\STRING.H
C:\PROGRAM FILES (X86)\WINDOWS KITS\10\INCLUDE\10.0.10240.0\UCRT\CORECRT_MEMORY.H
C:\PROGRAM FILES (X86)\WINDOWS KITS\10\INCLUDE\10.0.10240.0\UCRT\CORECRT_MEMCPY_S.H
C:\PROGRAM FILES (X86)\WINDOWS KITS\10\INCLUDE\10.0.10240.0\UCRT\ERRNO.H
C:\PROGRAM FILES (X86)\MICROSOFT VISUAL STUDIO 14.0\VC\INCLUDE\VCRUNTIME_STRING.H
C:\PROGRAM FILES (X86)\WINDOWS KITS\10\INCLUDE\10.0.10240.0\UCRT\CORECRT_WSTRING.H
C:\PROGRAM FILES (X86)\MICROSOFT VISUAL STUDIO 14.0\VC\INCLUDE\STDEXCEPT
C:\PROGRAM FILES (X86)\MICROSOFT VISUAL STUDIO 14.0\VC\INCLUDE\EXCEPTION
C:\PROGRAM FILES (X86)\MICROSOFT VISUAL STUDIO 14.0\VC\INCLUDE\TYPE_TRAITS
C:\PROGRAM FILES (X86)\MICROSOFT VISUAL STUDIO 14.0\VC\INCLUDE\XSTDDEF
C:\PROGRAM FILES (X86)\MICROSOFT VISUAL STUDIO 14.0\VC\INCLUDE\CSTDDEF
C:\PROGRAM FILES (X86)\MICROSOFT VISUAL STUDIO 14.0\VC\INCLUDE\INITIALIZER_LIST
C:\PROGRAM FILES (X86)\WINDOWS KITS\10\INCLUDE\10.0.10240.0\UCRT\MALLOC.H
C:\PROGRAM FILES (X86)\MICROSOFT VISUAL STUDIO 14.0\VC\INCLUDE\VCRUNTIME_EXCEPTION.H
C:\PROGRAM FILES (X86)\MICROSOFT VISUAL STUDIO 14.0\VC\INCLUDE\EH.H
C:\PROGRAM FILES (X86)\WINDOWS KITS\10\INCLUDE\10.0.10240.0\UCRT\CORECRT_TERMINATE.H
C:\PROGRAM FILES (X86)\MICROSOFT VISUAL STUDIO 14.0\VC\INCLUDE\XSTRING
C:\PROGRAM FILES (X86)\MICROSOFT VISUAL STUDIO 14.0\VC\INCLUDE\XMEMORY0
C:\PROGRAM FILES (X86)\MICROSOFT VISUAL STUDIO 14.0\VC\INCLUDE\CSTDINT
C:\PROGRAM FILES (X86)\MICROSOFT VISUAL STUDIO 14.0\VC\INCLUDE\LIMITS
C:\PROGRAM FILES (X86)\MICROSOFT VISUAL STUDIO 14.0\VC\INCLUDE\YMATH.H
C:\PROGRAM FILES (X86)\MICROSOFT VISUAL STUDIO 14.0\VC\INCLUDE\CFLOAT
C:\PROGRAM FILES (X86)\WINDOWS KITS\10\INCLUDE\10.0.10240.0\UCRT\FLOAT.H
C:\PROGRAM FILES (X86)\MICROSOFT VISUAL STUDIO 14.0\VC\INCLUDE\CWCHAR
C:\PROGRAM FILES (X86)\WINDOWS KITS\10\INCLUDE\10.0.10240.0\UCRT\WCHAR.H
C:\PROGRAM FILES (X86)\WINDOWS KITS\10\INCLUDE\10.0.10240.0\UCRT\CORECRT_WCONIO.H
C:\PROGRAM FILES (X86)\WINDOWS KITS\10\INCLUDE\10.0.10240.0\UCRT\CORECRT_WCTYPE.H
C:\PROGRAM FILES (X86)\WINDOWS KITS\10\INCLUDE\10.0.10240.0\UCRT\CORECRT_WDIRECT.H
C:\PROGRAM FILES (X86)\WINDOWS KITS\10\INCLUDE\10.0.10240.0\UCRT\CORECRT_WIO.H
C:\PROGRAM FILES (X86)\WINDOWS KITS\10\INCLUDE\10.0.10240.0\UCRT\CORECRT_SHARE.H
C:\PROGRAM FILES (X86)\WINDOWS KITS\10\INCLUDE\10.0.10240.0\UCRT\CORECRT_WPROCESS.H
C:\PROGRAM FILES (X86)\WINDOWS KITS\10\INCLUDE\10.0.10240.0\UCRT\CORECRT_WTIME.H
C:\PROGRAM FILES (X86)\WINDOWS KITS\10\INCLUDE\10.0.10240.0\UCRT\SYS\STAT.H
C:\PROGRAM FILES (X86)\WINDOWS KITS\10\INCLUDE\10.0.10240.0\UCRT\SYS\TYPES.H
C:\PROGRAM FILES (X86)\MICROSOFT VISUAL STUDIO 14.0\VC\INCLUDE\NEW
C:\PROGRAM FILES (X86)\MICROSOFT VISUAL STUDIO 14.0\VC\INCLUDE\VCRUNTIME_NEW.H
C:\PROGRAM FILES (X86)\MICROSOFT VISUAL STUDIO 14.0\VC\INCLUDE\XUTILITY
C:\PROGRAM FILES (X86)\MICROSOFT VISUAL STUDIO 14.0\VC\INCLUDE\UTILITY
C:\PROGRAM FILES (X86)\MICROSOFT VISUAL STUDIO 14.0\VC\INCLUDE\IOSFWD
C:\PROGRAM FILES (X86)\WINDOWS KITS\10\INCLUDE\10.0.10240.0\UCRT\CRTDBG.H
C:\PROGRAM FILES (X86)\MICROSOFT VISUAL STUDIO 14.0\VC\INCLUDE\VCRUNTIME_NEW_DEBUG.H
C:\PROGRAM FILES (X86)\MICROSOFT VISUAL STUDIO 14.0\VC\INCLUDE\XATOMIC0.H
C:\PROGRAM FILES (X86)\MICROSOFT VISUAL STUDIO 14.0\VC\INCLUDE\INTRIN.H
C:\PROGRAM FILES (X86)\MICROSOFT VISUAL STUDIO 14.0\VC\INCLUDE\SETJMP.H
C:\PROGRAM FILES (X86)\MICROSOFT VISUAL STUDIO 14.0\VC\INCLUDE\IMMINTRIN.H
C:\PROGRAM FILES (X86)\MICROSOFT VISUAL STUDIO 14.0\VC\INCLUDE\WMMINTRIN.H
C:\PROGRAM FILES (X86)\MICROSOFT VISUAL STUDIO 14.0\VC\INCLUDE\NMMINTRIN.H
C:\PROGRAM FILES (X86)\MICROSOFT VISUAL STUDIO 14.0\VC\INCLUDE\SMMINTRIN.H
C:\PROGRAM FILES (X86)\MICROSOFT VISUAL STUDIO 14.0\VC\INCLUDE\TMMINTRIN.H
C:\PROGRAM FILES (X86)\MICROSOFT VISUAL STUDIO 14.0\VC\INCLUDE\PMMINTRIN.H
C:\PROGRAM FILES (X86)\MICROSOFT VISUAL STUDIO 14.0\VC\INCLUDE\EMMINTRIN.H
C:\PROGRAM FILES (X86)\MICROSOFT VISUAL STUDIO 14.0\VC\INCLUDE\XMMINTRIN.H
C:\PROGRAM FILES (X86)\MICROSOFT VISUAL STUDIO 14.0\VC\INCLUDE\MMINTRIN.H
C:\PROGRAM FILES (X86)\MICROSOFT VISUAL STUDIO 14.0\VC\INCLUDE\AMMINTRIN.H
C:\PROGRAM FILES (X86)\MICROSOFT VISUAL STUDIO 14.0\VC\INCLUDE\MM3DNOW.H
C:\PROGRAM FILES (X86)\MICROSOFT VISUAL STUDIO 14.0\VC\INCLUDE\TYPEINFO
C:\PROGRAM FILES (X86)\MICROSOFT VISUAL STUDIO 14.0\VC\INCLUDE\VCRUNTIME_TYPEINFO.H
C:\PROGRAM FILES (X86)\MICROSOFT VISUAL STUDIO 14.0\VC\INCLUDE\XLOCINFO
C:\PROGRAM FILES (X86)\MICROSOFT VISUAL STUDIO 14.0\VC\INCLUDE\XLOCINFO.H
C:\PROGRAM FILES (X86)\WINDOWS KITS\10\INCLUDE\10.0.10240.0\UCRT\CTYPE.H
C:\PROGRAM FILES (X86)\WINDOWS KITS\10\INCLUDE\10.0.10240.0\UCRT\LOCALE.H
C:\PROGRAM FILES (X86)\MICROSOFT VISUAL STUDIO 14.0\VC\INCLUDE\XFACET
C:\PROGRAM FILES (X86)\MICROSOFT VISUAL STUDIO 14.0\VC\INCLUDE\SYSTEM_ERROR
C:\PROGRAM FILES (X86)\MICROSOFT VISUAL STUDIO 14.0\VC\INCLUDE\CERRNO
C:\PROGRAM FILES (X86)\WINDOWS KITS\10\INCLUDE\10.0.10240.0\UCRT\SHARE.H
C:\PROGRAM FILES (X86)\MICROSOFT VISUAL STUDIO 14.0\VC\INCLUDE\FSTREAM
C:\PROGRAM FILES (X86)\MICROSOFT VISUAL STUDIO 14.0\VC\INCLUDE\STRING
C:\PROGRAM FILES (X86)\MICROSOFT VISUAL STUDIO 14.0\VC\INCLUDE\SSTREAM
H:\OPENGL\CODE_REPOSITORY\OPENGL_REPOSITORY\PROJECTLIBRARIES\INCLUDE\STB_IMAGE.H
C:\PROGRAM FILES (X86)\MICROSOFT VISUAL STUDIO 14.0\VC\INCLUDE\STDARG.H
C:\PROGRAM FILES (X86)\WINDOWS KITS\10\INCLUDE\10.0.10240.0\UCRT\ASSERT.H
H:\OPENGL\CODE_REPOSITORY\OPENGL_REPOSITORY\PROJECTLIBRARIES\INCLUDE\GLM\GLM.HPP
H:\OPENGL\CODE_REPOSITORY\OPENGL_REPOSITORY\PROJECTLIBRARIES\INCLUDE\GLM\DETAIL\_FIXES.HPP
H:\OPENGL\CODE_REPOSITORY\OPENGL_REPOSITORY\PROJECTLIBRARIES\INCLUDE\GLM\DETAIL\SETUP.HPP
C:\PROGRAM FILES (X86)\MICROSOFT VISUAL STUDIO 14.0\VC\INCLUDE\CASSERT
H:\OPENGL\CODE_REPOSITORY\OPENGL_REPOSITORY\PROJECTLIBRARIES\INCLUDE\GLM\SIMD\PLATFORM.H
H:\OPENGL\CODE_REPOSITORY\OPENGL_REPOSITORY\PROJECTLIBRARIES\INCLUDE\GLM\FWD.HPP
H:\OPENGL\CODE_REPOSITORY\OPENGL_REPOSITORY\PROJECTLIBRARIES\INCLUDE\GLM\DETAIL\QUALIFIER.HPP
H:\OPENGL\CODE_REPOSITORY\OPENGL_REPOSITORY\PROJECTLIBRARIES\INCLUDE\GLM\VEC2.HPP
H:\OPENGL\CODE_REPOSITORY\OPENGL_REPOSITORY\PROJECTLIBRARIES\INCLUDE\GLM\EXT\VECTOR_BOOL2.HPP
H:\OPENGL\CODE_REPOSITORY\OPENGL_REPOSITORY\PROJECTLIBRARIES\INCLUDE\GLM\DETAIL\TYPE_VEC2.HPP
H:\OPENGL\CODE_REPOSITORY\OPENGL_REPOSITORY\PROJECTLIBRARIES\INCLUDE\GLM\DETAIL\TYPE_VEC2.INL
H:\OPENGL\CODE_REPOSITORY\OPENGL_REPOSITORY\PROJECTLIBRARIES\INCLUDE\GLM\DETAIL\COMPUTE_VECTOR_RELATIONAL.HPP
H:\OPENGL\CODE_REPOSITORY\OPENGL_REPOSITORY\PROJECTLIBRARIES\INCLUDE\GLM\EXT\VECTOR_BOOL2_PRECISION.HPP
H:\OPENGL\CODE_REPOSITORY\OPENGL_REPOSITORY\PROJECTLIBRARIES\INCLUDE\GLM\EXT\VECTOR_FLOAT2.HPP
H:\OPENGL\CODE_REPOSITORY\OPENGL_REPOSITORY\PROJECTLIBRARIES\INCLUDE\GLM\EXT\VECTOR_FLOAT2_PRECISION.HPP
H:\OPENGL\CODE_REPOSITORY\OPENGL_REPOSITORY\PROJECTLIBRARIES\INCLUDE\GLM\EXT\VECTOR_DOUBLE2.HPP
H:\OPENGL\CODE_REPOSITORY\OPENGL_REPOSITORY\PROJECTLIBRARIES\INCLUDE\GLM\EXT\VECTOR_DOUBLE2_PRECISION.HPP
H:\OPENGL\CODE_REPOSITORY\OPENGL_REPOSITORY\PROJECTLIBRARIES\INCLUDE\GLM\EXT\VECTOR_INT2.HPP
H:\OPENGL\CODE_REPOSITORY\OPENGL_REPOSITORY\PROJECTLIBRARIES\INCLUDE\GLM\EXT\VECTOR_INT2_PRECISION.HPP
H:\OPENGL\CODE_REPOSITORY\OPENGL_REPOSITORY\PROJECTLIBRARIES\INCLUDE\GLM\EXT\VECTOR_UINT2.HPP
H:\OPENGL\CODE_REPOSITORY\OPENGL_REPOSITORY\PROJECTLIBRARIES\INCLUDE\GLM\EXT\VECTOR_UINT2_PRECISION.HPP
H:\OPENGL\CODE_REPOSITORY\OPENGL_REPOSITORY\PROJECTLIBRARIES\INCLUDE\GLM\VEC3.HPP
H:\OPENGL\CODE_REPOSITORY\OPENGL_REPOSITORY\PROJECTLIBRARIES\INCLUDE\GLM\EXT\VECTOR_BOOL3.HPP
H:\OPENGL\CODE_REPOSITORY\OPENGL_REPOSITORY\PROJECTLIBRARIES\INCLUDE\GLM\DETAIL\TYPE_VEC3.HPP
H:\OPENGL\CODE_REPOSITORY\OPENGL_REPOSITORY\PROJECTLIBRARIES\INCLUDE\GLM\DETAIL\TYPE_VEC3.INL
H:\OPENGL\CODE_REPOSITORY\OPENGL_REPOSITORY\PROJECTLIBRARIES\INCLUDE\GLM\EXT\VECTOR_BOOL3_PRECISION.HPP
H:\OPENGL\CODE_REPOSITORY\OPENGL_REPOSITORY\PROJECTLIBRARIES\INCLUDE\GLM\EXT\VECTOR_FLOAT3.HPP
H:\OPENGL\CODE_REPOSITORY\OPENGL_REPOSITORY\PROJECTLIBRARIES\INCLUDE\GLM\EXT\VECTOR_FLOAT3_PRECISION.HPP
H:\OPENGL\CODE_REPOSITORY\OPENGL_REPOSITORY\PROJECTLIBRARIES\INCLUDE\GLM\EXT\VECTOR_DOUBLE3.HPP
H:\OPENGL\CODE_REPOSITORY\OPENGL_REPOSITORY\PROJECTLIBRARIES\INCLUDE\GLM\EXT\VECTOR_DOUBLE3_PRECISION.HPP
H:\OPENGL\CODE_REPOSITORY\OPENGL_REPOSITORY\PROJECTLIBRARIES\INCLUDE\GLM\EXT\VECTOR_INT3.HPP
H:\OPENGL\CODE_REPOSITORY\OPENGL_REPOSITORY\PROJECTLIBRARIES\INCLUDE\GLM\EXT\VECTOR_INT3_PRECISION.HPP
H:\OPENGL\CODE_REPOSITORY\OPENGL_REPOSITORY\PROJECTLIBRARIES\INCLUDE\GLM\EXT\VECTOR_UINT3.HPP
H:\OPENGL\CODE_REPOSITORY\OPENGL_REPOSITORY\PROJECTLIBRARIES\INCLUDE\GLM\EXT\VECTOR_UINT3_PRECISION.HPP
H:\OPENGL\CODE_REPOSITORY\OPENGL_REPOSITORY\PROJECTLIBRARIES\INCLUDE\GLM\VEC4.HPP
H:\OPENGL\CODE_REPOSITORY\OPENGL_REPOSITORY\PROJECTLIBRARIES\INCLUDE\GLM\EXT\VECTOR_BOOL4.HPP
H:\OPENGL\CODE_REPOSITORY\OPENGL_REPOSITORY\PROJECTLIBRARIES\INCLUDE\GLM\DETAIL\TYPE_VEC4.HPP
H:\OPENGL\CODE_REPOSITORY\OPENGL_REPOSITORY\PROJECTLIBRARIES\INCLUDE\GLM\DETAIL\TYPE_VEC4.INL
H:\OPENGL\CODE_REPOSITORY\OPENGL_REPOSITORY\PROJECTLIBRARIES\INCLUDE\GLM\EXT\VECTOR_BOOL4_PRECISION.HPP
H:\OPENGL\CODE_REPOSITORY\OPENGL_REPOSITORY\PROJECTLIBRARIES\INCLUDE\GLM\EXT\VECTOR_FLOAT4.HPP
H:\OPENGL\CODE_REPOSITORY\OPENGL_REPOSITORY\PROJECTLIBRARIES\INCLUDE\GLM\EXT\VECTOR_FLOAT4_PRECISION.HPP
H:\OPENGL\CODE_REPOSITORY\OPENGL_REPOSITORY\PROJECTLIBRARIES\INCLUDE\GLM\EXT\VECTOR_DOUBLE4.HPP
H:\OPENGL\CODE_REPOSITORY\OPENGL_REPOSITORY\PROJECTLIBRARIES\INCLUDE\GLM\EXT\VECTOR_DOUBLE4_PRECISION.HPP
H:\OPENGL\CODE_REPOSITORY\OPENGL_REPOSITORY\PROJECTLIBRARIES\INCLUDE\GLM\EXT\VECTOR_INT4.HPP
H:\OPENGL\CODE_REPOSITORY\OPENGL_REPOSITORY\PROJECTLIBRARIES\INCLUDE\GLM\EXT\VECTOR_INT4_PRECISION.HPP
H:\OPENGL\CODE_REPOSITORY\OPENGL_REPOSITORY\PROJECTLIBRARIES\INCLUDE\GLM\EXT\VECTOR_UINT4.HPP
H:\OPENGL\CODE_REPOSITORY\OPENGL_REPOSITORY\PROJECTLIBRARIES\INCLUDE\GLM\EXT\VECTOR_UINT4_PRECISION.HPP
H:\OPENGL\CODE_REPOSITORY\OPENGL_REPOSITORY\PROJECTLIBRARIES\INCLUDE\GLM\MAT2X2.HPP
H:\OPENGL\CODE_REPOSITORY\OPENGL_REPOSITORY\PROJECTLIBRARIES\INCLUDE\GLM\EXT\MATRIX_DOUBLE2X2.HPP
H:\OPENGL\CODE_REPOSITORY\OPENGL_REPOSITORY\PROJECTLIBRARIES\INCLUDE\GLM\DETAIL\TYPE_MAT2X2.HPP
H:\OPENGL\CODE_REPOSITORY\OPENGL_REPOSITORY\PROJECTLIBRARIES\INCLUDE\GLM\DETAIL\TYPE_MAT2X2.INL
H:\OPENGL\CODE_REPOSITORY\OPENGL_REPOSITORY\PROJECTLIBRARIES\INCLUDE\GLM\MATRIX.HPP
H:\OPENGL\CODE_REPOSITORY\OPENGL_REPOSITORY\PROJECTLIBRARIES\INCLUDE\GLM\MAT2X3.HPP
H:\OPENGL\CODE_REPOSITORY\OPENGL_REPOSITORY\PROJECTLIBRARIES\INCLUDE\GLM\EXT\MATRIX_DOUBLE2X3.HPP
H:\OPENGL\CODE_REPOSITORY\OPENGL_REPOSITORY\PROJECTLIBRARIES\INCLUDE\GLM\DETAIL\TYPE_MAT2X3.HPP
H:\OPENGL\CODE_REPOSITORY\OPENGL_REPOSITORY\PROJECTLIBRARIES\INCLUDE\GLM\DETAIL\TYPE_MAT2X3.INL
H:\OPENGL\CODE_REPOSITORY\OPENGL_REPOSITORY\PROJECTLIBRARIES\INCLUDE\GLM\EXT\MATRIX_DOUBLE2X3_PRECISION.HPP
H:\OPENGL\CODE_REPOSITORY\OPENGL_REPOSITORY\PROJECTLIBRARIES\INCLUDE\GLM\EXT\MATRIX_FLOAT2X3.HPP
H:\OPENGL\CODE_REPOSITORY\OPENGL_REPOSITORY\PROJECTLIBRARIES\INCLUDE\GLM\EXT\MATRIX_FLOAT2X3_PRECISION.HPP
H:\OPENGL\CODE_REPOSITORY\OPENGL_REPOSITORY\PROJECTLIBRARIES\INCLUDE\GLM\MAT2X4.HPP
H:\OPENGL\CODE_REPOSITORY\OPENGL_REPOSITORY\PROJECTLIBRARIES\INCLUDE\GLM\EXT\MATRIX_DOUBLE2X4.HPP
H:\OPENGL\CODE_REPOSITORY\OPENGL_REPOSITORY\PROJECTLIBRARIES\INCLUDE\GLM\DETAIL\TYPE_MAT2X4.HPP
H:\OPENGL\CODE_REPOSITORY\OPENGL_REPOSITORY\PROJECTLIBRARIES\INCLUDE\GLM\DETAIL\TYPE_MAT2X4.INL
H:\OPENGL\CODE_REPOSITORY\OPENGL_REPOSITORY\PROJECTLIBRARIES\INCLUDE\GLM\EXT\MATRIX_DOUBLE2X4_PRECISION.HPP
H:\OPENGL\CODE_REPOSITORY\OPENGL_REPOSITORY\PROJECTLIBRARIES\INCLUDE\GLM\EXT\MATRIX_FLOAT2X4.HPP
H:\OPENGL\CODE_REPOSITORY\OPENGL_REPOSITORY\PROJECTLIBRARIES\INCLUDE\GLM\EXT\MATRIX_FLOAT2X4_PRECISION.HPP
H:\OPENGL\CODE_REPOSITORY\OPENGL_REPOSITORY\PROJECTLIBRARIES\INCLUDE\GLM\MAT3X2.HPP
H:\OPENGL\CODE_REPOSITORY\OPENGL_REPOSITORY\PROJECTLIBRARIES\INCLUDE\GLM\EXT\MATRIX_DOUBLE3X2.HPP
H:\OPENGL\CODE_REPOSITORY\OPENGL_REPOSITORY\PROJECTLIBRARIES\INCLUDE\GLM\DETAIL\TYPE_MAT3X2.HPP
H:\OPENGL\CODE_REPOSITORY\OPENGL_REPOSITORY\PROJECTLIBRARIES\INCLUDE\GLM\DETAIL\TYPE_MAT3X2.INL
H:\OPENGL\CODE_REPOSITORY\OPENGL_REPOSITORY\PROJECTLIBRARIES\INCLUDE\GLM\EXT\MATRIX_DOUBLE3X2_PRECISION.HPP
H:\OPENGL\CODE_REPOSITORY\OPENGL_REPOSITORY\PROJECTLIBRARIES\INCLUDE\GLM\EXT\MATRIX_FLOAT3X2.HPP
H:\OPENGL\CODE_REPOSITORY\OPENGL_REPOSITORY\PROJECTLIBRARIES\INCLUDE\GLM\EXT\MATRIX_FLOAT3X2_PRECISION.HPP
H:\OPENGL\CODE_REPOSITORY\OPENGL_REPOSITORY\PROJECTLIBRARIES\INCLUDE\GLM\MAT3X3.HPP
H:\OPENGL\CODE_REPOSITORY\OPENGL_REPOSITORY\PROJECTLIBRARIES\INCLUDE\GLM\EXT\MATRIX_DOUBLE3X3.HPP
H:\OPENGL\CODE_REPOSITORY\OPENGL_REPOSITORY\PROJECTLIBRARIES\INCLUDE\GLM\DETAIL\TYPE_MAT3X3.HPP
H:\OPENGL\CODE_REPOSITORY\OPENGL_REPOSITORY\PROJECTLIBRARIES\INCLUDE\GLM\DETAIL\TYPE_MAT3X3.INL
H:\OPENGL\CODE_REPOSITORY\OPENGL_REPOSITORY\PROJECTLIBRARIES\INCLUDE\GLM\EXT\MATRIX_DOUBLE3X3_PRECISION.HPP
H:\OPENGL\CODE_REPOSITORY\OPENGL_REPOSITORY\PROJECTLIBRARIES\INCLUDE\GLM\EXT\MATRIX_FLOAT3X3.HPP
H:\OPENGL\CODE_REPOSITORY\OPENGL_REPOSITORY\PROJECTLIBRARIES\INCLUDE\GLM\EXT\MATRIX_FLOAT3X3_PRECISION.HPP
H:\OPENGL\CODE_REPOSITORY\OPENGL_REPOSITORY\PROJECTLIBRARIES\INCLUDE\GLM\MAT3X4.HPP
H:\OPENGL\CODE_REPOSITORY\OPENGL_REPOSITORY\PROJECTLIBRARIES\INCLUDE\GLM\EXT\MATRIX_DOUBLE3X4.HPP
H:\OPENGL\CODE_REPOSITORY\OPENGL_REPOSITORY\PROJECTLIBRARIES\INCLUDE\GLM\DETAIL\TYPE_MAT3X4.HPP
H:\OPENGL\CODE_REPOSITORY\OPENGL_REPOSITORY\PROJECTLIBRARIES\INCLUDE\GLM\DETAIL\TYPE_MAT3X4.INL
H:\OPENGL\CODE_REPOSITORY\OPENGL_REPOSITORY\PROJECTLIBRARIES\INCLUDE\GLM\EXT\MATRIX_DOUBLE3X4_PRECISION.HPP
H:\OPENGL\CODE_REPOSITORY\OPENGL_REPOSITORY\PROJECTLIBRARIES\INCLUDE\GLM\EXT\MATRIX_FLOAT3X4.HPP
H:\OPENGL\CODE_REPOSITORY\OPENGL_REPOSITORY\PROJECTLIBRARIES\INCLUDE\GLM\EXT\MATRIX_FLOAT3X4_PRECISION.HPP
H:\OPENGL\CODE_REPOSITORY\OPENGL_REPOSITORY\PROJECTLIBRARIES\INCLUDE\GLM\MAT4X2.HPP
H:\OPENGL\CODE_REPOSITORY\OPENGL_REPOSITORY\PROJECTLIBRARIES\INCLUDE\GLM\EXT\MATRIX_DOUBLE4X2.HPP
H:\OPENGL\CODE_REPOSITORY\OPENGL_REPOSITORY\PROJECTLIBRARIES\INCLUDE\GLM\DETAIL\TYPE_MAT4X2.HPP
H:\OPENGL\CODE_REPOSITORY\OPENGL_REPOSITORY\PROJECTLIBRARIES\INCLUDE\GLM\DETAIL\TYPE_MAT4X2.INL
H:\OPENGL\CODE_REPOSITORY\OPENGL_REPOSITORY\PROJECTLIBRARIES\INCLUDE\GLM\EXT\MATRIX_DOUBLE4X2_PRECISION.HPP
H:\OPENGL\CODE_REPOSITORY\OPENGL_REPOSITORY\PROJECTLIBRARIES\INCLUDE\GLM\EXT\MATRIX_FLOAT4X2.HPP
H:\OPENGL\CODE_REPOSITORY\OPENGL_REPOSITORY\PROJECTLIBRARIES\INCLUDE\GLM\EXT\MATRIX_FLOAT4X2_PRECISION.HPP
H:\OPENGL\CODE_REPOSITORY\OPENGL_REPOSITORY\PROJECTLIBRARIES\INCLUDE\GLM\MAT4X3.HPP
H:\OPENGL\CODE_REPOSITORY\OPENGL_REPOSITORY\PROJECTLIBRARIES\INCLUDE\GLM\EXT\MATRIX_DOUBLE4X3.HPP
H:\OPENGL\CODE_REPOSITORY\OPENGL_REPOSITORY\PROJECTLIBRARIES\INCLUDE\GLM\DETAIL\TYPE_MAT4X3.HPP
H:\OPENGL\CODE_REPOSITORY\OPENGL_REPOSITORY\PROJECTLIBRARIES\INCLUDE\GLM\DETAIL\TYPE_MAT4X3.INL
H:\OPENGL\CODE_REPOSITORY\OPENGL_REPOSITORY\PROJECTLIBRARIES\INCLUDE\GLM\EXT\MATRIX_DOUBLE4X3_PRECISION.HPP
H:\OPENGL\CODE_REPOSITORY\OPENGL_REPOSITORY\PROJECTLIBRARIES\INCLUDE\GLM\EXT\MATRIX_FLOAT4X3.HPP
H:\OPENGL\CODE_REPOSITORY\OPENGL_REPOSITORY\PROJECTLIBRARIES\INCLUDE\GLM\EXT\MATRIX_FLOAT4X3_PRECISION.HPP
H:\OPENGL\CODE_REPOSITORY\OPENGL_REPOSITORY\PROJECTLIBRARIES\INCLUDE\GLM\MAT4X4.HPP
H:\OPENGL\CODE_REPOSITORY\OPENGL_REPOSITORY\PROJECTLIBRARIES\INCLUDE\GLM\EXT\MATRIX_DOUBLE4X4.HPP
H:\OPENGL\CODE_REPOSITORY\OPENGL_REPOSITORY\PROJECTLIBRARIES\INCLUDE\GLM\DETAIL\TYPE_MAT4X4.HPP
H:\OPENGL\CODE_REPOSITORY\OPENGL_REPOSITORY\PROJECTLIBRARIES\INCLUDE\GLM\DETAIL\TYPE_MAT4X4.INL
H:\OPENGL\CODE_REPOSITORY\OPENGL_REPOSITORY\PROJECTLIBRARIES\INCLUDE\GLM\EXT\MATRIX_DOUBLE4X4_PRECISION.HPP
H:\OPENGL\CODE_REPOSITORY\OPENGL_REPOSITORY\PROJECTLIBRARIES\INCLUDE\GLM\EXT\MATRIX_FLOAT4X4.HPP
H:\OPENGL\CODE_REPOSITORY\OPENGL_REPOSITORY\PROJECTLIBRARIES\INCLUDE\GLM\EXT\MATRIX_FLOAT4X4_PRECISION.HPP
H:\OPENGL\CODE_REPOSITORY\OPENGL_REPOSITORY\PROJECTLIBRARIES\INCLUDE\GLM\DETAIL\FUNC_MATRIX.INL
H:\OPENGL\CODE_REPOSITORY\OPENGL_REPOSITORY\PROJECTLIBRARIES\INCLUDE\GLM\GEOMETRIC.HPP
H:\OPENGL\CODE_REPOSITORY\OPENGL_REPOSITORY\PROJECTLIBRARIES\INCLUDE\GLM\DETAIL\FUNC_GEOMETRIC.INL
H:\OPENGL\CODE_REPOSITORY\OPENGL_REPOSITORY\PROJECTLIBRARIES\INCLUDE\GLM\EXPONENTIAL.HPP
H:\OPENGL\CODE_REPOSITORY\OPENGL_REPOSITORY\PROJECTLIBRARIES\INCLUDE\GLM\DETAIL\TYPE_VEC1.HPP
H:\OPENGL\CODE_REPOSITORY\OPENGL_REPOSITORY\PROJECTLIBRARIES\INCLUDE\GLM\DETAIL\TYPE_VEC1.INL
H:\OPENGL\CODE_REPOSITORY\OPENGL_REPOSITORY\PROJECTLIBRARIES\INCLUDE\GLM\DETAIL\FUNC_EXPONENTIAL.INL
H:\OPENGL\CODE_REPOSITORY\OPENGL_REPOSITORY\PROJECTLIBRARIES\INCLUDE\GLM\VECTOR_RELATIONAL.HPP
H:\OPENGL\CODE_REPOSITORY\OPENGL_REPOSITORY\PROJECTLIBRARIES\INCLUDE\GLM\DETAIL\FUNC_VECTOR_RELATIONAL.INL
H:\OPENGL\CODE_REPOSITORY\OPENGL_REPOSITORY\PROJECTLIBRARIES\INCLUDE\GLM\DETAIL\_VECTORIZE.HPP
H:\OPENGL\CODE_REPOSITORY\OPENGL_REPOSITORY\PROJECTLIBRARIES\INCLUDE\GLM\COMMON.HPP
H:\OPENGL\CODE_REPOSITORY\OPENGL_REPOSITORY\PROJECTLIBRARIES\INCLUDE\GLM\DETAIL\FUNC_COMMON.INL
H:\OPENGL\CODE_REPOSITORY\OPENGL_REPOSITORY\PROJECTLIBRARIES\INCLUDE\GLM\DETAIL\COMPUTE_COMMON.HPP
H:\OPENGL\CODE_REPOSITORY\OPENGL_REPOSITORY\PROJECTLIBRARIES\INCLUDE\GLM\EXT\MATRIX_DOUBLE2X2_PRECISION.HPP
H:\OPENGL\CODE_REPOSITORY\OPENGL_REPOSITORY\PROJECTLIBRARIES\INCLUDE\GLM\EXT\MATRIX_FLOAT2X2.HPP
H:\OPENGL\CODE_REPOSITORY\OPENGL_REPOSITORY\PROJECTLIBRARIES\INCLUDE\GLM\EXT\MATRIX_FLOAT2X2_PRECISION.HPP
H:\OPENGL\CODE_REPOSITORY\OPENGL_REPOSITORY\PROJECTLIBRARIES\INCLUDE\GLM\TRIGONOMETRIC.HPP
H:\OPENGL\CODE_REPOSITORY\OPENGL_REPOSITORY\PROJECTLIBRARIES\INCLUDE\GLM\DETAIL\FUNC_TRIGONOMETRIC.INL
H:\OPENGL\CODE_REPOSITORY\OPENGL_REPOSITORY\PROJECTLIBRARIES\INCLUDE\GLM\PACKING.HPP
H:\OPENGL\CODE_REPOSITORY\OPENGL_REPOSITORY\PROJECTLIBRARIES\INCLUDE\GLM\DETAIL\FUNC_PACKING.INL
H:\OPENGL\CODE_REPOSITORY\OPENGL_REPOSITORY\PROJECTLIBRARIES\INCLUDE\GLM\DETAIL\TYPE_HALF.HPP
H:\OPENGL\CODE_REPOSITORY\OPENGL_REPOSITORY\PROJECTLIBRARIES\INCLUDE\GLM\DETAIL\TYPE_HALF.INL
H:\OPENGL\CODE_REPOSITORY\OPENGL_REPOSITORY\PROJECTLIBRARIES\INCLUDE\GLM\INTEGER.HPP
H:\OPENGL\CODE_REPOSITORY\OPENGL_REPOSITORY\PROJECTLIBRARIES\INCLUDE\GLM\DETAIL\FUNC_INTEGER.INL
H:\OPENGL\CODE_REPOSITORY\OPENGL_REPOSITORY\PROJECTLIBRARIES\INCLUDE\GLM\GTC\MATRIX_TRANSFORM.HPP
H:\OPENGL\CODE_REPOSITORY\OPENGL_REPOSITORY\PROJECTLIBRARIES\INCLUDE\GLM\EXT\MATRIX_PROJECTION.HPP
H:\OPENGL\CODE_REPOSITORY\OPENGL_REPOSITORY\PROJECTLIBRARIES\INCLUDE\GLM\GTC\CONSTANTS.HPP
H:\OPENGL\CODE_REPOSITORY\OPENGL_REPOSITORY\PROJECTLIBRARIES\INCLUDE\GLM\EXT\SCALAR_CONSTANTS.HPP
H:\OPENGL\CODE_REPOSITORY\OPENGL_REPOSITORY\PROJECTLIBRARIES\INCLUDE\GLM\EXT\SCALAR_CONSTANTS.INL
H:\OPENGL\CODE_REPOSITORY\OPENGL_REPOSITORY\PROJECTLIBRARIES\INCLUDE\GLM\GTC\CONSTANTS.INL
H:\OPENGL\CODE_REPOSITORY\OPENGL_REPOSITORY\PROJECTLIBRARIES\INCLUDE\GLM\EXT\MATRIX_PROJECTION.INL
H:\OPENGL\CODE_REPOSITORY\OPENGL_REPOSITORY\PROJECTLIBRARIES\INCLUDE\GLM\EXT\MATRIX_CLIP_SPACE.HPP
H:\OPENGL\CODE_REPOSITORY\OPENGL_REPOSITORY\PROJECTLIBRARIES\INCLUDE\GLM\EXT\MATRIX_CLIP_SPACE.INL
H:\OPENGL\CODE_REPOSITORY\OPENGL_REPOSITORY\PROJECTLIBRARIES\INCLUDE\GLM\EXT\MATRIX_TRANSFORM.HPP
H:\OPENGL\CODE_REPOSITORY\OPENGL_REPOSITORY\PROJECTLIBRARIES\INCLUDE\GLM\EXT\MATRIX_TRANSFORM.INL
H:\OPENGL\CODE_REPOSITORY\OPENGL_REPOSITORY\PROJECTLIBRARIES\INCLUDE\GLM\GTC\MATRIX_TRANSFORM.INL
H:\OPENGL\CODE_REPOSITORY\OPENGL_REPOSITORY\PROJECTLIBRARIES\INCLUDE\GLM\GTC\TYPE_PTR.HPP
H:\OPENGL\CODE_REPOSITORY\OPENGL_REPOSITORY\PROJECTLIBRARIES\INCLUDE\GLM\GTC\QUATERNION.HPP
H:\OPENGL\CODE_REPOSITORY\OPENGL_REPOSITORY\PROJECTLIBRARIES\INCLUDE\GLM\EXT\VECTOR_RELATIONAL.HPP
H:\OPENGL\CODE_REPOSITORY\OPENGL_REPOSITORY\PROJECTLIBRARIES\INCLUDE\GLM\EXT\VECTOR_RELATIONAL.INL
H:\OPENGL\CODE_REPOSITORY\OPENGL_REPOSITORY\PROJECTLIBRARIES\INCLUDE\GLM\DETAIL\TYPE_FLOAT.HPP
H:\OPENGL\CODE_REPOSITORY\OPENGL_REPOSITORY\PROJECTLIBRARIES\INCLUDE\GLM\EXT\QUATERNION_COMMON.HPP
H:\OPENGL\CODE_REPOSITORY\OPENGL_REPOSITORY\PROJECTLIBRARIES\INCLUDE\GLM\EXT\QUATERNION_GEOMETRIC.HPP
H:\OPENGL\CODE_REPOSITORY\OPENGL_REPOSITORY\PROJECTLIBRARIES\INCLUDE\GLM\EXT\QUATERNION_GEOMETRIC.INL
H:\OPENGL\CODE_REPOSITORY\OPENGL_REPOSITORY\PROJECTLIBRARIES\INCLUDE\GLM\EXT\QUATERNION_COMMON.INL
H:\OPENGL\CODE_REPOSITORY\OPENGL_REPOSITORY\PROJECTLIBRARIES\INCLUDE\GLM\EXT\QUATERNION_FLOAT.HPP
H:\OPENGL\CODE_REPOSITORY\OPENGL_REPOSITORY\PROJECTLIBRARIES\INCLUDE\GLM\DETAIL\TYPE_QUAT.HPP
H:\OPENGL\CODE_REPOSITORY\OPENGL_REPOSITORY\PROJECTLIBRARIES\INCLUDE\GLM\EXT\QUATERNION_RELATIONAL.HPP
H:\OPENGL\CODE_REPOSITORY\OPENGL_REPOSITORY\PROJECTLIBRARIES\INCLUDE\GLM\EXT\QUATERNION_RELATIONAL.INL
H:\OPENGL\CODE_REPOSITORY\OPENGL_REPOSITORY\PROJECTLIBRARIES\INCLUDE\GLM\DETAIL\TYPE_QUAT.INL
H:\OPENGL\CODE_REPOSITORY\OPENGL_REPOSITORY\PROJECTLIBRARIES\INCLUDE\GLM\EXT\QUATERNION_FLOAT_PRECISION.HPP
H:\OPENGL\CODE_REPOSITORY\OPENGL_REPOSITORY\PROJECTLIBRARIES\INCLUDE\GLM\EXT\QUATERNION_DOUBLE.HPP
H:\OPENGL\CODE_REPOSITORY\OPENGL_REPOSITORY\PROJECTLIBRARIES\INCLUDE\GLM\EXT\QUATERNION_DOUBLE_PRECISION.HPP
H:\OPENGL\CODE_REPOSITORY\OPENGL_REPOSITORY\PROJECTLIBRARIES\INCLUDE\GLM\EXT\QUATERNION_TRIGONOMETRIC.HPP
H:\OPENGL\CODE_REPOSITORY\OPENGL_REPOSITORY\PROJECTLIBRARIES\INCLUDE\GLM\EXT\QUATERNION_TRIGONOMETRIC.INL
H:\OPENGL\CODE_REPOSITORY\OPENGL_REPOSITORY\PROJECTLIBRARIES\INCLUDE\GLM\EXT\QUATERNION_TRANSFORM.HPP
H:\OPENGL\CODE_REPOSITORY\OPENGL_REPOSITORY\PROJECTLIBRARIES\INCLUDE\GLM\EXT\QUATERNION_TRANSFORM.INL
H:\OPENGL\CODE_REPOSITORY\OPENGL_REPOSITORY\PROJECTLIBRARIES\INCLUDE\GLM\GTC\QUATERNION.INL
H:\OPENGL\CODE_REPOSITORY\OPENGL_REPOSITORY\PROJECTLIBRARIES\INCLUDE\GLM\GTC\EPSILON.HPP
H:\OPENGL\CODE_REPOSITORY\OPENGL_REPOSITORY\PROJECTLIBRARIES\INCLUDE\GLM\GTC\EPSILON.INL
H:\OPENGL\CODE_REPOSITORY\OPENGL_REPOSITORY\PROJECTLIBRARIES\INCLUDE\GLM\GTC\VEC1.HPP
H:\OPENGL\CODE_REPOSITORY\OPENGL_REPOSITORY\PROJECTLIBRARIES\INCLUDE\GLM\EXT\VECTOR_BOOL1.HPP
H:\OPENGL\CODE_REPOSITORY\OPENGL_REPOSITORY\PROJECTLIBRARIES\INCLUDE\GLM\EXT\VECTOR_BOOL1_PRECISION.HPP
H:\OPENGL\CODE_REPOSITORY\OPENGL_REPOSITORY\PROJECTLIBRARIES\INCLUDE\GLM\EXT\VECTOR_FLOAT1.HPP
H:\OPENGL\CODE_REPOSITORY\OPENGL_REPOSITORY\PROJECTLIBRARIES\INCLUDE\GLM\EXT\VECTOR_FLOAT1_PRECISION.HPP
H:\OPENGL\CODE_REPOSITORY\OPENGL_REPOSITORY\PROJECTLIBRARIES\INCLUDE\GLM\EXT\VECTOR_DOUBLE1.HPP
H:\OPENGL\CODE_REPOSITORY\OPENGL_REPOSITORY\PROJECTLIBRARIES\INCLUDE\GLM\EXT\VECTOR_DOUBLE1_PRECISION.HPP
H:\OPENGL\CODE_REPOSITORY\OPENGL_REPOSITORY\PROJECTLIBRARIES\INCLUDE\GLM\EXT\VECTOR_INT1.HPP
H:\OPENGL\CODE_REPOSITORY\OPENGL_REPOSITORY\PROJECTLIBRARIES\INCLUDE\GLM\EXT\VECTOR_INT1_PRECISION.HPP
H:\OPENGL\CODE_REPOSITORY\OPENGL_REPOSITORY\PROJECTLIBRARIES\INCLUDE\GLM\EXT\VECTOR_UINT1.HPP
H:\OPENGL\CODE_REPOSITORY\OPENGL_REPOSITORY\PROJECTLIBRARIES\INCLUDE\GLM\EXT\VECTOR_UINT1_PRECISION.HPP
H:\OPENGL\CODE_REPOSITORY\OPENGL_REPOSITORY\PROJECTLIBRARIES\INCLUDE\GLM\GTC\TYPE_PTR.INL
C:\WINDOWS\GLOBALIZATION\SORTING\SORTDEFAULT.NLS
C:\PROGRAM FILES (X86)\MICROSOFT VISUAL STUDIO 14.0\VC\BIN\1033\CLUI.DLL
C:\WINDOWS\SYSTEM32\TZRES.DLL
^H:\OPENGL\CODE_REPOSITORY\OPENGL_REPOSITORY\PROJECTS\TRANSFORMATIONS\TRANSFORMATIONS\BASE.CPP
H:\OPENGL\CODE_REPOSITORY\OPENGL_REPOSITORY\PROJECTS\TRANSFORMATIONS\TRANSFORMATIONS\BASE.H
H:\OPENGL\CODE_REPOSITORY\OPENGL_REPOSITORY\PROJECTLIBRARIES\INCLUDE\GLAD\GLAD.H
H:\OPENGL\CODE_REPOSITORY\OPENGL_REPOSITORY\PROJECTLIBRARIES\INCLUDE\KHR\KHRPLATFORM.H
H:\OPENGL\CODE_REPOSITORY\OPENGL_REPOSITORY\PROJECTLIBRARIES\INCLUDE\GLFW\GLFW3.H
C:\PROGRAM FILES (X86)\WINDOWS KITS\10\INCLUDE\10.0.10240.0\UCRT\STDDEF.H
C:\PROGRAM FILES (X86)\WINDOWS KITS\10\INCLUDE\10.0.10240.0\UCRT\CORECRT.H
C:\PROGRAM FILES (X86)\MICROSOFT VISUAL STUDIO 14.0\VC\INCLUDE\VCRUNTIME.H
C:\PROGRAM FILES (X86)\MICROSOFT VISUAL STUDIO 14.0\VC\INCLUDE\SAL.H
C:\PROGRAM FILES (X86)\MICROSOFT VISUAL STUDIO 14.0\VC\INCLUDE\CONCURRENCYSAL.H
C:\PROGRAM FILES (X86)\MICROSOFT VISUAL STUDIO 14.0\VC\INCLUDE\VADEFS.H
C:\PROGRAM FILES (X86)\MICROSOFT VISUAL STUDIO 14.0\VC\INCLUDE\STDINT.H
C:\PROGRAM FILES (X86)\WINDOWS KITS\8.1\INCLUDE\UM\GL\GL.H
C:\PROGRAM FILES (X86)\MICROSOFT VISUAL STUDIO 14.0\VC\INCLUDE\IOSTREAM
C:\PROGRAM FILES (X86)\MICROSOFT VISUAL STUDIO 14.0\VC\INCLUDE\ISTREAM
C:\PROGRAM FILES (X86)\MICROSOFT VISUAL STUDIO 14.0\VC\INCLUDE\OSTREAM
C:\PROGRAM FILES (X86)\MICROSOFT VISUAL STUDIO 14.0\VC\INCLUDE\IOS
C:\PROGRAM FILES (X86)\MICROSOFT VISUAL STUDIO 14.0\VC\INCLUDE\XLOCNUM
C:\PROGRAM FILES (X86)\MICROSOFT VISUAL STUDIO 14.0\VC\INCLUDE\CLIMITS
C:\PROGRAM FILES (X86)\MICROSOFT VISUAL STUDIO 14.0\VC\INCLUDE\YVALS.H
C:\PROGRAM FILES (X86)\MICROSOFT VISUAL STUDIO 14.0\VC\INCLUDE\XKEYCHECK.H
C:\PROGRAM FILES (X86)\MICROSOFT VISUAL STUDIO 14.0\VC\INCLUDE\CRTDEFS.H
C:\PROGRAM FILES (X86)\MICROSOFT VISUAL STUDIO 14.0\VC\INCLUDE\USE_ANSI.H
C:\PROGRAM FILES (X86)\MICROSOFT VISUAL STUDIO 14.0\VC\INCLUDE\LIMITS.H
C:\PROGRAM FILES (X86)\MICROSOFT VISUAL STUDIO 14.0\VC\INCLUDE\CMATH
C:\PROGRAM FILES (X86)\WINDOWS KITS\10\INCLUDE\10.0.10240.0\UCRT\MATH.H
C:\PROGRAM FILES (X86)\MICROSOFT VISUAL STUDIO 14.0\VC\INCLUDE\XTGMATH.H
C:\PROGRAM FILES (X86)\MICROSOFT VISUAL STUDIO 14.0\VC\INCLUDE\XTR1COMMON
C:\PROGRAM FILES (X86)\MICROSOFT VISUAL STUDIO 14.0\VC\INCLUDE\CSTDLIB
C:\PROGRAM FILES (X86)\WINDOWS KITS\10\INCLUDE\10.0.10240.0\UCRT\STDLIB.H
C:\PROGRAM FILES (X86)\WINDOWS KITS\10\INCLUDE\10.0.10240.0\UCRT\CORECRT_MALLOC.H
C:\PROGRAM FILES (X86)\WINDOWS KITS\10\INCLUDE\10.0.10240.0\UCRT\CORECRT_SEARCH.H
C:\PROGRAM FILES (X86)\WINDOWS KITS\10\INCLUDE\10.0.10240.0\UCRT\CORECRT_WSTDLIB.H
C:\PROGRAM FILES (X86)\MICROSOFT VISUAL STUDIO 14.0\VC\INCLUDE\CSTDIO
C:\PROGRAM FILES (X86)\WINDOWS KITS\10\INCLUDE\10.0.10240.0\UCRT\STDIO.H
C:\PROGRAM FILES (X86)\WINDOWS KITS\10\INCLUDE\10.0.10240.0\UCRT\CORECRT_WSTDIO.H
C:\PROGRAM FILES (X86)\WINDOWS KITS\10\INCLUDE\10.0.10240.0\UCRT\CORECRT_STDIO_CONFIG.H
C:\PROGRAM FILES (X86)\MICROSOFT VISUAL STUDIO 14.0\VC\INCLUDE\STREAMBUF
C:\PROGRAM FILES (X86)\MICROSOFT VISUAL STUDIO 14.0\VC\INCLUDE\XIOSBASE
C:\PROGRAM FILES (X86)\MICROSOFT VISUAL STUDIO 14.0\VC\INCLUDE\XLOCALE
C:\PROGRAM FILES (X86)\MICROSOFT VISUAL STUDIO 14.0\VC\INCLUDE\CSTRING
C:\PROGRAM FILES (X86)\WINDOWS KITS\10\INCLUDE\10.0.10240.0\UCRT\STRING.H
C:\PROGRAM FILES (X86)\WINDOWS KITS\10\INCLUDE\10.0.10240.0\UCRT\CORECRT_MEMORY.H
C:\PROGRAM FILES (X86)\WINDOWS KITS\10\INCLUDE\10.0.10240.0\UCRT\CORECRT_MEMCPY_S.H
C:\PROGRAM FILES (X86)\WINDOWS KITS\10\INCLUDE\10.0.10240.0\UCRT\ERRNO.H
C:\PROGRAM FILES (X86)\MICROSOFT VISUAL STUDIO 14.0\VC\INCLUDE\VCRUNTIME_STRING.H
C:\PROGRAM FILES (X86)\WINDOWS KITS\10\INCLUDE\10.0.10240.0\UCRT\CORECRT_WSTRING.H
C:\PROGRAM FILES (X86)\MICROSOFT VISUAL STUDIO 14.0\VC\INCLUDE\STDEXCEPT
C:\PROGRAM FILES (X86)\MICROSOFT VISUAL STUDIO 14.0\VC\INCLUDE\EXCEPTION
C:\PROGRAM FILES (X86)\MICROSOFT VISUAL STUDIO 14.0\VC\INCLUDE\TYPE_TRAITS
C:\PROGRAM FILES (X86)\MICROSOFT VISUAL STUDIO 14.0\VC\INCLUDE\XSTDDEF
C:\PROGRAM FILES (X86)\MICROSOFT VISUAL STUDIO 14.0\VC\INCLUDE\CSTDDEF
C:\PROGRAM FILES (X86)\MICROSOFT VISUAL STUDIO 14.0\VC\INCLUDE\INITIALIZER_LIST
C:\PROGRAM FILES (X86)\WINDOWS KITS\10\INCLUDE\10.0.10240.0\UCRT\MALLOC.H
C:\PROGRAM FILES (X86)\MICROSOFT VISUAL STUDIO 14.0\VC\INCLUDE\VCRUNTIME_EXCEPTION.H
C:\PROGRAM FILES (X86)\MICROSOFT VISUAL STUDIO 14.0\VC\INCLUDE\EH.H
C:\PROGRAM FILES (X86)\WINDOWS KITS\10\INCLUDE\10.0.10240.0\UCRT\CORECRT_TERMINATE.H
C:\PROGRAM FILES (X86)\MICROSOFT VISUAL STUDIO 14.0\VC\INCLUDE\XSTRING
C:\PROGRAM FILES (X86)\MICROSOFT VISUAL STUDIO 14.0\VC\INCLUDE\XMEMORY0
C:\PROGRAM FILES (X86)\MICROSOFT VISUAL STUDIO 14.0\VC\INCLUDE\CSTDINT
C:\PROGRAM FILES (X86)\MICROSOFT VISUAL STUDIO 14.0\VC\INCLUDE\LIMITS
C:\PROGRAM FILES (X86)\MICROSOFT VISUAL STUDIO 14.0\VC\INCLUDE\YMATH.H
C:\PROGRAM FILES (X86)\MICROSOFT VISUAL STUDIO 14.0\VC\INCLUDE\CFLOAT
C:\PROGRAM FILES (X86)\WINDOWS KITS\10\INCLUDE\10.0.10240.0\UCRT\FLOAT.H
C:\PROGRAM FILES (X86)\MICROSOFT VISUAL STUDIO 14.0\VC\INCLUDE\CWCHAR
C:\PROGRAM FILES (X86)\WINDOWS KITS\10\INCLUDE\10.0.10240.0\UCRT\WCHAR.H
C:\PROGRAM FILES (X86)\WINDOWS KITS\10\INCLUDE\10.0.10240.0\UCRT\CORECRT_WCONIO.H
C:\PROGRAM FILES (X86)\WINDOWS KITS\10\INCLUDE\10.0.10240.0\UCRT\CORECRT_WCTYPE.H
C:\PROGRAM FILES (X86)\WINDOWS KITS\10\INCLUDE\10.0.10240.0\UCRT\CORECRT_WDIRECT.H
C:\PROGRAM FILES (X86)\WINDOWS KITS\10\INCLUDE\10.0.10240.0\UCRT\CORECRT_WIO.H
C:\PROGRAM FILES (X86)\WINDOWS KITS\10\INCLUDE\10.0.10240.0\UCRT\CORECRT_SHARE.H
C:\PROGRAM FILES (X86)\WINDOWS KITS\10\INCLUDE\10.0.10240.0\UCRT\CORECRT_WPROCESS.H
C:\PROGRAM FILES (X86)\WINDOWS KITS\10\INCLUDE\10.0.10240.0\UCRT\CORECRT_WTIME.H
C:\PROGRAM FILES (X86)\WINDOWS KITS\10\INCLUDE\10.0.10240.0\UCRT\SYS\STAT.H
C:\PROGRAM FILES (X86)\WINDOWS KITS\10\INCLUDE\10.0.10240.0\UCRT\SYS\TYPES.H
C:\PROGRAM FILES (X86)\MICROSOFT VISUAL STUDIO 14.0\VC\INCLUDE\NEW
C:\PROGRAM FILES (X86)\MICROSOFT VISUAL STUDIO 14.0\VC\INCLUDE\VCRUNTIME_NEW.H
C:\PROGRAM FILES (X86)\MICROSOFT VISUAL STUDIO 14.0\VC\INCLUDE\XUTILITY
C:\PROGRAM FILES (X86)\MICROSOFT VISUAL STUDIO 14.0\VC\INCLUDE\UTILITY
C:\PROGRAM FILES (X86)\MICROSOFT VISUAL STUDIO 14.0\VC\INCLUDE\IOSFWD
C:\PROGRAM FILES (X86)\WINDOWS KITS\10\INCLUDE\10.0.10240.0\UCRT\CRTDBG.H
C:\PROGRAM FILES (X86)\MICROSOFT VISUAL STUDIO 14.0\VC\INCLUDE\VCRUNTIME_NEW_DEBUG.H
C:\PROGRAM FILES (X86)\MICROSOFT VISUAL STUDIO 14.0\VC\INCLUDE\XATOMIC0.H
C:\PROGRAM FILES (X86)\MICROSOFT VISUAL STUDIO 14.0\VC\INCLUDE\INTRIN.H
C:\PROGRAM FILES (X86)\MICROSOFT VISUAL STUDIO 14.0\VC\INCLUDE\SETJMP.H
C:\PROGRAM FILES (X86)\MICROSOFT VISUAL STUDIO 14.0\VC\INCLUDE\IMMINTRIN.H
C:\PROGRAM FILES (X86)\MICROSOFT VISUAL STUDIO 14.0\VC\INCLUDE\WMMINTRIN.H
C:\PROGRAM FILES (X86)\MICROSOFT VISUAL STUDIO 14.0\VC\INCLUDE\NMMINTRIN.H
C:\PROGRAM FILES (X86)\MICROSOFT VISUAL STUDIO 14.0\VC\INCLUDE\SMMINTRIN.H
C:\PROGRAM FILES (X86)\MICROSOFT VISUAL STUDIO 14.0\VC\INCLUDE\TMMINTRIN.H
C:\PROGRAM FILES (X86)\MICROSOFT VISUAL STUDIO 14.0\VC\INCLUDE\PMMINTRIN.H
C:\PROGRAM FILES (X86)\MICROSOFT VISUAL STUDIO 14.0\VC\INCLUDE\EMMINTRIN.H
C:\PROGRAM FILES (X86)\MICROSOFT VISUAL STUDIO 14.0\VC\INCLUDE\XMMINTRIN.H
C:\PROGRAM FILES (X86)\MICROSOFT VISUAL STUDIO 14.0\VC\INCLUDE\MMINTRIN.H
C:\PROGRAM FILES (X86)\MICROSOFT VISUAL STUDIO 14.0\VC\INCLUDE\AMMINTRIN.H
C:\PROGRAM FILES (X86)\MICROSOFT VISUAL STUDIO 14.0\VC\INCLUDE\MM3DNOW.H
C:\PROGRAM FILES (X86)\MICROSOFT VISUAL STUDIO 14.0\VC\INCLUDE\TYPEINFO
C:\PROGRAM FILES (X86)\MICROSOFT VISUAL STUDIO 14.0\VC\INCLUDE\VCRUNTIME_TYPEINFO.H
C:\PROGRAM FILES (X86)\MICROSOFT VISUAL STUDIO 14.0\VC\INCLUDE\XLOCINFO
C:\PROGRAM FILES (X86)\MICROSOFT VISUAL STUDIO 14.0\VC\INCLUDE\XLOCINFO.H
C:\PROGRAM FILES (X86)\WINDOWS KITS\10\INCLUDE\10.0.10240.0\UCRT\CTYPE.H
C:\PROGRAM FILES (X86)\WINDOWS KITS\10\INCLUDE\10.0.10240.0\UCRT\LOCALE.H
C:\PROGRAM FILES (X86)\MICROSOFT VISUAL STUDIO 14.0\VC\INCLUDE\XFACET
C:\PROGRAM FILES (X86)\MICROSOFT VISUAL STUDIO 14.0\VC\INCLUDE\SYSTEM_ERROR
C:\PROGRAM FILES (X86)\MICROSOFT VISUAL STUDIO 14.0\VC\INCLUDE\CERRNO
C:\PROGRAM FILES (X86)\WINDOWS KITS\10\INCLUDE\10.0.10240.0\UCRT\SHARE.H
C:\PROGRAM FILES (X86)\MICROSOFT VISUAL STUDIO 14.0\VC\INCLUDE\FSTREAM
C:\PROGRAM FILES (X86)\MICROSOFT VISUAL STUDIO 14.0\VC\INCLUDE\STRING
C:\PROGRAM FILES (X86)\MICROSOFT VISUAL STUDIO 14.0\VC\INCLUDE\SSTREAM
H:\OPENGL\CODE_REPOSITORY\OPENGL_REPOSITORY\PROJECTLIBRARIES\INCLUDE\GLM\GLM.HPP
H:\OPENGL\CODE_REPOSITORY\OPENGL_REPOSITORY\PROJECTLIBRARIES\INCLUDE\GLM\DETAIL\_FIXES.HPP
H:\OPENGL\CODE_REPOSITORY\OPENGL_REPOSITORY\PROJECTLIBRARIES\INCLUDE\GLM\DETAIL\SETUP.HPP
C:\PROGRAM FILES (X86)\MICROSOFT VISUAL STUDIO 14.0\VC\INCLUDE\CASSERT
C:\PROGRAM FILES (X86)\WINDOWS KITS\10\INCLUDE\10.0.10240.0\UCRT\ASSERT.H
H:\OPENGL\CODE_REPOSITORY\OPENGL_REPOSITORY\PROJECTLIBRARIES\INCLUDE\GLM\SIMD\PLATFORM.H
H:\OPENGL\CODE_REPOSITORY\OPENGL_REPOSITORY\PROJECTLIBRARIES\INCLUDE\GLM\FWD.HPP
H:\OPENGL\CODE_REPOSITORY\OPENGL_REPOSITORY\PROJECTLIBRARIES\INCLUDE\GLM\DETAIL\QUALIFIER.HPP
H:\OPENGL\CODE_REPOSITORY\OPENGL_REPOSITORY\PROJECTLIBRARIES\INCLUDE\GLM\VEC2.HPP
H:\OPENGL\CODE_REPOSITORY\OPENGL_REPOSITORY\PROJECTLIBRARIES\INCLUDE\GLM\EXT\VECTOR_BOOL2.HPP
H:\OPENGL\CODE_REPOSITORY\OPENGL_REPOSITORY\PROJECTLIBRARIES\INCLUDE\GLM\DETAIL\TYPE_VEC2.HPP
H:\OPENGL\CODE_REPOSITORY\OPENGL_REPOSITORY\PROJECTLIBRARIES\INCLUDE\GLM\DETAIL\TYPE_VEC2.INL
H:\OPENGL\CODE_REPOSITORY\OPENGL_REPOSITORY\PROJECTLIBRARIES\INCLUDE\GLM\DETAIL\COMPUTE_VECTOR_RELATIONAL.HPP
H:\OPENGL\CODE_REPOSITORY\OPENGL_REPOSITORY\PROJECTLIBRARIES\INCLUDE\GLM\EXT\VECTOR_BOOL2_PRECISION.HPP
H:\OPENGL\CODE_REPOSITORY\OPENGL_REPOSITORY\PROJECTLIBRARIES\INCLUDE\GLM\EXT\VECTOR_FLOAT2.HPP
H:\OPENGL\CODE_REPOSITORY\OPENGL_REPOSITORY\PROJECTLIBRARIES\INCLUDE\GLM\EXT\VECTOR_FLOAT2_PRECISION.HPP
H:\OPENGL\CODE_REPOSITORY\OPENGL_REPOSITORY\PROJECTLIBRARIES\INCLUDE\GLM\EXT\VECTOR_DOUBLE2.HPP
H:\OPENGL\CODE_REPOSITORY\OPENGL_REPOSITORY\PROJECTLIBRARIES\INCLUDE\GLM\EXT\VECTOR_DOUBLE2_PRECISION.HPP
H:\OPENGL\CODE_REPOSITORY\OPENGL_REPOSITORY\PROJECTLIBRARIES\INCLUDE\GLM\EXT\VECTOR_INT2.HPP
H:\OPENGL\CODE_REPOSITORY\OPENGL_REPOSITORY\PROJECTLIBRARIES\INCLUDE\GLM\EXT\VECTOR_INT2_PRECISION.HPP
H:\OPENGL\CODE_REPOSITORY\OPENGL_REPOSITORY\PROJECTLIBRARIES\INCLUDE\GLM\EXT\VECTOR_UINT2.HPP
H:\OPENGL\CODE_REPOSITORY\OPENGL_REPOSITORY\PROJECTLIBRARIES\INCLUDE\GLM\EXT\VECTOR_UINT2_PRECISION.HPP
H:\OPENGL\CODE_REPOSITORY\OPENGL_REPOSITORY\PROJECTLIBRARIES\INCLUDE\GLM\VEC3.HPP
H:\OPENGL\CODE_REPOSITORY\OPENGL_REPOSITORY\PROJECTLIBRARIES\INCLUDE\GLM\EXT\VECTOR_BOOL3.HPP
H:\OPENGL\CODE_REPOSITORY\OPENGL_REPOSITORY\PROJECTLIBRARIES\INCLUDE\GLM\DETAIL\TYPE_VEC3.HPP
H:\OPENGL\CODE_REPOSITORY\OPENGL_REPOSITORY\PROJECTLIBRARIES\INCLUDE\GLM\DETAIL\TYPE_VEC3.INL
H:\OPENGL\CODE_REPOSITORY\OPENGL_REPOSITORY\PROJECTLIBRARIES\INCLUDE\GLM\EXT\VECTOR_BOOL3_PRECISION.HPP
H:\OPENGL\CODE_REPOSITORY\OPENGL_REPOSITORY\PROJECTLIBRARIES\INCLUDE\GLM\EXT\VECTOR_FLOAT3.HPP
H:\OPENGL\CODE_REPOSITORY\OPENGL_REPOSITORY\PROJECTLIBRARIES\INCLUDE\GLM\EXT\VECTOR_FLOAT3_PRECISION.HPP
H:\OPENGL\CODE_REPOSITORY\OPENGL_REPOSITORY\PROJECTLIBRARIES\INCLUDE\GLM\EXT\VECTOR_DOUBLE3.HPP
H:\OPENGL\CODE_REPOSITORY\OPENGL_REPOSITORY\PROJECTLIBRARIES\INCLUDE\GLM\EXT\VECTOR_DOUBLE3_PRECISION.HPP
H:\OPENGL\CODE_REPOSITORY\OPENGL_REPOSITORY\PROJECTLIBRARIES\INCLUDE\GLM\EXT\VECTOR_INT3.HPP
H:\OPENGL\CODE_REPOSITORY\OPENGL_REPOSITORY\PROJECTLIBRARIES\INCLUDE\GLM\EXT\VECTOR_INT3_PRECISION.HPP
H:\OPENGL\CODE_REPOSITORY\OPENGL_REPOSITORY\PROJECTLIBRARIES\INCLUDE\GLM\EXT\VECTOR_UINT3.HPP
H:\OPENGL\CODE_REPOSITORY\OPENGL_REPOSITORY\PROJECTLIBRARIES\INCLUDE\GLM\EXT\VECTOR_UINT3_PRECISION.HPP
H:\OPENGL\CODE_REPOSITORY\OPENGL_REPOSITORY\PROJECTLIBRARIES\INCLUDE\GLM\VEC4.HPP
H:\OPENGL\CODE_REPOSITORY\OPENGL_REPOSITORY\PROJECTLIBRARIES\INCLUDE\GLM\EXT\VECTOR_BOOL4.HPP
H:\OPENGL\CODE_REPOSITORY\OPENGL_REPOSITORY\PROJECTLIBRARIES\INCLUDE\GLM\DETAIL\TYPE_VEC4.HPP
H:\OPENGL\CODE_REPOSITORY\OPENGL_REPOSITORY\PROJECTLIBRARIES\INCLUDE\GLM\DETAIL\TYPE_VEC4.INL
H:\OPENGL\CODE_REPOSITORY\OPENGL_REPOSITORY\PROJECTLIBRARIES\INCLUDE\GLM\EXT\VECTOR_BOOL4_PRECISION.HPP
H:\OPENGL\CODE_REPOSITORY\OPENGL_REPOSITORY\PROJECTLIBRARIES\INCLUDE\GLM\EXT\VECTOR_FLOAT4.HPP
H:\OPENGL\CODE_REPOSITORY\OPENGL_REPOSITORY\PROJECTLIBRARIES\INCLUDE\GLM\EXT\VECTOR_FLOAT4_PRECISION.HPP
H:\OPENGL\CODE_REPOSITORY\OPENGL_REPOSITORY\PROJECTLIBRARIES\INCLUDE\GLM\EXT\VECTOR_DOUBLE4.HPP
H:\OPENGL\CODE_REPOSITORY\OPENGL_REPOSITORY\PROJECTLIBRARIES\INCLUDE\GLM\EXT\VECTOR_DOUBLE4_PRECISION.HPP
H:\OPENGL\CODE_REPOSITORY\OPENGL_REPOSITORY\PROJECTLIBRARIES\INCLUDE\GLM\EXT\VECTOR_INT4.HPP
H:\OPENGL\CODE_REPOSITORY\OPENGL_REPOSITORY\PROJECTLIBRARIES\INCLUDE\GLM\EXT\VECTOR_INT4_PRECISION.HPP
H:\OPENGL\CODE_REPOSITORY\OPENGL_REPOSITORY\PROJECTLIBRARIES\INCLUDE\GLM\EXT\VECTOR_UINT4.HPP
H:\OPENGL\CODE_REPOSITORY\OPENGL_REPOSITORY\PROJECTLIBRARIES\INCLUDE\GLM\EXT\VECTOR_UINT4_PRECISION.HPP
H:\OPENGL\CODE_REPOSITORY\OPENGL_REPOSITORY\PROJECTLIBRARIES\INCLUDE\GLM\MAT2X2.HPP
H:\OPENGL\CODE_REPOSITORY\OPENGL_REPOSITORY\PROJECTLIBRARIES\INCLUDE\GLM\EXT\MATRIX_DOUBLE2X2.HPP
H:\OPENGL\CODE_REPOSITORY\OPENGL_REPOSITORY\PROJECTLIBRARIES\INCLUDE\GLM\DETAIL\TYPE_MAT2X2.HPP
H:\OPENGL\CODE_REPOSITORY\OPENGL_REPOSITORY\PROJECTLIBRARIES\INCLUDE\GLM\DETAIL\TYPE_MAT2X2.INL
H:\OPENGL\CODE_REPOSITORY\OPENGL_REPOSITORY\PROJECTLIBRARIES\INCLUDE\GLM\MATRIX.HPP
H:\OPENGL\CODE_REPOSITORY\OPENGL_REPOSITORY\PROJECTLIBRARIES\INCLUDE\GLM\MAT2X3.HPP
H:\OPENGL\CODE_REPOSITORY\OPENGL_REPOSITORY\PROJECTLIBRARIES\INCLUDE\GLM\EXT\MATRIX_DOUBLE2X3.HPP
H:\OPENGL\CODE_REPOSITORY\OPENGL_REPOSITORY\PROJECTLIBRARIES\INCLUDE\GLM\DETAIL\TYPE_MAT2X3.HPP
H:\OPENGL\CODE_REPOSITORY\OPENGL_REPOSITORY\PROJECTLIBRARIES\INCLUDE\GLM\DETAIL\TYPE_MAT2X3.INL
H:\OPENGL\CODE_REPOSITORY\OPENGL_REPOSITORY\PROJECTLIBRARIES\INCLUDE\GLM\EXT\MATRIX_DOUBLE2X3_PRECISION.HPP
H:\OPENGL\CODE_REPOSITORY\OPENGL_REPOSITORY\PROJECTLIBRARIES\INCLUDE\GLM\EXT\MATRIX_FLOAT2X3.HPP
H:\OPENGL\CODE_REPOSITORY\OPENGL_REPOSITORY\PROJECTLIBRARIES\INCLUDE\GLM\EXT\MATRIX_FLOAT2X3_PRECISION.HPP
H:\OPENGL\CODE_REPOSITORY\OPENGL_REPOSITORY\PROJECTLIBRARIES\INCLUDE\GLM\MAT2X4.HPP
H:\OPENGL\CODE_REPOSITORY\OPENGL_REPOSITORY\PROJECTLIBRARIES\INCLUDE\GLM\EXT\MATRIX_DOUBLE2X4.HPP
H:\OPENGL\CODE_REPOSITORY\OPENGL_REPOSITORY\PROJECTLIBRARIES\INCLUDE\GLM\DETAIL\TYPE_MAT2X4.HPP
H:\OPENGL\CODE_REPOSITORY\OPENGL_REPOSITORY\PROJECTLIBRARIES\INCLUDE\GLM\DETAIL\TYPE_MAT2X4.INL
H:\OPENGL\CODE_REPOSITORY\OPENGL_REPOSITORY\PROJECTLIBRARIES\INCLUDE\GLM\EXT\MATRIX_DOUBLE2X4_PRECISION.HPP
H:\OPENGL\CODE_REPOSITORY\OPENGL_REPOSITORY\PROJECTLIBRARIES\INCLUDE\GLM\EXT\MATRIX_FLOAT2X4.HPP
H:\OPENGL\CODE_REPOSITORY\OPENGL_REPOSITORY\PROJECTLIBRARIES\INCLUDE\GLM\EXT\MATRIX_FLOAT2X4_PRECISION.HPP
H:\OPENGL\CODE_REPOSITORY\OPENGL_REPOSITORY\PROJECTLIBRARIES\INCLUDE\GLM\MAT3X2.HPP
H:\OPENGL\CODE_REPOSITORY\OPENGL_REPOSITORY\PROJECTLIBRARIES\INCLUDE\GLM\EXT\MATRIX_DOUBLE3X2.HPP
H:\OPENGL\CODE_REPOSITORY\OPENGL_REPOSITORY\PROJECTLIBRARIES\INCLUDE\GLM\DETAIL\TYPE_MAT3X2.HPP
H:\OPENGL\CODE_REPOSITORY\OPENGL_REPOSITORY\PROJECTLIBRARIES\INCLUDE\GLM\DETAIL\TYPE_MAT3X2.INL
H:\OPENGL\CODE_REPOSITORY\OPENGL_REPOSITORY\PROJECTLIBRARIES\INCLUDE\GLM\EXT\MATRIX_DOUBLE3X2_PRECISION.HPP
H:\OPENGL\CODE_REPOSITORY\OPENGL_REPOSITORY\PROJECTLIBRARIES\INCLUDE\GLM\EXT\MATRIX_FLOAT3X2.HPP
H:\OPENGL\CODE_REPOSITORY\OPENGL_REPOSITORY\PROJECTLIBRARIES\INCLUDE\GLM\EXT\MATRIX_FLOAT3X2_PRECISION.HPP
H:\OPENGL\CODE_REPOSITORY\OPENGL_REPOSITORY\PROJECTLIBRARIES\INCLUDE\GLM\MAT3X3.HPP
H:\OPENGL\CODE_REPOSITORY\OPENGL_REPOSITORY\PROJECTLIBRARIES\INCLUDE\GLM\EXT\MATRIX_DOUBLE3X3.HPP
H:\OPENGL\CODE_REPOSITORY\OPENGL_REPOSITORY\PROJECTLIBRARIES\INCLUDE\GLM\DETAIL\TYPE_MAT3X3.HPP
H:\OPENGL\CODE_REPOSITORY\OPENGL_REPOSITORY\PROJECTLIBRARIES\INCLUDE\GLM\DETAIL\TYPE_MAT3X3.INL
H:\OPENGL\CODE_REPOSITORY\OPENGL_REPOSITORY\PROJECTLIBRARIES\INCLUDE\GLM\EXT\MATRIX_DOUBLE3X3_PRECISION.HPP
H:\OPENGL\CODE_REPOSITORY\OPENGL_REPOSITORY\PROJECTLIBRARIES\INCLUDE\GLM\EXT\MATRIX_FLOAT3X3.HPP
H:\OPENGL\CODE_REPOSITORY\OPENGL_REPOSITORY\PROJECTLIBRARIES\INCLUDE\GLM\EXT\MATRIX_FLOAT3X3_PRECISION.HPP
H:\OPENGL\CODE_REPOSITORY\OPENGL_REPOSITORY\PROJECTLIBRARIES\INCLUDE\GLM\MAT3X4.HPP
H:\OPENGL\CODE_REPOSITORY\OPENGL_REPOSITORY\PROJECTLIBRARIES\INCLUDE\GLM\EXT\MATRIX_DOUBLE3X4.HPP
H:\OPENGL\CODE_REPOSITORY\OPENGL_REPOSITORY\PROJECTLIBRARIES\INCLUDE\GLM\DETAIL\TYPE_MAT3X4.HPP
H:\OPENGL\CODE_REPOSITORY\OPENGL_REPOSITORY\PROJECTLIBRARIES\INCLUDE\GLM\DETAIL\TYPE_MAT3X4.INL
H:\OPENGL\CODE_REPOSITORY\OPENGL_REPOSITORY\PROJECTLIBRARIES\INCLUDE\GLM\EXT\MATRIX_DOUBLE3X4_PRECISION.HPP
H:\OPENGL\CODE_REPOSITORY\OPENGL_REPOSITORY\PROJECTLIBRARIES\INCLUDE\GLM\EXT\MATRIX_FLOAT3X4.HPP
H:\OPENGL\CODE_REPOSITORY\OPENGL_REPOSITORY\PROJECTLIBRARIES\INCLUDE\GLM\EXT\MATRIX_FLOAT3X4_PRECISION.HPP
H:\OPENGL\CODE_REPOSITORY\OPENGL_REPOSITORY\PROJECTLIBRARIES\INCLUDE\GLM\MAT4X2.HPP
H:\OPENGL\CODE_REPOSITORY\OPENGL_REPOSITORY\PROJECTLIBRARIES\INCLUDE\GLM\EXT\MATRIX_DOUBLE4X2.HPP
H:\OPENGL\CODE_REPOSITORY\OPENGL_REPOSITORY\PROJECTLIBRARIES\INCLUDE\GLM\DETAIL\TYPE_MAT4X2.HPP
H:\OPENGL\CODE_REPOSITORY\OPENGL_REPOSITORY\PROJECTLIBRARIES\INCLUDE\GLM\DETAIL\TYPE_MAT4X2.INL
H:\OPENGL\CODE_REPOSITORY\OPENGL_REPOSITORY\PROJECTLIBRARIES\INCLUDE\GLM\EXT\MATRIX_DOUBLE4X2_PRECISION.HPP
H:\OPENGL\CODE_REPOSITORY\OPENGL_REPOSITORY\PROJECTLIBRARIES\INCLUDE\GLM\EXT\MATRIX_FLOAT4X2.HPP
H:\OPENGL\CODE_REPOSITORY\OPENGL_REPOSITORY\PROJECTLIBRARIES\INCLUDE\GLM\EXT\MATRIX_FLOAT4X2_PRECISION.HPP
H:\OPENGL\CODE_REPOSITORY\OPENGL_REPOSITORY\PROJECTLIBRARIES\INCLUDE\GLM\MAT4X3.HPP
H:\OPENGL\CODE_REPOSITORY\OPENGL_REPOSITORY\PROJECTLIBRARIES\INCLUDE\GLM\EXT\MATRIX_DOUBLE4X3.HPP
H:\OPENGL\CODE_REPOSITORY\OPENGL_REPOSITORY\PROJECTLIBRARIES\INCLUDE\GLM\DETAIL\TYPE_MAT4X3.HPP
H:\OPENGL\CODE_REPOSITORY\OPENGL_REPOSITORY\PROJECTLIBRARIES\INCLUDE\GLM\DETAIL\TYPE_MAT4X3.INL
H:\OPENGL\CODE_REPOSITORY\OPENGL_REPOSITORY\PROJECTLIBRARIES\INCLUDE\GLM\EXT\MATRIX_DOUBLE4X3_PRECISION.HPP
H:\OPENGL\CODE_REPOSITORY\OPENGL_REPOSITORY\PROJECTLIBRARIES\INCLUDE\GLM\EXT\MATRIX_FLOAT4X3.HPP
H:\OPENGL\CODE_REPOSITORY\OPENGL_REPOSITORY\PROJECTLIBRARIES\INCLUDE\GLM\EXT\MATRIX_FLOAT4X3_PRECISION.HPP
H:\OPENGL\CODE_REPOSITORY\OPENGL_REPOSITORY\PROJECTLIBRARIES\INCLUDE\GLM\MAT4X4.HPP
H:\OPENGL\CODE_REPOSITORY\OPENGL_REPOSITORY\PROJECTLIBRARIES\INCLUDE\GLM\EXT\MATRIX_DOUBLE4X4.HPP
H:\OPENGL\CODE_REPOSITORY\OPENGL_REPOSITORY\PROJECTLIBRARIES\INCLUDE\GLM\DETAIL\TYPE_MAT4X4.HPP
H:\OPENGL\CODE_REPOSITORY\OPENGL_REPOSITORY\PROJECTLIBRARIES\INCLUDE\GLM\DETAIL\TYPE_MAT4X4.INL
H:\OPENGL\CODE_REPOSITORY\OPENGL_REPOSITORY\PROJECTLIBRARIES\INCLUDE\GLM\EXT\MATRIX_DOUBLE4X4_PRECISION.HPP
H:\OPENGL\CODE_REPOSITORY\OPENGL_REPOSITORY\PROJECTLIBRARIES\INCLUDE\GLM\EXT\MATRIX_FLOAT4X4.HPP
H:\OPENGL\CODE_REPOSITORY\OPENGL_REPOSITORY\PROJECTLIBRARIES\INCLUDE\GLM\EXT\MATRIX_FLOAT4X4_PRECISION.HPP
H:\OPENGL\CODE_REPOSITORY\OPENGL_REPOSITORY\PROJECTLIBRARIES\INCLUDE\GLM\DETAIL\FUNC_MATRIX.INL
H:\OPENGL\CODE_REPOSITORY\OPENGL_REPOSITORY\PROJECTLIBRARIES\INCLUDE\GLM\GEOMETRIC.HPP
H:\OPENGL\CODE_REPOSITORY\OPENGL_REPOSITORY\PROJECTLIBRARIES\INCLUDE\GLM\DETAIL\FUNC_GEOMETRIC.INL
H:\OPENGL\CODE_REPOSITORY\OPENGL_REPOSITORY\PROJECTLIBRARIES\INCLUDE\GLM\EXPONENTIAL.HPP
H:\OPENGL\CODE_REPOSITORY\OPENGL_REPOSITORY\PROJECTLIBRARIES\INCLUDE\GLM\DETAIL\TYPE_VEC1.HPP
H:\OPENGL\CODE_REPOSITORY\OPENGL_REPOSITORY\PROJECTLIBRARIES\INCLUDE\GLM\DETAIL\TYPE_VEC1.INL
H:\OPENGL\CODE_REPOSITORY\OPENGL_REPOSITORY\PROJECTLIBRARIES\INCLUDE\GLM\DETAIL\FUNC_EXPONENTIAL.INL
H:\OPENGL\CODE_REPOSITORY\OPENGL_REPOSITORY\PROJECTLIBRARIES\INCLUDE\GLM\VECTOR_RELATIONAL.HPP
H:\OPENGL\CODE_REPOSITORY\OPENGL_REPOSITORY\PROJECTLIBRARIES\INCLUDE\GLM\DETAIL\FUNC_VECTOR_RELATIONAL.INL
H:\OPENGL\CODE_REPOSITORY\OPENGL_REPOSITORY\PROJECTLIBRARIES\INCLUDE\GLM\DETAIL\_VECTORIZE.HPP
H:\OPENGL\CODE_REPOSITORY\OPENGL_REPOSITORY\PROJECTLIBRARIES\INCLUDE\GLM\COMMON.HPP
H:\OPENGL\CODE_REPOSITORY\OPENGL_REPOSITORY\PROJECTLIBRARIES\INCLUDE\GLM\DETAIL\FUNC_COMMON.INL
H:\OPENGL\CODE_REPOSITORY\OPENGL_REPOSITORY\PROJECTLIBRARIES\INCLUDE\GLM\DETAIL\COMPUTE_COMMON.HPP
H:\OPENGL\CODE_REPOSITORY\OPENGL_REPOSITORY\PROJECTLIBRARIES\INCLUDE\GLM\EXT\MATRIX_DOUBLE2X2_PRECISION.HPP
H:\OPENGL\CODE_REPOSITORY\OPENGL_REPOSITORY\PROJECTLIBRARIES\INCLUDE\GLM\EXT\MATRIX_FLOAT2X2.HPP
H:\OPENGL\CODE_REPOSITORY\OPENGL_REPOSITORY\PROJECTLIBRARIES\INCLUDE\GLM\EXT\MATRIX_FLOAT2X2_PRECISION.HPP
H:\OPENGL\CODE_REPOSITORY\OPENGL_REPOSITORY\PROJECTLIBRARIES\INCLUDE\GLM\TRIGONOMETRIC.HPP
H:\OPENGL\CODE_REPOSITORY\OPENGL_REPOSITORY\PROJECTLIBRARIES\INCLUDE\GLM\DETAIL\FUNC_TRIGONOMETRIC.INL
H:\OPENGL\CODE_REPOSITORY\OPENGL_REPOSITORY\PROJECTLIBRARIES\INCLUDE\GLM\PACKING.HPP
H:\OPENGL\CODE_REPOSITORY\OPENGL_REPOSITORY\PROJECTLIBRARIES\INCLUDE\GLM\DETAIL\FUNC_PACKING.INL
H:\OPENGL\CODE_REPOSITORY\OPENGL_REPOSITORY\PROJECTLIBRARIES\INCLUDE\GLM\DETAIL\TYPE_HALF.HPP
H:\OPENGL\CODE_REPOSITORY\OPENGL_REPOSITORY\PROJECTLIBRARIES\INCLUDE\GLM\DETAIL\TYPE_HALF.INL
H:\OPENGL\CODE_REPOSITORY\OPENGL_REPOSITORY\PROJECTLIBRARIES\INCLUDE\GLM\INTEGER.HPP
H:\OPENGL\CODE_REPOSITORY\OPENGL_REPOSITORY\PROJECTLIBRARIES\INCLUDE\GLM\DETAIL\FUNC_INTEGER.INL
H:\OPENGL\CODE_REPOSITORY\OPENGL_REPOSITORY\PROJECTLIBRARIES\INCLUDE\GLM\GTC\MATRIX_TRANSFORM.HPP
H:\OPENGL\CODE_REPOSITORY\OPENGL_REPOSITORY\PROJECTLIBRARIES\INCLUDE\GLM\EXT\MATRIX_PROJECTION.HPP
H:\OPENGL\CODE_REPOSITORY\OPENGL_REPOSITORY\PROJECTLIBRARIES\INCLUDE\GLM\GTC\CONSTANTS.HPP
H:\OPENGL\CODE_REPOSITORY\OPENGL_REPOSITORY\PROJECTLIBRARIES\INCLUDE\GLM\EXT\SCALAR_CONSTANTS.HPP
H:\OPENGL\CODE_REPOSITORY\OPENGL_REPOSITORY\PROJECTLIBRARIES\INCLUDE\GLM\EXT\SCALAR_CONSTANTS.INL
H:\OPENGL\CODE_REPOSITORY\OPENGL_REPOSITORY\PROJECTLIBRARIES\INCLUDE\GLM\GTC\CONSTANTS.INL
H:\OPENGL\CODE_REPOSITORY\OPENGL_REPOSITORY\PROJECTLIBRARIES\INCLUDE\GLM\EXT\MATRIX_PROJECTION.INL
H:\OPENGL\CODE_REPOSITORY\OPENGL_REPOSITORY\PROJECTLIBRARIES\INCLUDE\GLM\EXT\MATRIX_CLIP_SPACE.HPP
H:\OPENGL\CODE_REPOSITORY\OPENGL_REPOSITORY\PROJECTLIBRARIES\INCLUDE\GLM\EXT\MATRIX_CLIP_SPACE.INL
H:\OPENGL\CODE_REPOSITORY\OPENGL_REPOSITORY\PROJECTLIBRARIES\INCLUDE\GLM\EXT\MATRIX_TRANSFORM.HPP
H:\OPENGL\CODE_REPOSITORY\OPENGL_REPOSITORY\PROJECTLIBRARIES\INCLUDE\GLM\EXT\MATRIX_TRANSFORM.INL
H:\OPENGL\CODE_REPOSITORY\OPENGL_REPOSITORY\PROJECTLIBRARIES\INCLUDE\GLM\GTC\MATRIX_TRANSFORM.INL
H:\OPENGL\CODE_REPOSITORY\OPENGL_REPOSITORY\PROJECTLIBRARIES\INCLUDE\GLM\GTC\TYPE_PTR.HPP
H:\OPENGL\CODE_REPOSITORY\OPENGL_REPOSITORY\PROJECTLIBRARIES\INCLUDE\GLM\GTC\QUATERNION.HPP
H:\OPENGL\CODE_REPOSITORY\OPENGL_REPOSITORY\PROJECTLIBRARIES\INCLUDE\GLM\EXT\VECTOR_RELATIONAL.HPP
H:\OPENGL\CODE_REPOSITORY\OPENGL_REPOSITORY\PROJECTLIBRARIES\INCLUDE\GLM\EXT\VECTOR_RELATIONAL.INL
H:\OPENGL\CODE_REPOSITORY\OPENGL_REPOSITORY\PROJECTLIBRARIES\INCLUDE\GLM\DETAIL\TYPE_FLOAT.HPP
H:\OPENGL\CODE_REPOSITORY\OPENGL_REPOSITORY\PROJECTLIBRARIES\INCLUDE\GLM\EXT\QUATERNION_COMMON.HPP
H:\OPENGL\CODE_REPOSITORY\OPENGL_REPOSITORY\PROJECTLIBRARIES\INCLUDE\GLM\EXT\QUATERNION_GEOMETRIC.HPP
H:\OPENGL\CODE_REPOSITORY\OPENGL_REPOSITORY\PROJECTLIBRARIES\INCLUDE\GLM\EXT\QUATERNION_GEOMETRIC.INL
H:\OPENGL\CODE_REPOSITORY\OPENGL_REPOSITORY\PROJECTLIBRARIES\INCLUDE\GLM\EXT\QUATERNION_COMMON.INL
H:\OPENGL\CODE_REPOSITORY\OPENGL_REPOSITORY\PROJECTLIBRARIES\INCLUDE\GLM\EXT\QUATERNION_FLOAT.HPP
H:\OPENGL\CODE_REPOSITORY\OPENGL_REPOSITORY\PROJECTLIBRARIES\INCLUDE\GLM\DETAIL\TYPE_QUAT.HPP
H:\OPENGL\CODE_REPOSITORY\OPENGL_REPOSITORY\PROJECTLIBRARIES\INCLUDE\GLM\EXT\QUATERNION_RELATIONAL.HPP
H:\OPENGL\CODE_REPOSITORY\OPENGL_REPOSITORY\PROJECTLIBRARIES\INCLUDE\GLM\EXT\QUATERNION_RELATIONAL.INL
H:\OPENGL\CODE_REPOSITORY\OPENGL_REPOSITORY\PROJECTLIBRARIES\INCLUDE\GLM\DETAIL\TYPE_QUAT.INL
H:\OPENGL\CODE_REPOSITORY\OPENGL_REPOSITORY\PROJECTLIBRARIES\INCLUDE\GLM\EXT\QUATERNION_FLOAT_PRECISION.HPP
H:\OPENGL\CODE_REPOSITORY\OPENGL_REPOSITORY\PROJECTLIBRARIES\INCLUDE\GLM\EXT\QUATERNION_DOUBLE.HPP
H:\OPENGL\CODE_REPOSITORY\OPENGL_REPOSITORY\PROJECTLIBRARIES\INCLUDE\GLM\EXT\QUATERNION_DOUBLE_PRECISION.HPP
H:\OPENGL\CODE_REPOSITORY\OPENGL_REPOSITORY\PROJECTLIBRARIES\INCLUDE\GLM\EXT\QUATERNION_TRIGONOMETRIC.HPP
H:\OPENGL\CODE_REPOSITORY\OPENGL_REPOSITORY\PROJECTLIBRARIES\INCLUDE\GLM\EXT\QUATERNION_TRIGONOMETRIC.INL
H:\OPENGL\CODE_REPOSITORY\OPENGL_REPOSITORY\PROJECTLIBRARIES\INCLUDE\GLM\EXT\QUATERNION_TRANSFORM.HPP
H:\OPENGL\CODE_REPOSITORY\OPENGL_REPOSITORY\PROJECTLIBRARIES\INCLUDE\GLM\EXT\QUATERNION_TRANSFORM.INL
H:\OPENGL\CODE_REPOSITORY\OPENGL_REPOSITORY\PROJECTLIBRARIES\INCLUDE\GLM\GTC\QUATERNION.INL
H:\OPENGL\CODE_REPOSITORY\OPENGL_REPOSITORY\PROJECTLIBRARIES\INCLUDE\GLM\GTC\EPSILON.HPP
H:\OPENGL\CODE_REPOSITORY\OPENGL_REPOSITORY\PROJECTLIBRARIES\INCLUDE\GLM\GTC\EPSILON.INL
H:\OPENGL\CODE_REPOSITORY\OPENGL_REPOSITORY\PROJECTLIBRARIES\INCLUDE\GLM\GTC\VEC1.HPP
H:\OPENGL\CODE_REPOSITORY\OPENGL_REPOSITORY\PROJECTLIBRARIES\INCLUDE\GLM\EXT\VECTOR_BOOL1.HPP
H:\OPENGL\CODE_REPOSITORY\OPENGL_REPOSITORY\PROJECTLIBRARIES\INCLUDE\GLM\EXT\VECTOR_BOOL1_PRECISION.HPP
H:\OPENGL\CODE_REPOSITORY\OPENGL_REPOSITORY\PROJECTLIBRARIES\INCLUDE\GLM\EXT\VECTOR_FLOAT1.HPP
H:\OPENGL\CODE_REPOSITORY\OPENGL_REPOSITORY\PROJECTLIBRARIES\INCLUDE\GLM\EXT\VECTOR_FLOAT1_PRECISION.HPP
H:\OPENGL\CODE_REPOSITORY\OPENGL_REPOSITORY\PROJECTLIBRARIES\INCLUDE\GLM\EXT\VECTOR_DOUBLE1.HPP
H:\OPENGL\CODE_REPOSITORY\OPENGL_REPOSITORY\PROJECTLIBRARIES\INCLUDE\GLM\EXT\VECTOR_DOUBLE1_PRECISION.HPP
H:\OPENGL\CODE_REPOSITORY\OPENGL_REPOSITORY\PROJECTLIBRARIES\INCLUDE\GLM\EXT\VECTOR_INT1.HPP
H:\OPENGL\CODE_REPOSITORY\OPENGL_REPOSITORY\PROJECTLIBRARIES\INCLUDE\GLM\EXT\VECTOR_INT1_PRECISION.HPP
H:\OPENGL\CODE_REPOSITORY\OPENGL_REPOSITORY\PROJECTLIBRARIES\INCLUDE\GLM\EXT\VECTOR_UINT1.HPP
H:\OPENGL\CODE_REPOSITORY\OPENGL_REPOSITORY\PROJECTLIBRARIES\INCLUDE\GLM\EXT\VECTOR_UINT1_PRECISION.HPP
H:\OPENGL\CODE_REPOSITORY\OPENGL_REPOSITORY\PROJECTLIBRARIES\INCLUDE\GLM\GTC\TYPE_PTR.INL
^H:\OPENGL\CODE_REPOSITORY\OPENGL_REPOSITORY\PROJECTS\TRANSFORMATIONS\TRANSFORMATIONS\GLAD.C
C:\WINDOWS\GLOBALIZATION\SORTING\SORTDEFAULT.NLS
C:\PROGRAM FILES (X86)\MICROSOFT VISUAL STUDIO 14.0\VC\BIN\1033\CLUI.DLL
C:\WINDOWS\SYSTEM32\TZRES.DLL
C:\PROGRAM FILES (X86)\WINDOWS KITS\10\INCLUDE\10.0.10240.0\UCRT\STDIO.H
C:\PROGRAM FILES (X86)\WINDOWS KITS\10\INCLUDE\10.0.10240.0\UCRT\CORECRT.H
C:\PROGRAM FILES (X86)\MICROSOFT VISUAL STUDIO 14.0\VC\INCLUDE\VCRUNTIME.H
C:\PROGRAM FILES (X86)\MICROSOFT VISUAL STUDIO 14.0\VC\INCLUDE\SAL.H
C:\PROGRAM FILES (X86)\MICROSOFT VISUAL STUDIO 14.0\VC\INCLUDE\CONCURRENCYSAL.H
C:\PROGRAM FILES (X86)\MICROSOFT VISUAL STUDIO 14.0\VC\INCLUDE\VADEFS.H
C:\PROGRAM FILES (X86)\WINDOWS KITS\10\INCLUDE\10.0.10240.0\UCRT\CORECRT_WSTDIO.H
C:\PROGRAM FILES (X86)\WINDOWS KITS\10\INCLUDE\10.0.10240.0\UCRT\CORECRT_STDIO_CONFIG.H
C:\PROGRAM FILES (X86)\WINDOWS KITS\10\INCLUDE\10.0.10240.0\UCRT\STDLIB.H
C:\PROGRAM FILES (X86)\WINDOWS KITS\10\INCLUDE\10.0.10240.0\UCRT\CORECRT_MALLOC.H
C:\PROGRAM FILES (X86)\WINDOWS KITS\10\INCLUDE\10.0.10240.0\UCRT\CORECRT_SEARCH.H
C:\PROGRAM FILES (X86)\WINDOWS KITS\10\INCLUDE\10.0.10240.0\UCRT\STDDEF.H
C:\PROGRAM FILES (X86)\WINDOWS KITS\10\INCLUDE\10.0.10240.0\UCRT\CORECRT_WSTDLIB.H
C:\PROGRAM FILES (X86)\MICROSOFT VISUAL STUDIO 14.0\VC\INCLUDE\LIMITS.H
C:\PROGRAM FILES (X86)\WINDOWS KITS\10\INCLUDE\10.0.10240.0\UCRT\STRING.H
C:\PROGRAM FILES (X86)\WINDOWS KITS\10\INCLUDE\10.0.10240.0\UCRT\CORECRT_MEMORY.H
C:\PROGRAM FILES (X86)\WINDOWS KITS\10\INCLUDE\10.0.10240.0\UCRT\CORECRT_MEMCPY_S.H
C:\PROGRAM FILES (X86)\WINDOWS KITS\10\INCLUDE\10.0.10240.0\UCRT\ERRNO.H
C:\PROGRAM FILES (X86)\MICROSOFT VISUAL STUDIO 14.0\VC\INCLUDE\VCRUNTIME_STRING.H
C:\PROGRAM FILES (X86)\WINDOWS KITS\10\INCLUDE\10.0.10240.0\UCRT\CORECRT_WSTRING.H
H:\OPENGL\CODE_REPOSITORY\OPENGL_REPOSITORY\PROJECTLIBRARIES\INCLUDE\GLAD\GLAD.H
H:\OPENGL\CODE_REPOSITORY\OPENGL_REPOSITORY\PROJECTLIBRARIES\INCLUDE\KHR\KHRPLATFORM.H
C:\PROGRAM FILES (X86)\WINDOWS KITS\8.1\INCLUDE\UM\WINDOWS.H
C:\PROGRAM FILES (X86)\WINDOWS KITS\8.1\INCLUDE\SHARED\WINAPIFAMILY.H
C:\PROGRAM FILES (X86)\WINDOWS KITS\8.1\INCLUDE\SHARED\SDKDDKVER.H
C:\PROGRAM FILES (X86)\MICROSOFT VISUAL STUDIO 14.0\VC\INCLUDE\EXCPT.H
C:\PROGRAM FILES (X86)\MICROSOFT VISUAL STUDIO 14.0\VC\INCLUDE\STDARG.H
C:\PROGRAM FILES (X86)\WINDOWS KITS\8.1\INCLUDE\SHARED\WINDEF.H
C:\PROGRAM FILES (X86)\WINDOWS KITS\8.1\INCLUDE\SHARED\MINWINDEF.H
C:\PROGRAM FILES (X86)\WINDOWS KITS\8.1\INCLUDE\SHARED\SPECSTRINGS.H
C:\PROGRAM FILES (X86)\WINDOWS KITS\8.1\INCLUDE\SHARED\SPECSTRINGS_STRICT.H
C:\PROGRAM FILES (X86)\WINDOWS KITS\8.1\INCLUDE\SHARED\SPECSTRINGS_UNDEF.H
C:\PROGRAM FILES (X86)\WINDOWS KITS\8.1\INCLUDE\SHARED\DRIVERSPECS.H
C:\PROGRAM FILES (X86)\WINDOWS KITS\8.1\INCLUDE\SHARED\SDV_DRIVERSPECS.H
C:\PROGRAM FILES (X86)\WINDOWS KITS\8.1\INCLUDE\UM\WINNT.H
C:\PROGRAM FILES (X86)\WINDOWS KITS\10\INCLUDE\10.0.10240.0\UCRT\CTYPE.H
C:\PROGRAM FILES (X86)\WINDOWS KITS\10\INCLUDE\10.0.10240.0\UCRT\CORECRT_WCTYPE.H
C:\PROGRAM FILES (X86)\WINDOWS KITS\8.1\INCLUDE\SHARED\KERNELSPECS.H
C:\PROGRAM FILES (X86)\WINDOWS KITS\8.1\INCLUDE\SHARED\BASETSD.H
C:\PROGRAM FILES (X86)\WINDOWS KITS\8.1\INCLUDE\SHARED\GUIDDEF.H
C:\PROGRAM FILES (X86)\WINDOWS KITS\8.1\INCLUDE\SHARED\PSHPACK4.H
C:\PROGRAM FILES (X86)\WINDOWS KITS\8.1\INCLUDE\SHARED\POPPACK.H
C:\PROGRAM FILES (X86)\WINDOWS KITS\8.1\INCLUDE\SHARED\PSHPACK2.H
C:\PROGRAM FILES (X86)\WINDOWS KITS\8.1\INCLUDE\SHARED\PSHPACK8.H
C:\PROGRAM FILES (X86)\WINDOWS KITS\8.1\INCLUDE\SHARED\APISET.H
C:\PROGRAM FILES (X86)\WINDOWS KITS\8.1\INCLUDE\SHARED\KTMTYPES.H
C:\PROGRAM FILES (X86)\WINDOWS KITS\8.1\INCLUDE\UM\WINBASE.H
C:\PROGRAM FILES (X86)\WINDOWS KITS\8.1\INCLUDE\SHARED\APISETCCONV.H
C:\PROGRAM FILES (X86)\WINDOWS KITS\8.1\INCLUDE\UM\MINWINBASE.H
C:\PROGRAM FILES (X86)\WINDOWS KITS\8.1\INCLUDE\UM\PROCESSENV.H
C:\PROGRAM FILES (X86)\WINDOWS KITS\8.1\INCLUDE\UM\FILEAPI.H
C:\PROGRAM FILES (X86)\WINDOWS KITS\8.1\INCLUDE\UM\DEBUGAPI.H
C:\PROGRAM FILES (X86)\WINDOWS KITS\8.1\INCLUDE\UM\UTILAPISET.H
C:\PROGRAM FILES (X86)\WINDOWS KITS\8.1\INCLUDE\UM\HANDLEAPI.H
C:\PROGRAM FILES (X86)\WINDOWS KITS\8.1\INCLUDE\UM\ERRHANDLINGAPI.H
C:\PROGRAM FILES (X86)\WINDOWS KITS\8.1\INCLUDE\UM\FIBERSAPI.H
C:\PROGRAM FILES (X86)\WINDOWS KITS\8.1\INCLUDE\UM\NAMEDPIPEAPI.H
C:\PROGRAM FILES (X86)\WINDOWS KITS\8.1\INCLUDE\UM\PROFILEAPI.H
C:\PROGRAM FILES (X86)\WINDOWS KITS\8.1\INCLUDE\UM\HEAPAPI.H
C:\PROGRAM FILES (X86)\WINDOWS KITS\8.1\INCLUDE\UM\IOAPISET.H
C:\PROGRAM FILES (X86)\WINDOWS KITS\8.1\INCLUDE\UM\SYNCHAPI.H
C:\PROGRAM FILES (X86)\WINDOWS KITS\8.1\INCLUDE\UM\INTERLOCKEDAPI.H
C:\PROGRAM FILES (X86)\WINDOWS KITS\8.1\INCLUDE\UM\PROCESSTHREADSAPI.H
C:\PROGRAM FILES (X86)\WINDOWS KITS\8.1\INCLUDE\UM\SYSINFOAPI.H
C:\PROGRAM FILES (X86)\WINDOWS KITS\8.1\INCLUDE\UM\MEMORYAPI.H
C:\PROGRAM FILES (X86)\WINDOWS KITS\8.1\INCLUDE\UM\THREADPOOLLEGACYAPISET.H
C:\PROGRAM FILES (X86)\WINDOWS KITS\8.1\INCLUDE\UM\THREADPOOLAPISET.H
C:\PROGRAM FILES (X86)\WINDOWS KITS\8.1\INCLUDE\UM\BEMAPISET.H
C:\PROGRAM FILES (X86)\WINDOWS KITS\8.1\INCLUDE\UM\JOBAPI.H
C:\PROGRAM FILES (X86)\WINDOWS KITS\8.1\INCLUDE\UM\WOW64APISET.H
C:\PROGRAM FILES (X86)\WINDOWS KITS\8.1\INCLUDE\UM\LIBLOADERAPI.H
C:\PROGRAM FILES (X86)\WINDOWS KITS\8.1\INCLUDE\UM\SECURITYBASEAPI.H
C:\PROGRAM FILES (X86)\WINDOWS KITS\8.1\INCLUDE\UM\NAMESPACEAPI.H
C:\PROGRAM FILES (X86)\WINDOWS KITS\8.1\INCLUDE\UM\SYSTEMTOPOLOGYAPI.H
C:\PROGRAM FILES (X86)\WINDOWS KITS\8.1\INCLUDE\UM\PROCESSTOPOLOGYAPI.H
C:\PROGRAM FILES (X86)\WINDOWS KITS\8.1\INCLUDE\UM\SECURITYAPPCONTAINER.H
C:\PROGRAM FILES (X86)\WINDOWS KITS\8.1\INCLUDE\UM\REALTIMEAPISET.H
C:\PROGRAM FILES (X86)\WINDOWS KITS\8.1\INCLUDE\SHARED\WINERROR.H
C:\PROGRAM FILES (X86)\WINDOWS KITS\8.1\INCLUDE\UM\TIMEZONEAPI.H
C:\PROGRAM FILES (X86)\WINDOWS KITS\8.1\INCLUDE\UM\WINGDI.H
C:\PROGRAM FILES (X86)\WINDOWS KITS\8.1\INCLUDE\SHARED\PSHPACK1.H
C:\PROGRAM FILES (X86)\WINDOWS KITS\8.1\INCLUDE\UM\WINUSER.H
C:\PROGRAM FILES (X86)\WINDOWS KITS\8.1\INCLUDE\SHARED\TVOUT.H
C:\PROGRAM FILES (X86)\WINDOWS KITS\8.1\INCLUDE\UM\WINNLS.H
C:\PROGRAM FILES (X86)\WINDOWS KITS\8.1\INCLUDE\UM\DATETIMEAPI.H
C:\PROGRAM FILES (X86)\WINDOWS KITS\8.1\INCLUDE\UM\STRINGAPISET.H
C:\PROGRAM FILES (X86)\WINDOWS KITS\8.1\INCLUDE\UM\WINCON.H
C:\PROGRAM FILES (X86)\WINDOWS KITS\8.1\INCLUDE\UM\CONSOLEAPI.H
C:\PROGRAM FILES (X86)\WINDOWS KITS\8.1\INCLUDE\UM\WINVER.H
C:\PROGRAM FILES (X86)\WINDOWS KITS\8.1\INCLUDE\UM\VERRSRC.H
C:\PROGRAM FILES (X86)\WINDOWS KITS\8.1\INCLUDE\UM\WINREG.H
C:\PROGRAM FILES (X86)\WINDOWS KITS\8.1\INCLUDE\UM\REASON.H
C:\PROGRAM FILES (X86)\WINDOWS KITS\8.1\INCLUDE\UM\WINNETWK.H
C:\PROGRAM FILES (X86)\WINDOWS KITS\8.1\INCLUDE\SHARED\WNNC.H
C:\PROGRAM FILES (X86)\WINDOWS KITS\8.1\INCLUDE\SHARED\CDERR.H
C:\PROGRAM FILES (X86)\WINDOWS KITS\8.1\INCLUDE\UM\DDE.H
C:\PROGRAM FILES (X86)\WINDOWS KITS\8.1\INCLUDE\UM\DDEML.H
C:\PROGRAM FILES (X86)\WINDOWS KITS\8.1\INCLUDE\UM\DLGS.H
C:\PROGRAM FILES (X86)\WINDOWS KITS\8.1\INCLUDE\UM\LZEXPAND.H
C:\PROGRAM FILES (X86)\WINDOWS KITS\8.1\INCLUDE\UM\MMSYSTEM.H
C:\PROGRAM FILES (X86)\WINDOWS KITS\8.1\INCLUDE\UM\MMSYSCOM.H
C:\PROGRAM FILES (X86)\WINDOWS KITS\8.1\INCLUDE\UM\MCIAPI.H
C:\PROGRAM FILES (X86)\WINDOWS KITS\8.1\INCLUDE\UM\MMISCAPI.H
C:\PROGRAM FILES (X86)\WINDOWS KITS\8.1\INCLUDE\UM\MMISCAPI2.H
C:\PROGRAM FILES (X86)\WINDOWS KITS\8.1\INCLUDE\UM\PLAYSOUNDAPI.H
C:\PROGRAM FILES (X86)\WINDOWS KITS\8.1\INCLUDE\UM\MMEAPI.H
C:\PROGRAM FILES (X86)\WINDOWS KITS\8.1\INCLUDE\UM\TIMEAPI.H
C:\PROGRAM FILES (X86)\WINDOWS KITS\8.1\INCLUDE\UM\JOYSTICKAPI.H
C:\PROGRAM FILES (X86)\WINDOWS KITS\8.1\INCLUDE\UM\NB30.H
C:\PROGRAM FILES (X86)\WINDOWS KITS\8.1\INCLUDE\SHARED\RPC.H
C:\PROGRAM FILES (X86)\WINDOWS KITS\8.1\INCLUDE\SHARED\RPCDCE.H
C:\PROGRAM FILES (X86)\WINDOWS KITS\8.1\INCLUDE\SHARED\RPCDCEP.H
C:\PROGRAM FILES (X86)\WINDOWS KITS\8.1\INCLUDE\UM\RPCNSI.H
C:\PROGRAM FILES (X86)\WINDOWS KITS\8.1\INCLUDE\SHARED\RPCNTERR.H
C:\PROGRAM FILES (X86)\WINDOWS KITS\8.1\INCLUDE\SHARED\RPCASYNC.H
C:\PROGRAM FILES (X86)\WINDOWS KITS\8.1\INCLUDE\UM\SHELLAPI.H
C:\PROGRAM FILES (X86)\WINDOWS KITS\8.1\INCLUDE\UM\WINPERF.H
C:\PROGRAM FILES (X86)\WINDOWS KITS\8.1\INCLUDE\UM\WINSOCK.H
C:\PROGRAM FILES (X86)\WINDOWS KITS\8.1\INCLUDE\SHARED\INADDR.H
C:\PROGRAM FILES (X86)\WINDOWS KITS\8.1\INCLUDE\UM\WINCRYPT.H
C:\PROGRAM FILES (X86)\WINDOWS KITS\8.1\INCLUDE\SHARED\BCRYPT.H
C:\PROGRAM FILES (X86)\WINDOWS KITS\8.1\INCLUDE\UM\NCRYPT.H
C:\PROGRAM FILES (X86)\WINDOWS KITS\8.1\INCLUDE\UM\DPAPI.H
C:\PROGRAM FILES (X86)\WINDOWS KITS\8.1\INCLUDE\UM\WINEFS.H
C:\PROGRAM FILES (X86)\WINDOWS KITS\8.1\INCLUDE\UM\WINSCARD.H
C:\PROGRAM FILES (X86)\WINDOWS KITS\8.1\INCLUDE\SHARED\WTYPES.H
C:\PROGRAM FILES (X86)\WINDOWS KITS\8.1\INCLUDE\SHARED\RPCNDR.H
C:\PROGRAM FILES (X86)\WINDOWS KITS\8.1\INCLUDE\UM\RPCNSIP.H
C:\PROGRAM FILES (X86)\WINDOWS KITS\8.1\INCLUDE\SHARED\RPCSAL.H
C:\PROGRAM FILES (X86)\WINDOWS KITS\8.1\INCLUDE\SHARED\WTYPESBASE.H
C:\PROGRAM FILES (X86)\WINDOWS KITS\8.1\INCLUDE\UM\WINIOCTL.H
C:\PROGRAM FILES (X86)\WINDOWS KITS\8.1\INCLUDE\SHARED\WINSMCRD.H
C:\PROGRAM FILES (X86)\WINDOWS KITS\8.1\INCLUDE\UM\WINSPOOL.H
C:\PROGRAM FILES (X86)\WINDOWS KITS\8.1\INCLUDE\UM\PRSHT.H
C:\PROGRAM FILES (X86)\WINDOWS KITS\8.1\INCLUDE\UM\OLE2.H
C:\PROGRAM FILES (X86)\WINDOWS KITS\8.1\INCLUDE\UM\OBJBASE.H
C:\PROGRAM FILES (X86)\WINDOWS KITS\8.1\INCLUDE\UM\COMBASEAPI.H
C:\PROGRAM FILES (X86)\WINDOWS KITS\8.1\INCLUDE\UM\UNKNWNBASE.H
C:\PROGRAM FILES (X86)\WINDOWS KITS\8.1\INCLUDE\UM\OBJIDLBASE.H
C:\PROGRAM FILES (X86)\WINDOWS KITS\8.1\INCLUDE\UM\CGUID.H
C:\PROGRAM FILES (X86)\WINDOWS KITS\8.1\INCLUDE\UM\OBJIDL.H
C:\PROGRAM FILES (X86)\WINDOWS KITS\8.1\INCLUDE\UM\UNKNWN.H
C:\PROGRAM FILES (X86)\WINDOWS KITS\8.1\INCLUDE\UM\URLMON.H
C:\PROGRAM FILES (X86)\WINDOWS KITS\8.1\INCLUDE\UM\OLEIDL.H
C:\PROGRAM FILES (X86)\WINDOWS KITS\8.1\INCLUDE\UM\SERVPROV.H
C:\PROGRAM FILES (X86)\WINDOWS KITS\8.1\INCLUDE\UM\MSXML.H
C:\PROGRAM FILES (X86)\WINDOWS KITS\8.1\INCLUDE\UM\OAIDL.H
C:\PROGRAM FILES (X86)\WINDOWS KITS\8.1\INCLUDE\UM\PROPIDL.H
C:\PROGRAM FILES (X86)\WINDOWS KITS\8.1\INCLUDE\UM\OLEAUTO.H
C:\PROGRAM FILES (X86)\WINDOWS KITS\8.1\INCLUDE\UM\COMMDLG.H
C:\PROGRAM FILES (X86)\WINDOWS KITS\8.1\INCLUDE\SHARED\STRALIGN.H
C:\PROGRAM FILES (X86)\WINDOWS KITS\8.1\INCLUDE\UM\WINSVC.H
C:\PROGRAM FILES (X86)\WINDOWS KITS\8.1\INCLUDE\UM\MCX.H
C:\PROGRAM FILES (X86)\WINDOWS KITS\8.1\INCLUDE\UM\IMM.H
C:\PROGRAM FILES (X86)\WINDOWS KITS\8.1\INCLUDE\UM\IME_CMODES.H
