^H:\OPENGL\CODE_REPOSITORY\OPENGL_REPOSITORY\PROJECTS\COORDINATESYSTEM\COORDINATESYSTEM\BASE.CPP|H:\OPENGL\CODE_REPOSITORY\OPENGL_REPOSITORY\PROJECTS\COORDINATESYSTEM\COORDINATESYSTEM\CAMERA.CPP|H:\OPENGL\CODE_REPOSITORY\OPENGL_REPOSITORY\PROJECTS\COORDINATESYSTEM\COORDINATESYSTEM\HELLOTRIANGLE.CPP|H:\OPENGL\CODE_REPOSITORY\OPENGL_REPOSITORY\PROJECTS\COORDINATESYSTEM\COORDINATESYSTEM\SHADER.CPP
H:\OPENGL\CODE_REPOSITORY\OPENGL_REPOSITORY\PROJECTS\COORDINATESYSTEM\COORDINATESYSTEM\DEBUG\VC140.PDB
H:\OPENGL\CODE_REPOSITORY\OPENGL_REPOSITORY\PROJECTS\COORDINATESYSTEM\COORDINATESYSTEM\DEBUG\VC140.IDB
H:\OPENGL\CODE_REPOSITORY\OPENGL_REPOSITORY\PROJECTS\COORDINATESYSTEM\COORDINATESYSTEM\DEBUG\BASE.OBJ
H:\OPENGL\CODE_REPOSITORY\OPENGL_REPOSITORY\PROJECTS\COORDINATESYSTEM\COORDINATESYSTEM\DEBUG\CAMERA.OBJ
H:\OPENGL\CODE_REPOSITORY\OPENGL_REPOSITORY\PROJECTS\COORDINATESYSTEM\COORDINATESYSTEM\DEBUG\HELLOTRIANGLE.OBJ
H:\OPENGL\CODE_REPOSITORY\OPENGL_REPOSITORY\PROJECTS\COORDINATESYSTEM\COORDINATESYSTEM\DEBUG\SHADER.OBJ
^H:\OPENGL\CODE_REPOSITORY\OPENGL_REPOSITORY\PROJECTS\COORDINATESYSTEM\COORDINATESYSTEM\BASE.CPP
H:\OPENGL\CODE_REPOSITORY\OPENGL_REPOSITORY\PROJECTS\COORDINATESYSTEM\COORDINATESYSTEM\DEBUG\VC140.PDB
^H:\OPENGL\CODE_REPOSITORY\OPENGL_REPOSITORY\PROJECTS\COORDINATESYSTEM\COORDINATESYSTEM\CAMERA.CPP
H:\OPENGL\CODE_REPOSITORY\OPENGL_REPOSITORY\PROJECTS\COORDINATESYSTEM\COORDINATESYSTEM\DEBUG\VC140.PDB
^H:\OPENGL\CODE_REPOSITORY\OPENGL_REPOSITORY\PROJECTS\COORDINATESYSTEM\COORDINATESYSTEM\HELLOTRIANGLE.CPP
H:\OPENGL\CODE_REPOSITORY\OPENGL_REPOSITORY\PROJECTS\COORDINATESYSTEM\COORDINATESYSTEM\DEBUG\VC140.PDB
H:\OPENGL\CODE_REPOSITORY\OPENGL_REPOSITORY\PROJECTS\COORDINATESYSTEM\COORDINATESYSTEM\DEBUG\VC140.IDB
H:\OPENGL\CODE_REPOSITORY\OPENGL_REPOSITORY\PROJECTS\COORDINATESYSTEM\COORDINATESYSTEM\DEBUG\HELLOTRIANGLE.OBJ
^H:\OPENGL\CODE_REPOSITORY\OPENGL_REPOSITORY\PROJECTS\COORDINATESYSTEM\COORDINATESYSTEM\SHADER.CPP
H:\OPENGL\CODE_REPOSITORY\OPENGL_REPOSITORY\PROJECTS\COORDINATESYSTEM\COORDINATESYSTEM\DEBUG\VC140.PDB
^H:\OPENGL\CODE_REPOSITORY\OPENGL_REPOSITORY\PROJECTS\COORDINATESYSTEM\COORDINATESYSTEM\GLAD.C
H:\OPENGL\CODE_REPOSITORY\OPENGL_REPOSITORY\PROJECTS\COORDINATESYSTEM\COORDINATESYSTEM\DEBUG\VC140.PDB
H:\OPENGL\CODE_REPOSITORY\OPENGL_REPOSITORY\PROJECTS\COORDINATESYSTEM\COORDINATESYSTEM\DEBUG\VC140.IDB
H:\OPENGL\CODE_REPOSITORY\OPENGL_REPOSITORY\PROJECTS\COORDINATESYSTEM\COORDINATESYSTEM\DEBUG\GLAD.OBJ
