^H:\OPENGL\CODE_REPOSITORY\OPENGL_REPOSITORY\PROJECTS\COORDINATESYSTEM\COORDINATESYSTEM\DEBUG\BASE.OBJ|H:\OPENGL\CODE_REPOSITORY\OPENGL_REPOSITORY\PROJECTS\COORDINATESYSTEM\COORDINATESYSTEM\DEBUG\CAMERA.OBJ|H:\OPENGL\CODE_REPOSITORY\OPENGL_REPOSITORY\PROJECTS\COORDINATESYSTEM\COORDINATESYSTEM\DEBUG\GLAD.OBJ|H:\OPENGL\CODE_REPOSITORY\OPENGL_REPOSITORY\PROJECTS\COORDINATESYSTEM\COORDINATESYSTEM\DEBUG\HELLOTRIANGLE.OBJ|H:\OPENGL\CODE_REPOSITORY\OPENGL_REPOSITORY\PROJECTS\COORDINATESYSTEM\COORDINATESYSTEM\DEBUG\SHADER.OBJ
H:\OPENGL\CODE_REPOSITORY\OPENGL_REPOSITORY\PROJECTS\COORDINATESYSTEM\DEBUG\COORDINATESYSTEM.ILK
H:\OPENGL\CODE_REPOSITORY\OPENGL_REPOSITORY\PROJECTS\COORDINATESYSTEM\DEBUG\COORDINATESYSTEM.EXE
H:\OPENGL\CODE_REPOSITORY\OPENGL_REPOSITORY\PROJECTS\COORDINATESYSTEM\DEBUG\COORDINATESYSTEM.PDB
