h:\opengl\code_repository\opengl_repository\projects\lightcasters\lightcasters\debug\vc140.pdb
h:\opengl\code_repository\opengl_repository\projects\lightcasters\lightcasters\debug\vc140.idb
h:\opengl\code_repository\opengl_repository\projects\lightcasters\lightcasters\debug\base.obj
h:\opengl\code_repository\opengl_repository\projects\lightcasters\lightcasters\debug\camera.obj
h:\opengl\code_repository\opengl_repository\projects\lightcasters\lightcasters\debug\main.obj
h:\opengl\code_repository\opengl_repository\projects\lightcasters\lightcasters\debug\shader.obj
h:\opengl\code_repository\opengl_repository\projects\lightcasters\lightcasters\debug\glad.obj
h:\opengl\code_repository\opengl_repository\projects\lightcasters\debug\lightcasters.ilk
h:\opengl\code_repository\opengl_repository\projects\lightcasters\debug\lightcasters.exe
h:\opengl\code_repository\opengl_repository\projects\lightcasters\debug\lightcasters.pdb
h:\opengl\code_repository\opengl_repository\projects\lightcasters\lightcasters\debug\lightcasters.tlog\cl.command.1.tlog
h:\opengl\code_repository\opengl_repository\projects\lightcasters\lightcasters\debug\lightcasters.tlog\cl.read.1.tlog
h:\opengl\code_repository\opengl_repository\projects\lightcasters\lightcasters\debug\lightcasters.tlog\cl.write.1.tlog
h:\opengl\code_repository\opengl_repository\projects\lightcasters\lightcasters\debug\lightcasters.tlog\link.command.1.tlog
h:\opengl\code_repository\opengl_repository\projects\lightcasters\lightcasters\debug\lightcasters.tlog\link.read.1.tlog
h:\opengl\code_repository\opengl_repository\projects\lightcasters\lightcasters\debug\lightcasters.tlog\link.write.1.tlog
