^H:\OPENGL\CODE_REPOSITORY\OPENGL_REPOSITORY\PROJECTS\MATERIALS\MATERIALS\BASE.CPP|H:\OPENGL\CODE_REPOSITORY\OPENGL_REPOSITORY\PROJECTS\MATERIALS\MATERIALS\CAMERA.CPP|H:\OPENGL\CODE_REPOSITORY\OPENGL_REPOSITORY\PROJECTS\MATERIALS\MATERIALS\MAIN.CPP|H:\OPENGL\CODE_REPOSITORY\OPENGL_REPOSITORY\PROJECTS\MATERIALS\MATERIALS\SHADER.CPP
H:\OPENGL\CODE_REPOSITORY\OPENGL_REPOSITORY\PROJECTS\MATERIALS\MATERIALS\DEBUG\VC140.PDB
H:\OPENGL\CODE_REPOSITORY\OPENGL_REPOSITORY\PROJECTS\MATERIALS\MATERIALS\DEBUG\VC140.IDB
H:\OPENGL\CODE_REPOSITORY\OPENGL_REPOSITORY\PROJECTS\MATERIALS\MATERIALS\DEBUG\BASE.OBJ
H:\OPENGL\CODE_REPOSITORY\OPENGL_REPOSITORY\PROJECTS\MATERIALS\MATERIALS\DEBUG\CAMERA.OBJ
H:\OPENGL\CODE_REPOSITORY\OPENGL_REPOSITORY\PROJECTS\MATERIALS\MATERIALS\DEBUG\MAIN.OBJ
H:\OPENGL\CODE_REPOSITORY\OPENGL_REPOSITORY\PROJECTS\MATERIALS\MATERIALS\DEBUG\SHADER.OBJ
^H:\OPENGL\CODE_REPOSITORY\OPENGL_REPOSITORY\PROJECTS\MATERIALS\MATERIALS\BASE.CPP
H:\OPENGL\CODE_REPOSITORY\OPENGL_REPOSITORY\PROJECTS\MATERIALS\MATERIALS\DEBUG\VC140.PDB
^H:\OPENGL\CODE_REPOSITORY\OPENGL_REPOSITORY\PROJECTS\MATERIALS\MATERIALS\CAMERA.CPP
H:\OPENGL\CODE_REPOSITORY\OPENGL_REPOSITORY\PROJECTS\MATERIALS\MATERIALS\DEBUG\VC140.PDB
^H:\OPENGL\CODE_REPOSITORY\OPENGL_REPOSITORY\PROJECTS\MATERIALS\MATERIALS\MAIN.CPP
H:\OPENGL\CODE_REPOSITORY\OPENGL_REPOSITORY\PROJECTS\MATERIALS\MATERIALS\DEBUG\VC140.PDB
H:\OPENGL\CODE_REPOSITORY\OPENGL_REPOSITORY\PROJECTS\MATERIALS\MATERIALS\DEBUG\VC140.IDB
H:\OPENGL\CODE_REPOSITORY\OPENGL_REPOSITORY\PROJECTS\MATERIALS\MATERIALS\DEBUG\MAIN.OBJ
^H:\OPENGL\CODE_REPOSITORY\OPENGL_REPOSITORY\PROJECTS\MATERIALS\MATERIALS\SHADER.CPP
H:\OPENGL\CODE_REPOSITORY\OPENGL_REPOSITORY\PROJECTS\MATERIALS\MATERIALS\DEBUG\VC140.PDB
^H:\OPENGL\CODE_REPOSITORY\OPENGL_REPOSITORY\PROJECTS\MATERIALS\MATERIALS\GLAD.C
H:\OPENGL\CODE_REPOSITORY\OPENGL_REPOSITORY\PROJECTS\MATERIALS\MATERIALS\DEBUG\VC140.PDB
H:\OPENGL\CODE_REPOSITORY\OPENGL_REPOSITORY\PROJECTS\MATERIALS\MATERIALS\DEBUG\VC140.IDB
H:\OPENGL\CODE_REPOSITORY\OPENGL_REPOSITORY\PROJECTS\MATERIALS\MATERIALS\DEBUG\GLAD.OBJ
