^H:\OPENGL\CODE_REPOSITORY\OPENGL_REPOSITORY\PROJECTS\TEXTUREMIX\TEXTUREMIX\BASE.CPP|H:\OPENGL\CODE_REPOSITORY\OPENGL_REPOSITORY\PROJECTS\TEXTUREMIX\TEXTUREMIX\HELLOTRIANGLE.CPP|H:\OPENGL\CODE_REPOSITORY\OPENGL_REPOSITORY\PROJECTS\TEXTUREMIX\TEXTUREMIX\SHADER.CPP
H:\OPENGL\CODE_REPOSITORY\OPENGL_REPOSITORY\PROJECTS\TEXTUREMIX\TEXTUREMIX\DEBUG\VC140.PDB
H:\OPENGL\CODE_REPOSITORY\OPENGL_REPOSITORY\PROJECTS\TEXTUREMIX\TEXTUREMIX\DEBUG\VC140.IDB
H:\OPENGL\CODE_REPOSITORY\OPENGL_REPOSITORY\PROJECTS\TEXTUREMIX\TEXTUREMIX\DEBUG\BASE.OBJ
H:\OPENGL\CODE_REPOSITORY\OPENGL_REPOSITORY\PROJECTS\TEXTUREMIX\TEXTUREMIX\DEBUG\HELLOTRIANGLE.OBJ
H:\OPENGL\CODE_REPOSITORY\OPENGL_REPOSITORY\PROJECTS\TEXTUREMIX\TEXTUREMIX\DEBUG\SHADER.OBJ
^H:\OPENGL\CODE_REPOSITORY\OPENGL_REPOSITORY\PROJECTS\TEXTUREMIX\TEXTUREMIX\BASE.CPP
H:\OPENGL\CODE_REPOSITORY\OPENGL_REPOSITORY\PROJECTS\TEXTUREMIX\TEXTUREMIX\DEBUG\VC140.PDB
^H:\OPENGL\CODE_REPOSITORY\OPENGL_REPOSITORY\PROJECTS\TEXTUREMIX\TEXTUREMIX\HELLOTRIANGLE.CPP
H:\OPENGL\CODE_REPOSITORY\OPENGL_REPOSITORY\PROJECTS\TEXTUREMIX\TEXTUREMIX\DEBUG\VC140.PDB
H:\OPENGL\CODE_REPOSITORY\OPENGL_REPOSITORY\PROJECTS\TEXTUREMIX\TEXTUREMIX\DEBUG\VC140.IDB
H:\OPENGL\CODE_REPOSITORY\OPENGL_REPOSITORY\PROJECTS\TEXTUREMIX\TEXTUREMIX\DEBUG\HELLOTRIANGLE.OBJ
^H:\OPENGL\CODE_REPOSITORY\OPENGL_REPOSITORY\PROJECTS\TEXTUREMIX\TEXTUREMIX\SHADER.CPP
H:\OPENGL\CODE_REPOSITORY\OPENGL_REPOSITORY\PROJECTS\TEXTUREMIX\TEXTUREMIX\DEBUG\VC140.PDB
^H:\OPENGL\CODE_REPOSITORY\OPENGL_REPOSITORY\PROJECTS\TEXTUREMIX\TEXTUREMIX\GLAD.C
H:\OPENGL\CODE_REPOSITORY\OPENGL_REPOSITORY\PROJECTS\TEXTUREMIX\TEXTUREMIX\DEBUG\VC140.PDB
H:\OPENGL\CODE_REPOSITORY\OPENGL_REPOSITORY\PROJECTS\TEXTUREMIX\TEXTUREMIX\DEBUG\VC140.IDB
H:\OPENGL\CODE_REPOSITORY\OPENGL_REPOSITORY\PROJECTS\TEXTUREMIX\TEXTUREMIX\DEBUG\GLAD.OBJ
