^H:\OPENGL\CODE_REPOSITORY\OPENGL_REPOSITORY\PROJECTS\MODELLOADING\MODELLOADING\BASE.CPP|H:\OPENGL\CODE_REPOSITORY\OPENGL_REPOSITORY\PROJECTS\MODELLOADING\MODELLOADING\CAMERA.CPP|H:\OPENGL\CODE_REPOSITORY\OPENGL_REPOSITORY\PROJECTS\MODELLOADING\MODELLOADING\MAIN.CPP|H:\OPENGL\CODE_REPOSITORY\OPENGL_REPOSITORY\PROJECTS\MODELLOADING\MODELLOADING\MESH.CPP|H:\OPENGL\CODE_REPOSITORY\OPENGL_REPOSITORY\PROJECTS\MODELLOADING\MODELLOADING\MODEL.CPP|H:\OPENGL\CODE_REPOSITORY\OPENGL_REPOSITORY\PROJECTS\MODELLOADING\MODELLOADING\SHADER.CPP
H:\OPENGL\CODE_REPOSITORY\OPENGL_REPOSITORY\PROJECTS\MODELLOADING\MODELLOADING\DEBUG\VC140.PDB
H:\OPENGL\CODE_REPOSITORY\OPENGL_REPOSITORY\PROJECTS\MODELLOADING\MODELLOADING\DEBUG\VC140.IDB
H:\OPENGL\CODE_REPOSITORY\OPENGL_REPOSITORY\PROJECTS\MODELLOADING\MODELLOADING\DEBUG\BASE.OBJ
H:\OPENGL\CODE_REPOSITORY\OPENGL_REPOSITORY\PROJECTS\MODELLOADING\MODELLOADING\DEBUG\CAMERA.OBJ
H:\OPENGL\CODE_REPOSITORY\OPENGL_REPOSITORY\PROJECTS\MODELLOADING\MODELLOADING\DEBUG\MAIN.OBJ
H:\OPENGL\CODE_REPOSITORY\OPENGL_REPOSITORY\PROJECTS\MODELLOADING\MODELLOADING\DEBUG\MESH.OBJ
H:\OPENGL\CODE_REPOSITORY\OPENGL_REPOSITORY\PROJECTS\MODELLOADING\MODELLOADING\DEBUG\MODEL.OBJ
H:\OPENGL\CODE_REPOSITORY\OPENGL_REPOSITORY\PROJECTS\MODELLOADING\MODELLOADING\DEBUG\SHADER.OBJ
^H:\OPENGL\CODE_REPOSITORY\OPENGL_REPOSITORY\PROJECTS\MODELLOADING\MODELLOADING\BASE.CPP
H:\OPENGL\CODE_REPOSITORY\OPENGL_REPOSITORY\PROJECTS\MODELLOADING\MODELLOADING\DEBUG\VC140.PDB
^H:\OPENGL\CODE_REPOSITORY\OPENGL_REPOSITORY\PROJECTS\MODELLOADING\MODELLOADING\CAMERA.CPP
H:\OPENGL\CODE_REPOSITORY\OPENGL_REPOSITORY\PROJECTS\MODELLOADING\MODELLOADING\DEBUG\VC140.PDB
^H:\OPENGL\CODE_REPOSITORY\OPENGL_REPOSITORY\PROJECTS\MODELLOADING\MODELLOADING\MAIN.CPP
H:\OPENGL\CODE_REPOSITORY\OPENGL_REPOSITORY\PROJECTS\MODELLOADING\MODELLOADING\DEBUG\VC140.PDB
H:\OPENGL\CODE_REPOSITORY\OPENGL_REPOSITORY\PROJECTS\MODELLOADING\MODELLOADING\DEBUG\VC140.IDB
H:\OPENGL\CODE_REPOSITORY\OPENGL_REPOSITORY\PROJECTS\MODELLOADING\MODELLOADING\DEBUG\MAIN.OBJ
^H:\OPENGL\CODE_REPOSITORY\OPENGL_REPOSITORY\PROJECTS\MODELLOADING\MODELLOADING\MESH.CPP
H:\OPENGL\CODE_REPOSITORY\OPENGL_REPOSITORY\PROJECTS\MODELLOADING\MODELLOADING\DEBUG\VC140.PDB
H:\OPENGL\CODE_REPOSITORY\OPENGL_REPOSITORY\PROJECTS\MODELLOADING\MODELLOADING\DEBUG\VC140.IDB
H:\OPENGL\CODE_REPOSITORY\OPENGL_REPOSITORY\PROJECTS\MODELLOADING\MODELLOADING\DEBUG\MESH.OBJ
^H:\OPENGL\CODE_REPOSITORY\OPENGL_REPOSITORY\PROJECTS\MODELLOADING\MODELLOADING\MODEL.CPP
H:\OPENGL\CODE_REPOSITORY\OPENGL_REPOSITORY\PROJECTS\MODELLOADING\MODELLOADING\DEBUG\VC140.PDB
H:\OPENGL\CODE_REPOSITORY\OPENGL_REPOSITORY\PROJECTS\MODELLOADING\MODELLOADING\DEBUG\VC140.IDB
H:\OPENGL\CODE_REPOSITORY\OPENGL_REPOSITORY\PROJECTS\MODELLOADING\MODELLOADING\DEBUG\MODEL.OBJ
^H:\OPENGL\CODE_REPOSITORY\OPENGL_REPOSITORY\PROJECTS\MODELLOADING\MODELLOADING\SHADER.CPP
H:\OPENGL\CODE_REPOSITORY\OPENGL_REPOSITORY\PROJECTS\MODELLOADING\MODELLOADING\DEBUG\VC140.PDB
^H:\OPENGL\CODE_REPOSITORY\OPENGL_REPOSITORY\PROJECTS\MODELLOADING\MODELLOADING\GLAD.C
H:\OPENGL\CODE_REPOSITORY\OPENGL_REPOSITORY\PROJECTS\MODELLOADING\MODELLOADING\DEBUG\VC140.PDB
H:\OPENGL\CODE_REPOSITORY\OPENGL_REPOSITORY\PROJECTS\MODELLOADING\MODELLOADING\DEBUG\VC140.IDB
H:\OPENGL\CODE_REPOSITORY\OPENGL_REPOSITORY\PROJECTS\MODELLOADING\MODELLOADING\DEBUG\GLAD.OBJ
^H:\OPENGL\CODE_REPOSITORY\OPENGL_REPOSITORY\PROJECTS\MODELLOADING\MODELLOADING\MAIN.CPP|H:\OPENGL\CODE_REPOSITORY\OPENGL_REPOSITORY\PROJECTS\MODELLOADING\MODELLOADING\MODEL.CPP
H:\OPENGL\CODE_REPOSITORY\OPENGL_REPOSITORY\PROJECTS\MODELLOADING\MODELLOADING\DEBUG\VC140.PDB
H:\OPENGL\CODE_REPOSITORY\OPENGL_REPOSITORY\PROJECTS\MODELLOADING\MODELLOADING\DEBUG\VC140.IDB
H:\OPENGL\CODE_REPOSITORY\OPENGL_REPOSITORY\PROJECTS\MODELLOADING\MODELLOADING\DEBUG\MAIN.OBJ
H:\OPENGL\CODE_REPOSITORY\OPENGL_REPOSITORY\PROJECTS\MODELLOADING\MODELLOADING\DEBUG\MODEL.OBJ
^H:\OPENGL\CODE_REPOSITORY\OPENGL_REPOSITORY\PROJECTS\MODELLOADING\MODELLOADING\MAIN.CPP|H:\OPENGL\CODE_REPOSITORY\OPENGL_REPOSITORY\PROJECTS\MODELLOADING\MODELLOADING\MESH.CPP|H:\OPENGL\CODE_REPOSITORY\OPENGL_REPOSITORY\PROJECTS\MODELLOADING\MODELLOADING\MODEL.CPP
H:\OPENGL\CODE_REPOSITORY\OPENGL_REPOSITORY\PROJECTS\MODELLOADING\MODELLOADING\DEBUG\VC140.PDB
H:\OPENGL\CODE_REPOSITORY\OPENGL_REPOSITORY\PROJECTS\MODELLOADING\MODELLOADING\DEBUG\VC140.IDB
H:\OPENGL\CODE_REPOSITORY\OPENGL_REPOSITORY\PROJECTS\MODELLOADING\MODELLOADING\DEBUG\MODEL.OBJ
H:\OPENGL\CODE_REPOSITORY\OPENGL_REPOSITORY\PROJECTS\MODELLOADING\MODELLOADING\DEBUG\MAIN.OBJ
H:\OPENGL\CODE_REPOSITORY\OPENGL_REPOSITORY\PROJECTS\MODELLOADING\MODELLOADING\DEBUG\MESH.OBJ
