^H:\OPENGL\CODE_REPOSITORY\OPENGL_REPOSITORY\PROJECTS\MODELLOADING\MODELLOADING\DEBUG\BASE.OBJ|H:\OPENGL\CODE_REPOSITORY\OPENGL_REPOSITORY\PROJECTS\MODELLOADING\MODELLOADING\DEBUG\CAMERA.OBJ|H:\OPENGL\CODE_REPOSITORY\OPENGL_REPOSITORY\PROJECTS\MODELLOADING\MODELLOADING\DEBUG\GLAD.OBJ|H:\OPENGL\CODE_REPOSITORY\OPENGL_REPOSITORY\PROJECTS\MODELLOADING\MODELLOADING\DEBUG\MAIN.OBJ|H:\OPENGL\CODE_REPOSITORY\OPENGL_REPOSITORY\PROJECTS\MODELLOADING\MODELLOADING\DEBUG\MESH.OBJ|H:\OPENGL\CODE_REPOSITORY\OPENGL_REPOSITORY\PROJECTS\MODELLOADING\MODELLOADING\DEBUG\MODEL.OBJ|H:\OPENGL\CODE_REPOSITORY\OPENGL_REPOSITORY\PROJECTS\MODELLOADING\MODELLOADING\DEBUG\SHADER.OBJ
H:\OPENGL\CODE_REPOSITORY\OPENGL_REPOSITORY\PROJECTS\MODELLOADING\DEBUG\MODELLOADING.ILK
H:\OPENGL\CODE_REPOSITORY\OPENGL_REPOSITORY\PROJECTS\MODELLOADING\DEBUG\MODELLOADING.EXE
H:\OPENGL\CODE_REPOSITORY\OPENGL_REPOSITORY\PROJECTS\MODELLOADING\DEBUG\MODELLOADING.PDB
